59.50553894042969 449.4439392089844 0.9025644063949585
59.079471588134766 448.8338623046875 1.019730567932129
58.72764205932617 448.17816162109375 1.1368967294692993
58.454872131347656 447.48583984375 1.2540628910064697
58.2649040222168 446.7663879394531 1.3712290525436401
58.160343170166016 446.0296630859375 1.4883952140808105
58.48957443237305 450.0160827636719 1.4883952140808105
58.81880569458008 454.00250244140625 1.4883952140808105
59.14803695678711 457.9889221191406 1.4883952140808105
59.47726821899414 461.975341796875 1.4883952140808105
59.80649948120117 465.9617614746094 1.4883952140808105
60.1357307434082 469.94818115234375 1.4883952140808105
60.464962005615234 473.9346008300781 1.4883952140808105
60.794193267822266 477.9210205078125 1.4883952140808105
61.12078857421875 481.8979797363281 1.4893217086791992
61.446327209472656 485.88470458984375 1.4893217086791992
61.77186584472656 489.8714294433594 1.4893217086791992
61.7552375793457 489.1397399902344 1.6068239212036133
61.61116027832031 493.13714599609375 1.6068239212036133
61.467079162597656 497.1345520019531 1.6068239212036133
61.322998046875 501.1319580078125 1.6068239212036133
61.178916931152344 505.1293640136719 1.6068239212036133
61.03483581542969 509.12677001953125 1.6068239212036133
60.89075469970703 513.1241455078125 1.6068239212036133
60.746673583984375 517.1215209960938 1.6068239212036133
60.60259246826172 521.118896484375 1.6068239212036133
60.45851135253906 525.1162719726562 1.6068239212036133
60.314430236816406 529.1136474609375 1.6068239212036133
60.17034912109375 533.1110229492188 1.6068239212036133
60.02276611328125 534.5384521484375 1.7408113479614258
60.19139099121094 533.813720703125 1.8579775094985962
60.44358444213867 533.1136474609375 1.9751436710357666
60.77588653564453 532.4478759765625 2.0923099517822266
61.18374252319336 531.8255004882812 2.2094762325286865
61.661556243896484 531.2550659179688 2.3266425132751465
62.20277786254883 530.744384765625 2.4438087940216064
62.79998779296875 530.3004760742188 2.5609750747680664
63.44499206542969 529.929443359375 2.6781413555145264
64.12895202636719 529.6363525390625 2.7953076362609863
64.84248352050781 529.4252319335938 2.9124739170074463
65.5758056640625 529.2989501953125 3.0296401977539062
66.31886291503906 529.25927734375 -3.136378765106201
66.13169860839844 529.2943725585938 2.7659647464752197
66.83872985839844 529.0623779296875 2.8831310272216797
67.56803131103516 528.9146118164062 3.0002973079681396
68.30960845947266 528.8531494140625 3.1174635887145996
68.12202453613281 528.8939819335938 2.736778974533081
68.82198333740234 528.6414794921875 2.853945255279541
69.54666137695312 528.4725341796875 2.971111536026001
70.28612518310547 528.3894653320312 3.088277816772461
70.10132598876953 528.4354248046875 2.707437038421631
70.7935791015625 528.1624755859375 2.824603319168091
71.51299285888672 527.9723510742188 2.941769599914551
72.24970245361328 527.8676147460938 3.0589358806610107
72.06633758544922 527.9189453125 2.6780941486358643
72.75028228759766 527.6257934570312 2.795260429382324
73.46380615234375 527.4146118164062 2.912426710128784
74.1971206665039 527.2882690429688 3.029592990875244
74.01534271240234 527.344970703125 2.6487512588500977
74.69039154052734 527.0319213867188 2.7659175395965576
75.39741516113281 526.7999267578125 2.8830838203430176
76.126708984375 526.6521606445312 3.0002501010894775
75.94667053222656 526.7141723632812 2.619408369064331
76.61224365234375 526.3814086914062 2.736574649810791
77.31214904785156 526.1287231445312 2.853740930557251
77.1427001953125 526.216552734375 2.4729437828063965
77.7525863647461 525.7902221679688 2.5901100635528564
78.40812683105469 525.4381103515625 2.7072763442993164
79.10033416748047 525.1650390625 2.8244426250457764
79.81971740722656 524.9747924804688 2.9416089057922363
79.64362335205078 525.0472412109375 2.56076717376709
80.2885513305664 524.6760864257812 2.67793345451355
80.97245025634766 524.3828125 2.7950997352600098
80.42315673828125 524.6934204101562 2.4588332176208496
81.02696990966797 524.258544921875 2.5759994983673096
81.67747497558594 523.897216796875 2.6931657791137695
82.36576080322266 523.6144409179688 2.8103320598602295
81.94469451904297 523.8483276367188 2.4588229656219482
82.54850006103516 523.4134521484375 2.575989246368408
83.19900512695312 523.0521240234375 2.693155527114868
83.88729095458984 522.7693481445312 2.810321807861328
83.72207641601562 522.8643188476562 2.4294941425323486
84.3128662109375 522.4119262695312 2.5466604232788086
84.9524917602539 522.0316772460938 2.6638267040252686
85.63218688964844 521.7288208007812 2.7809929847717285
85.46057891845703 521.8341674804688 2.401250123977661
86.03836059570312 521.365234375 2.518416404724121
86.6669921875 520.9671020507812 2.635582685470581
87.33786010742188 520.6451416015625 2.752748966217041
88.04176330566406 520.40380859375 2.869915246963501
87.8713150024414 520.4887084960938 2.4890735149383545
88.48799896240234 520.072265625 2.6062397956848145
89.14913177490234 519.7307739257812 2.7234060764312744
88.99290466308594 519.8396606445312 2.342564582824707
89.54219055175781 519.337646484375 2.459730863571167
90.14639282226562 518.9033203125 2.576897144317627
90.79722595214844 518.5426025390625 2.694063425064087
91.48576354980469 518.2604370117188 2.811229705810547
91.32058715820312 518.3551635742188 2.4303879737854004
91.91178131103516 517.9032592773438 2.5475542545318604
92.55175018310547 517.5235595703125 2.6647205352783203
93.2317123413086 517.2213134765625 2.781886577606201
93.06938934326172 517.3208618164062 2.4010448455810547
93.6470718383789 516.851806640625 2.5182111263275146
94.27562713623047 516.4534912109375 2.6353774070739746
94.94642639160156 516.1314086914062 2.7525436878204346
94.78709411621094 516.2356567382812 2.371701955795288
95.35076904296875 515.7498779296875 2.488868236541748
95.96736907958984 515.3333129882812 2.606034517288208
96.62843322753906 514.99169921875 2.723200798034668
96.47222900390625 515.1005859375 2.3423590660095215
97.02140808105469 514.5984497070312 2.4595253467559814
97.62551879882812 514.1640014648438 2.5766916275024414
97.48062896728516 514.30029296875 2.1967051029205322
97.40029907226562 514.4729614257812 1.8158634901046753
97.38990020751953 514.6630859375 1.4350218772888184
97.33251953125 513.9212036132812 1.5521880388259888
97.36225891113281 513.1776733398438 1.6693542003631592
97.47870635986328 512.4427490234375 1.7865203619003296
97.47389221191406 512.6331176757812 1.4056787490844727
97.39476776123047 511.8932189941406 1.522844910621643
97.40267944335938 511.1491394042969 1.6400110721588135
97.49752044677734 510.4111022949219 1.7571772336959839
97.67798614501953 509.689208984375 1.8743433952331543
97.656494140625 509.87841796875 1.4935017824172974
97.64257049560547 509.1344299316406 1.6106679439544678
97.71571350097656 508.3939208984375 1.7278341054916382
97.87492370605469 507.6670227050781 1.8450002670288086
98.11801147460938 506.9637451171875 1.962166428565979
98.44164276123047 506.293701171875 2.0793325901031494
98.84138488769531 505.66607666015625 2.1964988708496094
99.31175231933594 505.0894775390625 2.3136651515960693
99.84629821777344 504.5718078613281 2.4308314323425293
100.43769836425781 504.12017822265625 2.5479977130889893
101.07783508300781 503.74078369140625 2.665163993835449
101.7579345703125 503.4388122558594 2.782330274581909
102.46866607666016 503.2184143066406 2.899496555328369
103.20028686523438 503.0826110839844 3.016662836074829
103.94276428222656 503.03326416015625 3.133829116821289
104.68592071533203 503.0710754394531 -3.0321898460388184
105.41956329345703 503.19549560546875 -2.9150235652923584
106.13362884521484 503.4048156738281 -2.7978572845458984
106.81832885742188 503.6961669921875 -2.6806910037994385
107.46427917480469 504.0655822753906 -2.5635247230529785
108.06261444091797 504.5079650878906 -2.4463584423065186
108.60513305664062 505.01727294921875 -2.3291921615600586
109.08439636230469 505.58648681640625 -2.2120258808135986
109.49383544921875 506.20782470703125 -2.0948596000671387
109.82783508300781 506.8727722167969 -1.9776934385299683
110.0818099975586 507.57220458984375 -1.8605272769927979
110.25228118896484 508.2965393066406 -1.7433611154556274
110.3369140625 509.03582763671875 -1.626194953918457
110.33454132080078 509.7799377441406 -1.509028673171997
110.58145141601562 505.7875671386719 -1.509028673171997
110.82836151123047 501.7951965332031 -1.509028673171997
111.07527160644531 497.8028259277344 -1.509028673171997
111.32218170166016 493.8104553222656 -1.509028673171997
111.569091796875 489.8180847167969 -1.509028673171997
111.81600189208984 485.8257141113281 -1.509028673171997
112.06291198730469 481.8333435058594 -1.509028673171997
112.30982208251953 477.8409729003906 -1.509028673171997
112.55673217773438 473.8486022949219 -1.509028673171997
112.80364227294922 469.8562316894531 -1.509028673171997
113.05055236816406 465.8638610839844 -1.509028673171997
113.2974624633789 461.8714904785156 -1.509028673171997
113.54437255859375 457.8791198730469 -1.509028673171997
113.7912826538086 453.8867492675781 -1.509028673171997
114.03819274902344 449.8943786621094 -1.509028673171997
114.28510284423828 445.9020080566406 -1.509028673171997
114.53201293945312 441.9096374511719 -1.509028673171997
114.77892303466797 437.9172668457031 -1.509028673171997
115.02583312988281 433.9248962402344 -1.509028673171997
115.27274322509766 429.9325256347656 -1.509028673171997
115.5196533203125 425.9401550292969 -1.509028673171997
115.76656341552734 421.9477844238281 -1.509028673171997
116.01347351074219 417.9554138183594 -1.509028673171997
116.26038360595703 413.9630432128906 -1.509028673171997
116.50729370117188 409.9706726074219 -1.509028673171997
116.75420379638672 405.9783020019531 -1.509028673171997
117.00111389160156 401.9859313964844 -1.509028673171997
117.2480239868164 397.9935607910156 -1.509028673171997
117.49493408203125 394.0011901855469 -1.509028673171997
117.7418441772461 390.0088195800781 -1.509028673171997
117.98875427246094 386.0164489746094 -1.509028673171997
118.23566436767578 382.0240783691406 -1.509028673171997
118.48257446289062 378.0317077636719 -1.509028673171997
118.72948455810547 374.0393371582031 -1.509028673171997
118.97639465332031 370.0469665527344 -1.509028673171997
119.22330474853516 366.0545959472656 -1.509028673171997
119.47021484375 362.0622253417969 -1.509028673171997
119.71712493896484 358.0698547363281 -1.509028673171997
119.96403503417969 354.0774841308594 -1.509028673171997
120.21094512939453 350.0851135253906 -1.509028673171997
120.45785522460938 346.0927429199219 -1.509028673171997
120.70643615722656 342.11260986328125 -1.5078167915344238
120.96098327636719 338.1413879394531 -1.5057536363601685
121.2209701538086 334.14984130859375 -1.5057536363601685
121.48095703125 330.1582946777344 -1.5057536363601685
121.7409439086914 326.166748046875 -1.5057536363601685
122.00093078613281 322.1752014160156 -1.5057536363601685
122.26091766357422 318.18365478515625 -1.5057536363601685
122.52090454101562 314.1921081542969 -1.5057536363601685
122.78089141845703 310.2005615234375 -1.5057536363601685
123.04087829589844 306.2090148925781 -1.5057536363601685
123.30086517333984 302.21746826171875 -1.5057536363601685
123.56085205078125 298.2259216308594 -1.5057536363601685
123.82083892822266 294.234375 -1.5057536363601685
124.08082580566406 290.2428283691406 -1.5057536363601685
124.34081268310547 286.25128173828125 -1.5057536363601685
124.60079956054688 282.2597351074219 -1.5057536363601685
124.86078643798828 278.2681884765625 -1.5057536363601685
125.12077331542969 274.2766418457031 -1.5057536363601685
125.3807601928711 270.28509521484375 -1.5057536363601685
125.6407470703125 266.2935485839844 -1.5057536363601685
125.9007339477539 262.302001953125 -1.5057536363601685
126.16072082519531 258.3104553222656 -1.5057536363601685
126.42070770263672 254.31890869140625 -1.5057536363601685
126.68069458007812 250.32736206054688 -1.5057536363601685
126.94068145751953 246.3358154296875 -1.5057536363601685
127.20066833496094 242.34426879882812 -1.5057536363601685
127.46065521240234 238.35272216796875 -1.5057536363601685
127.72064208984375 234.36117553710938 -1.5057536363601685
127.98062896728516 230.36962890625 -1.5057536363601685
128.24061584472656 226.37808227539062 -1.5057536363601685
128.5006103515625 222.38653564453125 -1.5057536363601685
128.76060485839844 218.39498901367188 -1.5057536363601685
129.0881805419922 215.08203125 -1.4387273788452148
129.61492919921875 211.1168670654297 -1.4387273788452148
130.1416778564453 207.15170288085938 -1.4387273788452148
130.66842651367188 203.18653869628906 -1.4387273788452148
131.19517517089844 199.22137451171875 -1.4387273788452148
131.721923828125 195.25621032714844 -1.4387273788452148
132.24867248535156 191.29104614257812 -1.4387273788452148
132.77542114257812 187.3258819580078 -1.4387273788452148
133.3021697998047 183.3607177734375 -1.4387273788452148
133.16116333007812 184.09133911132812 -1.3215608596801758
132.9357147216797 184.80047607421875 -1.2043946981430054
132.62890625 185.4783935546875 -1.087228536605835
132.2449493408203 186.1157989501953 -0.9700623154640198
131.78912353515625 186.70396423339844 -0.8528960943222046
131.26766967773438 187.23480224609375 -0.7357298731803894
130.68772888183594 187.7010498046875 -0.6185636520385742
130.05726623535156 188.09629821777344 -0.501397430896759
129.38491821289062 188.41514587402344 -0.38423120975494385
128.67991638183594 188.65321350097656 -0.26706498861312866
127.95191192626953 188.80722045898438 -0.14989878237247467
128.13140869140625 188.74366760253906 -0.5307404398918152
127.46870422363281 189.08209228515625 -0.41357421875
126.77098083496094 189.34072875976562 -0.2964079976081848
126.04780578613281 189.5160369873047 -0.17924179136753082
126.2253646850586 189.44723510742188 -0.5600830316543579
125.5728759765625 189.80496215820312 -0.4429168105125427
124.88304138183594 190.08396911621094 -0.32575058937072754
124.16532135009766 190.28041076660156 -0.20858438313007355
124.34078216552734 190.20643615722656 -0.5894260406494141
123.69906616210938 190.58316040039062 -0.4722598195075989
123.01771545410156 190.8822784423828 -0.3550935983657837
123.2166748046875 190.76210021972656 -0.731709897518158
122.6348648071289 191.22601318359375 -0.6145436763763428
122.00281524658203 191.6187286376953 -0.4973774552345276
121.32919311523438 191.9348602294922 -0.3802112340927124
121.50081634521484 191.82485961914062 -0.7597025036811829
120.93222045898438 192.30487060546875 -0.6425362825393677
120.31140899658203 192.71511840820312 -0.5253700613975525
119.64689636230469 193.04998779296875 -0.4082038402557373
118.97763061523438 193.29605102539062 -0.2964479923248291
119.14592742919922 193.2069549560547 -0.677289605140686
118.53974914550781 193.63853454589844 -0.5601233839988708
117.88727569580078 193.9962921142578 -0.44295716285705566
118.83616638183594 193.37791442871094 -0.7121690511703491
118.24540710449219 193.8303680419922 -0.5950028300285339
117.60580444335938 194.21066284179688 -0.47783660888671875
116.92613220214844 194.51358032226562 -0.36067038774490356
117.08836364746094 194.41387939453125 -0.7415120601654053
116.5111312866211 194.8834686279297 -0.6243458390235901
115.88296508789062 195.28236389160156 -0.5071796178817749
115.21247100830078 195.60508728027344 -0.3900133967399597
115.3717041015625 195.5006561279297 -0.7708550691604614
114.8084945678711 195.9869842529297 -0.6536888480186462
114.19229888916016 196.4041290283203 -0.536522626876831
113.53156280517578 196.7463836669922 -0.41935640573501587
113.68766784667969 196.6373291015625 -0.8001980781555176
113.13896942138672 197.1399688720703 -0.6830318570137024
112.53546142578125 197.5748748779297 -0.5658461451530457
111.88504791259766 197.9363555908203 -0.44867992401123047
112.04010009765625 197.8211669921875 -0.8292458653450012
111.50623321533203 198.3395233154297 -0.7120797038078308
110.9154281616211 198.7919158935547 -0.5949134826660156
110.27579498291016 199.17214965820312 -0.47774726152420044
109.59609985351562 199.47500610351562 -0.36058104038238525
109.75833892822266 199.37530517578125 -0.7414226531982422
109.18106079101562 199.8448486328125 -0.624256432056427
108.5528564453125 200.24368286132812 -0.5070902109146118
107.90084075927734 200.558837890625 -0.3934060335159302
108.05972290039062 200.45387268066406 -0.7742476463317871
107.4981689453125 200.94210815429688 -0.6570814251899719
106.88339233398438 201.36134338378906 -0.5399150848388672
106.22382354736328 201.70584106445312 -0.422748863697052
106.37955474853516 201.5962677001953 -0.8035905361175537
105.83256530761719 202.10076904296875 -0.6864243149757385
105.23035430908203 202.53785705566406 -0.5692576169967651
104.5811767578125 202.90155029296875 -0.45209139585494995
104.73362731933594 202.78744506835938 -0.8329330682754517
104.20167541503906 203.30776977539062 -0.7157668471336365
103.612548828125 203.76234436035156 -0.5986006259918213
102.97431945800781 204.14492797851562 -0.4814344048500061
103.12345886230469 204.0263214111328 -0.8622630834579468
102.60699462890625 204.56202697753906 -0.7450968623161316
102.03144836425781 205.03367614746094 -0.6279306411743164
101.40471649169922 205.434814453125 -0.5107644200325012
100.74359893798828 205.75657653808594 -0.3951495885848999
100.90229797363281 205.65133666992188 -0.7759912014007568
100.34159851074219 206.1405487060547 -0.6588249802589417
99.72755432128906 206.56085205078125 -0.5416587591171265
99.08882141113281 206.8974609375 -0.4283542335033417
99.24393463134766 206.78700256347656 -0.809195876121521
98.69978332519531 207.2945556640625 -0.6920296549797058
98.10002899169922 207.73501586914062 -0.5748634338378906
97.45289611816406 208.10235595703125 -0.45769721269607544
97.60470581054688 207.98739624023438 -0.8385388851165771
97.07567596435547 208.5106964111328 -0.721372663974762
96.48910522460938 208.96856689453125 -0.6042064428329468
95.85302734375 209.35472106933594 -0.4870402216911316
96.00178527832031 209.2350616455078 -0.867832601070404
95.48831176757812 209.7736358642578 -0.7506663799285889
94.9154052734375 210.2484893798828 -0.6335001587867737
94.2909164428711 210.6531219482422 -0.5163339376449585
93.62521362304688 210.98121643066406 -0.39950990676879883
93.783447265625 210.8752899169922 -0.7803515195846558
93.22488403320312 211.366943359375 -0.6631852984428406
92.61267852783203 211.78993225097656 -0.5460190773010254
91.9552230834961 212.13844299316406 -0.4288528561592102
92.11028289794922 212.0279083251953 -0.8096945285797119
91.5663833618164 212.53573608398438 -0.6925283074378967
90.96685028076172 212.97650146484375 -0.5753620862960815
90.31990051269531 213.3441619873047 -0.45819586515426636
90.47164916992188 213.2291259765625 -0.8390375375747681
89.94288635253906 213.752685546875 -0.7218713164329529
89.3565444946289 214.21084594726562 -0.6047050952911377
88.72066497802734 214.59732055664062 -0.4875388741493225
88.0439682006836 214.9068145751953 -0.37037354707717896
88.2052230834961 214.8055419921875 -0.7512152194976807
87.63257598876953 215.2807159423828 -0.6340489983558655
87.00830841064453 215.68568420410156 -0.5168827772140503
86.34098052978516 216.014892578125 -0.3997165560722351
86.49919128417969 215.90892028808594 -0.7805582284927368
85.94072723388672 216.4006805419922 -0.6633920073509216
85.32860565185547 216.82379150390625 -0.5462257862091064
84.67122650146484 217.1724395751953 -0.42905956506729126
84.82626342773438 217.06187438964844 -0.809901237487793
84.282470703125 217.56980895996094 -0.6927350163459778
83.68302917480469 218.0106964111328 -0.5755687952041626
83.0361557006836 218.37847900390625 -0.4584025740623474
83.19486236572266 218.2582244873047 -0.8383697271347046
82.66584014892578 218.78135681152344 -0.7212246060371399
82.0792007446289 219.2391357421875 -0.6040583848953247
81.44306945800781 219.6251983642578 -0.4868921637535095
81.79962158203125 219.3461151123047 -0.8413215279579163
81.90807342529297 219.1652374267578 -1.2201035022735596
81.93846130371094 218.9772491455078 -1.6009451150894165
81.91730499267578 219.7210693359375 -1.483778953552246
81.80934143066406 220.45730590820312 -1.3666127920150757
81.81195831298828 220.26690673828125 -1.7474544048309326
81.10899353027344 216.32916259765625 -1.7474544048309326
80.4060287475586 212.39141845703125 -1.7474544048309326
79.70306396484375 208.45367431640625 -1.7474544048309326
79.0000991821289 204.51593017578125 -1.7474544048309326
78.29713439941406 200.57818603515625 -1.7474544048309326
77.59416961669922 196.64044189453125 -1.7474544048309326
76.89120483398438 192.70269775390625 -1.7474544048309326
76.18824005126953 188.76495361328125 -1.7474544048309326
75.48527526855469 184.82720947265625 -1.7474544048309326
74.78231048583984 180.88946533203125 -1.7474544048309326
74.079345703125 176.95172119140625 -1.7474544048309326
73.37638092041016 173.01397705078125 -1.7474544048309326
72.67341613769531 169.07623291015625 -1.7474544048309326
71.97045135498047 165.13848876953125 -1.7474544048309326
71.26748657226562 161.20074462890625 -1.7474544048309326
71.26653289794922 160.6984405517578 -1.3979411125183105
71.26319122314453 160.50804138183594 -1.7787827253341675
71.26319122314453 160.50804138183594 -1.7787827253341675
71.26319122314453 160.50804138183594 -1.7787827253341675
71.26319122314453 160.50804138183594 -1.7787827253341675
71.26319122314453 160.50804138183594 -1.7787827253341675
71.26319122314453 160.50804138183594 -1.7787827253341675
71.26319122314453 160.50804138183594 -1.7787827253341675
71.26319122314453 160.50804138183594 -1.7787827253341675
71.26319122314453 160.50804138183594 -1.7787827253341675
71.26319122314453 160.50804138183594 -1.7787827253341675
71.26319122314453 160.50804138183594 -1.7787827253341675
