57.80425262451172 448.0216369628906 0.6813313364982605
55.41487503051758 446.2820739746094 0.5772644877433777
52.85771942138672 444.8001403808594 0.4731976389884949
50.16045379638672 443.59185791015625 0.36913079023361206
47.352264404296875 442.6702880859375 0.26506394147872925
44.46353530883789 442.04541015625 0.16099710762500763
41.5255241394043 441.7239990234375 0.05693027377128601
38.57001876831055 441.70953369140625 -0.04713656008243561
35.62900161743164 442.0021667480469 -0.15120339393615723
32.734291076660156 442.5987243652344 -0.25527024269104004
29.917211532592773 443.49273681640625 -0.35933709144592285
27.208242416381836 444.674560546875 -0.46340394020080566
24.636693954467773 446.1313781738281 -0.5674707889556885
22.230392456054688 447.8474426269531 -0.6715376377105713
20.0153751373291 449.80419921875 -0.7756044864654541
18.015607833862305 451.98046875 -0.8796713352203369
18.015607833862305 451.98046875 -0.9837381839752197
20.231264114379883 448.6501770019531 -0.9837381839752197
22.44692039489746 445.31988525390625 -0.9837381839752197
22.4471378326416 445.3193359375 -1.3836793899536133
23.191246032714844 441.38916015625 -1.3836793899536133
23.935354232788086 437.458984375 -1.3836793899536133
24.679462432861328 433.52880859375 -1.3836793899536133
25.42357063293457 429.5986328125 -1.3836793899536133
26.167678833007812 425.66845703125 -1.3836793899536133
26.911787033081055 421.73828125 -1.3836793899536133
27.655895233154297 417.80810546875 -1.3836793899536133
28.40000343322754 413.8779296875 -1.3836793899536133
29.14411163330078 409.94775390625 -1.3836793899536133
29.888219833374023 406.017578125 -1.3836793899536133
30.632328033447266 402.08740234375 -1.3836793899536133
31.376436233520508 398.1572265625 -1.3836793899536133
32.12054443359375 394.22705078125 -1.3836793899536133
32.86465072631836 390.296875 -1.3836793899536133
33.60875701904297 386.36669921875 -1.3836793899536133
34.35286331176758 382.4365234375 -1.3836793899536133
35.09696960449219 378.50634765625 -1.3836793899536133
35.8410758972168 374.576171875 -1.3836793899536133
36.585304260253906 370.6583557128906 -1.38246750831604
37.33427810668945 366.741455078125 -1.3812556266784668
36.92914962768555 369.6690979003906 -1.4853224754333496
37.272003173828125 365.69598388671875 -1.4841105937957764
37.61967086791992 361.7232971191406 -1.4828987121582031
37.97215270996094 357.75103759765625 -1.4816868305206299
38.32944869995117 353.7792053222656 -1.4804749488830566
38.21631622314453 356.7325744628906 -1.5845417976379395
38.163917541503906 352.7450256347656 -1.5833299160003662
38.11635208129883 348.7574157714844 -1.582118034362793
38.0736198425293 344.769775390625 -1.5809061527252197
38.03572082519531 340.7820739746094 -1.5796942710876465
38.02043914794922 336.8817138671875 -1.5697336196899414
38.1710205078125 339.8334045410156 -1.6738004684448242
37.76338195800781 335.8664245605469 -1.672588586807251
37.36054992675781 331.8989562988281 -1.6713767051696777
36.962528228759766 327.9309997558594 -1.6701648235321045
36.56931686401367 323.9625549316406 -1.6689529418945312
36.18091583251953 319.99365234375 -1.6677404642105103
36.619598388671875 322.9164123535156 -1.7718114852905273
35.82572937011719 319.00836181640625 -1.770599603652954
35.036598205566406 315.0993347167969 -1.7693877220153809
34.25220489501953 311.1893615722656 -1.7681758403778076
33.47254943847656 307.2784423828125 -1.7669639587402344
32.697635650634766 303.3665771484375 -1.7657519578933716
32.17228698730469 300.1098327636719 -1.6957051753997803
32.69732666015625 303.34344482421875 -1.7678172588348389
32.1727180480957 300.1100158691406 -1.6954615116119385
32.69696807861328 303.34564208984375 -1.767388105392456
32.17210006713867 300.1070556640625 -1.695544719696045
32.696617126464844 303.3432312011719 -1.7674119472503662
32.17168045043945 300.10467529296875 -1.6955652236938477
32.69626235961914 303.34173583984375 -1.767345905303955
32.171226501464844 300.1022033691406 -1.6955969333648682
32.6959114074707 303.3400573730469 -1.7672964334487915
32.170780181884766 300.0997619628906 -1.6956257820129395
32.695556640625 303.33843994140625 -1.7672449350357056
32.170310974121094 300.0972595214844 -1.695662260055542
32.69520568847656 303.336669921875 -1.7672044038772583
32.16986846923828 300.0948181152344 -1.6956901550292969
32.69485092163086 303.3350830078125 -1.7671478986740112
32.169410705566406 300.0923156738281 -1.6957234144210815
32.69449996948242 303.3334045410156 -1.767098307609558
32.168975830078125 300.08990478515625 -1.6957497596740723
32.694149017333984 303.3318176269531 -1.7670422792434692
32.16851806640625 300.08740234375 -1.695783257484436
32.69379806518555 303.33013916015625 -1.7669925689697266
32.168087005615234 300.0849914550781 -1.6958078145980835
32.69344711303711 303.3285827636719 -1.7669312953948975
32.16764831542969 300.0825500488281 -1.6958359479904175
32.69309616088867 303.3270263671875 -1.7668734788894653
32.16719055175781 300.080078125 -1.6958692073822021
32.692745208740234 303.3253479003906 -1.7668267488479614
32.166748046875 300.07763671875 -1.695898175239563
32.6923942565918 303.32373046875 -1.7667720317840576
32.166297912597656 300.0751647949219 -1.6959292888641357
32.69204330444336 303.32208251953125 -1.766718864440918
32.16586685180664 300.07275390625 -1.6959537267684937
32.69169235229492 303.320556640625 -1.7666571140289307
32.1654167175293 300.0702819824219 -1.695985198020935
32.691341400146484 303.31890869140625 -1.7666043043136597
32.16498565673828 300.06787109375 -1.6960099935531616
32.69099044799805 303.3173522949219 -1.7665437459945679
32.1645393371582 300.0653991699219 -1.696040391921997
32.69063949584961 303.3157653808594 -1.7664875984191895
32.16409683227539 300.06298828125 -1.696069359779358
32.69028854370117 303.31414794921875 -1.7664356231689453
32.16364669799805 300.0605163574219 -1.6961007118225098
32.689937591552734 303.3125305175781 -1.7663817405700684
32.163204193115234 300.0580749511719 -1.6961297988891602
32.6895866394043 303.3109130859375 -1.766326665878296
32.16275405883789 300.05560302734375 -1.696160078048706
32.68923568725586 303.309326171875 -1.766270637512207
32.16231918334961 300.0531921386719 -1.6961867809295654
32.68888473510742 303.3077392578125 -1.7662127017974854
32.1618766784668 300.0507507324219 -1.6962159872055054
32.688533782958984 303.30615234375 -1.7661572694778442
32.16143798828125 300.04833984375 -1.696243166923523
32.68818283081055 303.3045959472656 -1.7661001682281494
32.160980224609375 300.0458679199219 -1.6962766647338867
32.68783187866211 303.30291748046875 -1.766052007675171
32.160552978515625 300.04345703125 -1.6963016986846924
32.68748474121094 303.3014221191406 -1.7659862041473389
32.16011428833008 300.041015625 -1.6963303089141846
32.6871337890625 303.2998352050781 -1.7659283876419067
32.15968322753906 300.0386047363281 -1.696354866027832
32.68678283691406 303.2983093261719 -1.7658660411834717
32.15922927856445 300.0361328125 -1.6963884830474854
32.68643569946289 303.29669189453125 -1.7658140659332275
32.158809661865234 300.0337829589844 -1.6964114904403687
32.68608856201172 303.2951965332031 -1.765751600265503
32.158363342285156 300.0313415527344 -1.6964428424835205
32.68574142456055 303.2936096191406 -1.7656974792480469
32.15793228149414 300.0289611816406 -1.6964690685272217
32.685394287109375 303.29205322265625 -1.7656407356262207
32.15748977661133 300.0265197753906 -1.6964985132217407
32.68504333496094 303.29046630859375 -1.7655832767486572
32.15705490112305 300.02410888671875 -1.6965254545211792
32.6846923828125 303.2889404296875 -1.7655224800109863
32.156612396240234 300.0216979980469 -1.6965543031692505
32.68434143066406 303.287353515625 -1.7654684782028198
32.156166076660156 300.0192565917969 -1.6965845823287964
32.68399429321289 303.2857666015625 -1.7654141187667847
32.155723571777344 300.016845703125 -1.6966140270233154
32.68364334106445 303.2841796875 -1.7653599977493286
32.1552848815918 300.0144348144531 -1.6966423988342285
32.68329620361328 303.2826232910156 -1.7653032541275024
32.15484619140625 300.01202392578125 -1.6966713666915894
32.68294906616211 303.28106689453125 -1.7652462720870972
32.154415130615234 300.0096130371094 -1.6966979503631592
32.68259811401367 303.279541015625 -1.765183448791504
32.15397262573242 300.0071716308594 -1.6967267990112305
32.682247161865234 303.2779846191406 -1.7651246786117554
32.15354537963867 300.0047912597656 -1.696751594543457
32.68190002441406 303.2764892578125 -1.765061616897583
32.15310287475586 300.00238037109375 -1.6967813968658447
32.68155288696289 303.27490234375 -1.7650082111358643
32.15266418457031 299.9999694824219 -1.696810007095337
32.68120193481445 303.2733459472656 -1.7649508714675903
32.1522331237793 299.99755859375 -1.6968363523483276
32.68085479736328 303.2718505859375 -1.7648875713348389
32.151790618896484 299.9951477050781 -1.6968659162521362
32.680503845214844 303.270263671875 -1.7648321390151978
32.15135955810547 299.99273681640625 -1.6968917846679688
32.68015670776367 303.2687683105469 -1.7647680044174194
32.15092086791992 299.9903259277344 -1.6969205141067505
32.6798095703125 303.2672119140625 -1.7647101879119873
32.1505012512207 299.9879455566406 -1.696944236755371
32.67946243286133 303.2657470703125 -1.7646418809890747
32.15005874633789 299.9855041503906 -1.6969740390777588
32.67911148071289 303.26422119140625 -1.7645822763442993
32.149627685546875 299.9831237792969 -1.696999430656433
32.67876052856445 303.2627258300781 -1.764519453048706
32.14918518066406 299.980712890625 -1.6970293521881104
32.67841339111328 303.2611389160156 -1.764465093612671
32.148746490478516 299.9783020019531 -1.697057843208313
32.67806625366211 303.2596130371094 -1.7644062042236328
32.148319244384766 299.9759216308594 -1.6970837116241455
32.67771911621094 303.25811767578125 -1.764343023300171
32.147891998291016 299.9735412597656 -1.6971091032028198
32.677371978759766 303.2566223144531 -1.7642791271209717
32.14746856689453 299.9711608886719 -1.6971336603164673
32.677024841308594 303.2551574707031 -1.7642120122909546
32.14703369140625 299.96875 -1.697162389755249
32.67667770385742 303.253662109375 -1.764150857925415
32.14659881591797 299.96636962890625 -1.6971895694732666
32.67633056640625 303.25213623046875 -1.7640931606292725
32.14617156982422 299.9639892578125 -1.6972161531448364
32.675987243652344 303.2506408691406 -1.7640297412872314
32.1457633972168 299.9616394042969 -1.6972371339797974
32.67564010620117 303.249267578125 -1.763953447341919
32.14532470703125 299.959228515625 -1.6972657442092896
32.67529296875 303.2477111816406 -1.7638956308364868
33.374515533447266 305.95892333984375 -1.8824958801269531
32.15382385253906 302.1624755859375 -1.8812839984893799
30.93773651123047 298.3645324707031 -1.8800721168518066
29.72625160217285 294.56512451171875 -1.8788602352142334
28.519372940063477 290.7642517089844 -1.8776483535766602
27.317100524902344 286.9619140625 -1.876436471939087
26.11943817138672 283.1581115722656 -1.8752245903015137
24.9263858795166 279.3528747558594 -1.8740127086639404
23.737945556640625 275.54620361328125 -1.8728008270263672
22.554119110107422 271.73809814453125 -1.871588945388794
21.376070022583008 267.9306945800781 -1.87013840675354
22.393335342407227 270.7056579589844 -1.9742053747177124
20.83009147644043 267.0369567871094 -1.9729934930801392
19.27129364013672 263.3663635253906 -1.971781611442566
17.71694564819336 259.6938781738281 -1.9705697298049927
17.71694564819336 259.6938781738281 -1.9693576097488403
17.71694564819336 259.6938781738281 -1.968145728111267
17.71694564819336 259.6938781738281 -1.9669338464736938
17.71694564819336 259.6938781738281 -1.9657219648361206
17.71694564819336 259.6938781738281 -1.9645100831985474
17.71694564819336 259.6938781738281 -1.9632982015609741
17.71694564819336 259.6938781738281 -1.9620863199234009
17.71694564819336 259.6938781738281 -1.9608744382858276
17.71694564819336 259.6938781738281 -1.9596625566482544
17.71694564819336 259.6938781738281 -1.9584506750106812
