-392.83848973706887
-395.69711044070806
-398.5753987817695
-401.47296193267755
-404.38935538678027
-407.3242048493026
-410.27708445629116
-413.24763759985063
-416.23545573811816
-419.2401694329434
-422.26144813822066
-425.298908710341
-428.35223701385905
-431.42106605502136
-434.5050982163847
-437.60398136558155
-440.7174322727514
-443.8451143476281
-446.986758859831
-450.1420434807838
-453.3107133526317
-456.49249002495594
-459.68704227782854
-462.89416416654996
-466.11359651131926
-469.34502597959295
-472.5882658840773
-472.5882658840773
-474.6847087580433
-476.8055433877771
-478.95044840056306
-478.95044840056306
-479.64146200854617
-480.3648507857631
-481.1204659036758
-481.90815575155733
-482.7277632944779
-483.5791262213749
-484.462077096338
-484.462077096338
-483.78816357232273
-483.14648758463125
-482.5371814766877
-481.9603093322328
-481.4160428342907
-480.9044967844584
-480.4257757873185
-479.9799521648939
-479.9799521648939
-478.0486958318376
-476.1432800966187
-474.2639871997016
-472.41112913295666
-470.58504711658003
-468.78602506960635
-467.0144045236022
-465.27046966629644
-463.5545616104881
-461.8669640757499
-460.20798875029743
-458.57797464464005
-456.97720329198194
-455.4060112438682
-453.86467751394605
-452.3535352977858
-450.87286019106386
-449.4229535732479
-448.0041418374886
-446.6166936865295
-445.2609366786249
-443.93711992892133
-442.64557125184643
-441.3865324583572
-440.16053802562294
-440.160508164062
-440.5491740042296
-440.57017436085164
-442.4835861633904
-444.42481230476636
-446.39351607280577
-448.38930941937684
-450.41183220605524
-450.4210264264965
-453.63990507847166
-456.8711586623212
-460.1145263091402
-463.369770089788
-466.6366253143534
-469.9148496652592
-473.2013918177517
-476.50249339117266
-476.51515699358237
-480.4366866988826
-484.3595051102461
-488.2835891388311
-492.20890058411715
-496.1354354478177
-500.06312296523834
-503.99197812397085
-507.9219318521271
-511.85300081211454
-515.7851174990328
-519.7183001277457
-523.6524826454553
-527.587684707627
-531.5238416085314
-535.4609743418576
-539.3990371353676
-543.3380168939431
-547.2778867216676
-551.2186097487298
-555.1602099195426
-559.102651297614
-563.0459093244978
-566.9899737776743
-570.9347964578114
-574.8803927052479
-574.8803927052479
-578.2641420357452
-581.6557431563433
-585.0550593948167
-588.4619752399165
-591.8763415189208
-595.2980299165222
-598.7269147788911
-602.162873053209
-605.6058029569814
-609.0555867039511
-609.0555867039511
-611.458475615368
-613.8780684478066
-616.3141684406977
-618.7665806004246
-621.235131139291
-623.7196094609635
-626.2198259628317
-628.7355928667824
-631.2667242296081
-633.8130359519407
-636.3743457857686
-638.9504733405878
-641.541240088244
-644.1464693665148
-646.7659863814858
-649.3996182087699
-652.0471937936178
-652.0471937936178
-653.3380002724971
-654.6507658220823
-655.9853797950664
-655.9853797950664
-655.7699727386109
-655.5789854607984
-655.4123960027221
-655.2702667188096
-655.1525698785491
-655.1525698785491
-653.5085548279108
-651.8850013821811
-650.282041665265
-650.282041665265
-647.3922300831097
-644.5143290393333
-641.6485228762219
-638.7949504147667
-635.9537762769495
-635.9537762769495
-632.2455965657863
-628.5410185109337
-624.8401061900234
-621.1429251437158
-617.4495424156186
-613.7599202762432
-613.7599202762432
-609.7607731528229
-605.7616021656582
-601.7624531010224
-597.7633030486725
-593.7641318231489
-589.7649824851985
-585.7658321261819
-581.7666807358814
-577.7675081287708
-573.7683573669221
-569.7692055438384
-565.7700324741598
-561.7708812210683
-557.7710571752418
-553.7712386167436
-549.7714026487
-545.7715492703107
-541.7717215535076
-537.7718764248107
-533.7720340614607
-529.7721971796058
-525.7723630619894
-521.7725344239425
-517.7726883701174
-513.7728450788504
-509.77300726424085
-505.77317221109337
-501.77334263268085
-497.77351581464
-493.77367157660774
-489.77383281040335
-485.7739968029207
-485.7739968029207
-482.0948941730323
-478.42017553518195
-474.7513138405168
-471.08769141077374
-467.4294111247097
-463.77664301633695
-460.12949545157005
-456.4881049340865
-452.85260871224284
-449.2231513642109
-445.5998791440927
-441.9829453143546
-438.37250579004507
-434.7687444834967
-431.1717851573944
-427.58184317961974
-423.9990530977246
-420.42364147150477
-416.85575445471727
-413.2956306478217
-409.74345064534583
-406.199422213202
-402.6637614482883
-399.1366896866367
-395.6184379157917
-395.6053024976353
-391.62598066452426
-387.64703358065213
-383.6684936628355
-379.68966405976397
-375.71127718029686
-371.7333488814295
-367.7558714626069
-363.77890340474585
-359.8024176302681
-355.8264514413794
-351.8510243425039
-347.8761321033047
-343.90183698196347
-339.9281159181149
-335.95503300237397
-331.9825671270204
-328.01074134941945
-324.0396229403165
-320.0691941859869
-316.09950458638656
-312.1305795511574
-308.1624511679721
-304.19514767680346
-300.2286814830644
-296.2631199606037
-292.2984662974032
-288.3347917373949
-284.37211349690836
-284.30079983381427
-280.432593642366
-276.5681492562647
-272.70827629871536
-268.85350887061327
-268.8412706800238
-265.71630774308835
-262.61511149907335
-259.5385455682416
-256.4874961125295
-253.46288443145988
-250.46565735613694
-247.49682102995308
-244.55742026775707
-241.64851787668968
-238.77122835351489
-235.9266979853612
-233.11613660904413
-230.34078749287514
-230.3406445200527
-228.95988309811813
-227.64109274558035
-227.63175496024894
-227.92818926949892
-228.29440485320174
-228.47190404996698
-230.1895124608
-231.96344021129246
-233.79239673436052
-235.67509654886214
-237.61027430326402
-239.59665043106727
-241.63297021196158
-243.71798165030975
-245.85009070150664
-245.86920984684647
-249.17125751844182
-252.49351368295387
-255.83521792619774
-259.19559187654295
-262.57392518229
-265.96952650848766
-269.3817425750722
-272.80997736413946
-276.25360776629054
-279.7120648886375
-283.1848052396904
-286.6713435341724
-290.17114928835235
-293.6837479223508
-297.20868559829626
-300.7455281988117
-304.2938887781052
-307.85334151365015
-311.42350582465497
-315.0040225747395
-318.59456586832437
-322.1947726675819
-325.8043223886235
-329.42290768495644
-333.050233815021
-336.6860469740565
-340.3300518104697
-343.98198299553167
-347.64159051557255
-351.308634260293
-354.9829127136865
-358.66417514622293
-362.3522084910225
-366.04681221237604
-369.7478141284671
-373.4549954565827
-377.16817378410104
-380.887173522522
-384.6118256050479
-388.3419966593001
-392.07750434046187
-395.8181934425435
-399.56391825212927
-403.31453827668355
-407.0699476174554
-410.8299860187132
-414.5945273527368
-418.36345345941777
-422.1366728315837
-425.9140423318039
-429.69545233549985
-433.4807969282419
-437.2699737549893
-441.06291366886444
-444.8594945180312
-448.6596204405832
-452.4632019472774
-456.2701524530277
-460.08041804381776
-463.8938877588067
-463.8938877588067
-463.8938877588067
-465.7035332401104
-467.5404625797266
-469.4043527934582
-471.29482682697665
-473.2116228803442
-475.1544251347769
-477.12291367773463
-477.12291367773463
-477.61119213856244
-478.1324966009253
-478.686719201928
-479.27374666649223
-479.8934576374668
-480.54572570508327
-481.23041851997255
-481.94739792257434
-481.94739792257434
-481.1072653919587
-480.2990346225649
-479.52286646155824
-479.52286646155824
-477.3051366441783
-475.1107886067907
-475.1107886067907
-471.8005337527732
-468.50109801418324
-465.2126501401447
-461.9354866355341
-458.66984908855613
-455.4159237264614
-452.17402527519175
-448.94435268531277
-448.94435268531277
-445.0541302084589
-441.165898861564
-437.2796808283657
-433.39556119862397
-429.51356597935813
-425.63378421768164
-421.7562460506453
-417.8810448637432
-414.00809366471094
-414.00809366471094
-410.0512668694257
-406.09528388995136
-402.1401692790159
-398.1859181359004
-394.23258753213133
-390.2802051632434
-386.3287692761886
-382.37834037948653
-378.4289496761949
-374.48059918019646
-370.5333533012498
-366.58724739780916
-362.64228782060354
-358.6985435987989
-354.7560548971965
-354.75074307600494
-354.73823550611235
-354.73823550611235
-354.7257281768352
-354.7257281768352
-354.7132211246206
-354.7132211246206
-354.70071431145294
-354.70071431145294
-354.68817725752353
-354.68817725752353
-354.67564044107246
-354.67564044107246
-354.6631038983133
-351.41401230899896
-351.41401230899896
-351.4015131897069
-351.4015131897069
-351.38898370241026
-351.38898370241026
-351.376454352096
-351.376454352096
-351.36392514951564
-351.36392514951564
-351.35139608234914
-351.35139608234914
-351.338836643788
-351.338836643788
-351.3262773390786
-351.3262773390786
-351.31371817873895
-351.31371817873895
-351.30115916187486
-351.30115916187486
-351.2885697590326
-351.2885697590326
-351.2759804980031
-351.2759804980031
-351.2633913669057
-351.2633913669057
-351.250802375971
-351.250802375971
-351.23818299598804
-351.23818299598804
-351.22556375452507
-351.22556375452507
-351.2129446399483
-351.2129446399483
-351.2003256622615
-351.2003256622615
-351.18767630313545
-351.18767630313545
-351.1750270685768
-351.1750270685768
-351.16237796842137
-351.16237796842137
-351.14972899134017
-351.14972899134017
-351.13704962959315
-351.13704962959315
-351.1243703997864
-351.1243703997864
-351.1116912907718
-351.1116912907718
-351.0990123121086
-351.0990123121086
-351.08630293529853
-351.08630293529853
-351.0735936872588
-351.0735936872588
-351.060884557079
-351.060884557079
-351.04817555410074
-351.04817555410074
-351.03543616001286
-351.03543616001286
-351.022696881554
-351.022696881554
-351.0099577279043
-351.0099577279043
-350.99721869823526
-350.99721869823526
-350.9844797819888
-350.9844797819888
-350.9717104707056
-350.9717104707056
-350.9589412714207
-350.9589412714207
-350.94617219304934
-350.94617219304934
-350.93340323477673
-350.93340323477673
-350.92060386884833
-350.92060386884833
-350.90780462150474
-350.90780462150474
-350.89500549193957
-350.89500549193957
-350.8822064700533
-350.8822064700533
-350.8693770469608
-350.8693770469608
-350.85654773016137
-350.85654773016137
-350.84371852815605
-350.84371852815605
-350.8308894401522
-350.8308894401522
-350.8180604563307
-350.8180604563307
-350.80520106754665
-350.80520106754665
-350.79234179050746
-350.79234179050746
-350.7794826155601
-350.7794826155601
-350.7666235509028
-350.7666235509028
-350.75373407826226
-350.75373407826226
-350.74084470564554
-350.74084470564554
-350.72795544110204
-350.72795544110204
-350.7150662838644
-350.7150662838644
-350.7021772246068
-350.7021772246068
-350.6892577537294
-350.6892577537294
-350.67633838797366
-350.67633838797366
-350.6634191181746
-350.6634191181746
-350.6504999520893
-350.6504999520893
-350.63758088896736
-350.63758088896736
-350.6246314022964
-350.6246314022964
-350.6116820171948
-350.6116820171948
-350.59873273292055
-350.59873273292055
-350.5857835406255
-350.5857835406255
-350.57283444778125
-350.57283444778125
-350.55985493614327
-350.55985493614327
-350.5468755224901
-350.5468755224901
-350.5338961981813
-350.5338961981813
-350.5209169705022
-350.520916962638
-350.5079073134005
-350.5079073055848
-350.49489774381425
-350.49489773604677
-350.4818882688902
-350.48188826117075
-350.46887888791383
-350.46887888024224
-350.45586959254985
-350.4558695849259
-350.4428298722907
-350.4428298647142
-350.4297902439469
-350.4297902364177
-350.41675070681544
-350.4167506993333
-350.40371125276107
-350.40371124532584
-350.3906718886155
-350.3906718886155
-350.3776021035046
-350.3776021035046
-350.3645324068225
-350.3645324068225
-350.35146279063133
-350.35146279063133
-350.3383932615879
-350.3383932615879
-350.3253238190096
-350.3253238190096
-350.31225445510427
-350.31225445510427
-350.299154658873
-350.299154658873
-350.2860549471662
-350.2860549471662
-350.2729553193128
-350.2729553193128
-350.2598557677121
-350.2598557677121
-350.2467562987209
-346.74634922454305
-346.74634922454305
-346.73324206748106
-346.73324206748106
-346.7201349024176
-346.7201349024176
-346.70702771441916
-346.70702771441916
-346.69392050281397
-346.69392050281397
-346.6808132669331
-346.6808132669331
-346.667675503283
-346.667675503283
-346.6545377141202
-346.6545377141202
-346.6413998987843
-346.6413998987843
-346.6282620566182
-346.6282620566182
-346.6151242016728
-346.6151242016728
-346.60198631867894
-346.60198631867894
-346.58881788963913
-346.58881788963913
-346.5756494312592
-346.5756494312592
-346.5624809577747
-346.5624809577747
-346.54931245375343
-346.54931245375343
-346.53614391855814
-346.53614391855814
-346.52297535155475
-346.52297535155475
-346.5097762347716
-346.5097762347716
-346.49657710001435
-346.49657710001435
-346.48337793165126
-346.48337793165126
-346.4701787290599
-346.4701787290599
-346.45697949162076
-346.45697949162076
-346.4437802187175
-346.4437802187175
-346.4305504077014
-346.4305504077014
-346.4173205600817
-346.4173205600817
-346.4040906752506
-346.4040906752506
-346.3908607526033
-346.3908607526033
-346.3776307915381
-346.3776307915381
-346.36440080695576
-346.36440080695576
-346.3511402655159
-346.3511402655159
-346.3378796839528
-346.3378796839528
-346.32461906167634
-346.32461906167634
-346.31135839809946
-346.31135839809946
-346.2980977083348
-346.2980977083348
-346.2848369761825
-346.2848369761825
-346.2715456837467
-346.2715456837467
-346.25825434777175
-346.25825434777175
-346.24496296768524
-346.24496296768524
-346.2316715588068
-346.2316715588068
-346.2183801047569
-346.2183801047569
-346.2050886049717
-346.2050886049717
-346.1917665415809
-346.1917665415809
-346.1784444313389
-346.1784444313389
-346.165122273691
-346.165122273691
-346.15180008419867
-346.15180008419867
-346.1384778462737
-346.1384778462737
-346.12515555937
-346.12515555937
-346.1118332229447
-346.1118332229447
-346.09848031915686
-346.09848031915686
-346.0851273647731
-346.0851273647731
-346.0717743755893
-346.0717743755893
-346.05842133481593
-346.05842133481593
-346.0450682419247
-346.0450682419247
-346.0317150963904
-346.0317150963904
-346.018361897691
-346.018361897691
-346.0049781280149
-346.0049781280149
-345.9915943041411
-345.9915943041411
-345.9782104421301
-345.9782104421301
-345.96482652496667
-345.95854612788185
-345.9451622011678
-345.94074152693776
-345.927357586456
-345.9241259284228
-345.91074195466086
-345.9083029667909
-345.8949189576814
-345.89302871583993
-345.87964466978326
-342.2329445162682
-342.2329445162682
-342.219544378516
-342.219544378516
-342.2061440926605
-342.2061440926605
-342.19274369333834
-342.19274369333834
-342.1793431449711
-342.1793431449711
-342.1659424470584
-342.1659424470584
-342.15254159910285
-342.15254159910285
-342.1391406006103
-342.1391406006103
-342.1257089348188
-342.1257089348188
-342.11227711751604
-342.11227711751604
-342.0988451482171
-342.0988451482171
-342.0854130618455
-342.0854130618455
-342.0719808225811
-342.0719808225811
-342.05854842994773
-338.3906140195542
-338.3906140195542
-338.37719487155823
-338.37719487155823
-338.3637754811272
-338.3637754811272
-338.3503253331967
-338.3503253331967
-338.3368749418767
-338.3368749418767
-338.32342430669115
-338.32342430669115
-338.30997348071395
-338.30997348071395
-338.296522409991
-338.296522409991
-338.2830710940549
-338.2830710940549
-338.26961953244154
-338.26961953244154
-338.2561677246899
-338.2561677246899
-338.24271567034197
-338.24271567034197
-338.22923285439265
-338.22923285439265
-338.2157497909476
-334.52700664358497
-334.52700664358497
-334.51353564692323
-334.51353564692323
-334.5000643867503
-334.5000643867503
-334.48659279130726
-334.48659279130726
-334.47312086013915
-334.47312086013915
-334.4596485927943
-334.4596485927943
-334.4461759888241
-334.4461759888241
-334.43270304778326
-334.43270304778326
-334.4191992570189
-334.4191992570189
-334.4056951283115
-334.4056951283115
-334.39219066122524
-334.39219066122524
-334.37868585532743
-334.37868585532743
-334.36518078184645
-334.36518078184645
-334.35167536875485
-334.35167536875485
-334.33816961562906
-334.33816961562906
-334.32466352204835
-334.32466352204835
-334.3111570875955
-334.3111570875955
-334.2976503118564
-334.2976503118564
-334.28411268225176
-334.28411268225176
-334.27057471055025
-334.27057471055025
-334.2570363963472
-334.2570363963472
-334.2434977392412
-334.2434977392412
-334.22995873883406
-334.22995873883406
-334.2164193947306
-334.2164193947306
-334.20287977852354
-334.20287977852354
-334.1893398178914
-334.1893398178914
-334.17579951244807
-334.17579951244807
-334.1622588618107
-334.1622588618107
-334.14871786559956
-334.14871786559956
-334.1351460113132
-334.1351460113132
-334.1215738107109
-334.1215738107109
-334.10800126342235
-334.10800126342235
-334.0944283690807
-334.0944283690807
-334.08085512732214
-334.08085512732214
-334.0672815377861
-334.0672815377861
-334.0537076001152
-334.0537076001152
-334.04013331395544
-330.285444518061
-330.285444518061
-330.27187855241993
-330.27187855241993
-330.25831215932214
-330.25831215932214
-330.24474533840885
-330.24474533840885
-330.23117808932466
-330.23117808932466
-330.21757990230304
-330.21757990230304
-330.2039812864179
-330.2039812864179
-330.1903822413234
-330.1903822413234
-330.1767827666769
-330.1767827666769
-330.16318286213914
-330.16318286213914
-330.14958252737387
-330.14958252737387
-330.1359817620484
-326.36632504271444
-326.36632504271444
-322.3737302395546
-318.38130922157814
-314.38903713213625
-310.39691971040753
-306.4049631917712
-302.4131740380746
-298.4215589741744
-294.43012526859457
-290.4388804955665
-286.4478325785367
-282.45699004818
-278.4663618399688
-274.4759573466923
-270.48581716743877
-266.4959214046402
-262.5062812681543
-258.5169087747777
-254.5278166321581
-250.5383464231988
-246.54921263705114
-242.5604011355924
-238.57195986127192
-234.5839074240491
-230.59626370456897
-226.6090500221232
-222.62228919426195
-218.63597518418592
-214.65016481433676
-210.66488636672796
-206.6801703208151
-202.69604952001782
-198.7125594447634
-194.7297232555165
-190.7475825040328
-186.7661975644564
-182.78561747459474
-178.80588044488346
-174.8270599220449
-170.84921956313588
-166.87241392501622
-162.89673457174732
-158.9222658454989
-154.9490852659769
-150.9773103010502
-147.00705473120925
-143.03842941118103
-139.07158965989512
-135.10669264904556
-131.1438988904302
-127.18342071680331
-123.22548134335008
-119.27031779154468
-115.31823137962726
-111.36954970416281
-107.42463245535326
-103.48392581022003
-99.54792989769801
-95.61721065994222
-91.69246231607808
-87.77447085969663
-83.86419988673386
-79.9627801679974
-76.07155879566976
-72.19220162097085
-68.3267272147815
-64.47762547423366
-60.64801266323632
-56.84183024960012
-53.06412827067201
-49.321440686492494
-45.62238861143886
-41.978516700052936
-38.40552286481023
-34.925171351243385
-31.56812578614105
-28.37817983085057
-28.37817983085057
-24.570671730641337
-20.835329753845084
-17.219196915128936
-13.816178073286709
-10.829095052256104
-8.697599682316364
-8.125488293178272
-9.401876544366155
-9.401964546035732
-10.702776664364087
-13.141469011479867
-16.212438575593264
-19.621022390610733
-23.2190014665884
-26.93031038625187
-26.991250831546232
-26.99955735301702
-26.99955735301702
-26.99955735301702
-26.99955735301702
-26.98821709717563
-26.974759358559126
-22.97492608671129
-18.975096998031713
-14.975273325164915
-10.975462844564502
-6.975685266546049
-2.9760764409633733
