62.828407287597656 452.8283996582031 0.7854010462760925
65.65680694580078 455.65679931640625 0.7854039072990417
68.48519897460938 458.4852294921875 0.785406768321991
71.31358337402344 461.31365966796875 0.7854096293449402
74.14196014404297 464.14208984375 0.7854124903678894
76.97032928466797 466.9705505371094 0.7854153513908386
79.79869079589844 469.79901123046875 0.7854182124137878
82.62703704833984 472.6274719238281 0.7854210734367371
85.45537567138672 475.4559326171875 0.7854239344596863
88.28370666503906 478.284423828125 0.7854267954826355
91.11203002929688 481.1129150390625 0.7854296565055847
93.94034576416016 483.94140625 0.7854325175285339
96.7686538696289 486.7698974609375 0.7854353785514832
99.59695434570312 489.5984191894531 0.7854382395744324
102.42524719238281 492.42694091796875 0.7854411005973816
105.25353240966797 495.2554626464844 0.7854439616203308
108.0818099975586 498.083984375 0.78544682264328
110.91007995605469 500.91253662109375 0.7854496836662292
113.73834228515625 503.7410888671875 0.7854525446891785
116.56659698486328 506.56964111328125 0.7854554057121277
119.39484405517578 509.3982238769531 0.7854582667350769
122.22308349609375 512.226806640625 0.7854611277580261
125.05131530761719 515.055419921875 0.7854639887809753
127.87953186035156 517.884033203125 0.7854668498039246
130.70774841308594 520.712646484375 0.7854697108268738
133.53594970703125 523.541259765625 0.785472571849823
136.36415100097656 526.369873046875 0.7854754328727722
136.3641815185547 526.369873046875 0.38547980785369873
140.0706329345703 527.8739013671875 0.38548269867897034
143.77706909179688 529.3779296875 0.38548558950424194
147.48350524902344 530.8819580078125 0.38548848032951355
147.4837646484375 530.8820190429688 -0.014484971761703491
151.4833221435547 530.8240966796875 -0.014482086524367332
155.48287963867188 530.7661743164062 -0.014479201287031174
159.48243713378906 530.708251953125 -0.014476316049695015
163.48199462890625 530.6503295898438 -0.014473430812358856
167.48155212402344 530.5924682617188 -0.014470545575022697
171.48110961914062 530.5346069335938 -0.014467660337686539
175.4806671142578 530.4767456054688 -0.01446477510035038
179.480224609375 530.4188842773438 -0.014461889863014221
179.4802703857422 530.4188842773438 -0.4144574999809265
183.14158630371094 528.80810546875 -0.4144546091556549
186.8029022216797 527.1973266601562 -0.4144517183303833
190.46421813964844 525.5866088867188 -0.4144488275051117
194.12554931640625 523.9758911132812 -0.4144459366798401
197.78688049316406 522.3651733398438 -0.4144430458545685
201.44821166992188 520.7544555664062 -0.4144401550292969
205.10955810546875 519.1437377929688 -0.41443729400634766
208.77093505859375 517.5330200195312 -0.41443729400634766
208.77098083496094 517.532958984375 -0.8144314289093018
211.51608276367188 514.6236572265625 -0.8144285678863525
214.26119995117188 511.71435546875 -0.8144257068634033
217.00633239746094 508.8050537109375 -0.8144228458404541
219.75146484375 505.895751953125 -0.8144199848175049
222.49661254882812 502.9864501953125 -0.8144171237945557
225.24176025390625 500.0771789550781 -0.8144142627716064
227.98692321777344 497.16790771484375 -0.8144114017486572
230.73208618164062 494.2586364746094 -0.814408540725708
233.47726440429688 491.349365234375 -0.8144056797027588
236.22244262695312 488.44012451171875 -0.8144028186798096
238.96763610839844 485.5308837890625 -0.8143999576568604
241.71282958984375 482.62164306640625 -0.8143970966339111
244.45803833007812 479.71240234375 -0.8143942356109619
247.20326232910156 476.8031921386719 -0.8143913745880127
249.948486328125 473.89398193359375 -0.8143885135650635
252.6937255859375 470.9847717285156 -0.8143856525421143
255.43896484375 468.0755615234375 -0.814382791519165
258.1842041015625 465.1663818359375 -0.8143799304962158
260.9294738769531 462.2572021484375 -0.8143770694732666
263.67474365234375 459.3480224609375 -0.8143742084503174
266.4200134277344 456.4388732910156 -0.8143713474273682
269.165283203125 453.52972412109375 -0.814368486404419
271.91058349609375 450.6205749511719 -0.8143656253814697
274.6558837890625 447.71142578125 -0.8143627643585205
277.40118408203125 444.80230712890625 -0.8143599033355713
277.4024963378906 444.8013610839844 -0.4145228862762451
277.7567138671875 444.7173767089844 -0.05112665891647339
281.75146484375 444.5129699707031 -0.05112377554178238
285.7462158203125 444.3085632324219 -0.05112089216709137
289.740966796875 444.1041564941406 -0.05111800879240036
293.7357177734375 443.8997802734375 -0.05111512541770935
294.09661865234375 443.9471740722656 0.3122832775115967
297.90313720703125 445.17608642578125 0.3122861683368683
301.70965576171875 446.405029296875 0.3122890591621399
305.51617431640625 447.63397216796875 0.3122919499874115
309.3226623535156 448.8629150390625 0.3122948408126831
313.129150390625 450.0918884277344 0.3122977316379547
316.9356384277344 451.32086181640625 0.3123006224632263
320.74212646484375 452.5498352050781 0.3123035132884979
321.0626220703125 452.7224426269531 0.675701916217804
321.0626525878906 452.72247314453125 0.27570629119873047
321.3892517089844 452.88323974609375 0.6391047239303589
321.39007568359375 452.88360595703125 0.23919498920440674
321.7223205566406 453.0323181152344 0.6025934219360352
325.01776123046875 455.2994384765625 0.6025962829589844
328.3132019042969 457.5665588378906 0.6025991439819336
331.608642578125 459.83367919921875 0.6026020050048828
334.9040832519531 462.100830078125 0.602604866027832
338.1994934082031 464.36798095703125 0.6026077270507812
341.4949035644531 466.6351318359375 0.6026105880737305
344.7903137207031 468.90228271484375 0.6026134490966797
348.0857238769531 471.1694641113281 0.6026163101196289
351.3811340332031 473.4366455078125 0.6026191711425781
354.676513671875 475.7038269042969 0.6026220321655273
357.9718933105469 477.9710388183594 0.6026248931884766
361.26727294921875 480.2382507324219 0.6026277542114258
364.5626525878906 482.5054626464844 0.602630615234375
367.8580322265625 484.772705078125 0.6026334762573242
371.15338134765625 487.0399475097656 0.6026363372802734
374.44873046875 489.30718994140625 0.6026391983032227
377.74407958984375 491.574462890625 0.6026420593261719
381.0394287109375 493.84173583984375 0.6026449203491211
384.3347473144531 496.1090087890625 0.6026477813720703
387.63006591796875 498.37628173828125 0.6026506423950195
390.9253845214844 500.6435852050781 0.6026535034179688
394.220703125 502.910888671875 0.602656364440918
397.5160217285156 505.1781921386719 0.6026592254638672
400.8113098144531 507.4455261230469 0.6026620864868164
404.1065979003906 509.7128601074219 0.6026649475097656
407.4018859863281 511.9801940917969 0.6026678085327148
410.6971740722656 514.24755859375 0.6026706695556641
413.9924621582031 516.514892578125 0.6026735305786133
417.2877197265625 518.7822875976562 0.6026763916015625
420.5829772949219 521.0496826171875 0.6026792526245117
423.87823486328125 523.3170776367188 0.6026821136474609
427.1734924316406 525.58447265625 0.6026849746704102
430.46875 527.8518676757812 0.6026878356933594
433.76397705078125 530.1192626953125 0.6026906967163086
437.0592041015625 532.38671875 0.6026935577392578
440.35443115234375 534.6541748046875 0.602696418762207
443.649658203125 536.921630859375 0.6026992797851562
443.6496887207031 536.921630859375 0.20270365476608276
447.5677490234375 537.7269287109375 0.20270654559135437
451.4858093261719 538.5322265625 0.20270943641662598
455.40386962890625 539.3375244140625 0.20271232724189758
459.3219299316406 540.142822265625 0.2027152180671692
463.239990234375 540.9481201171875 0.2027181088924408
467.1580505371094 541.75341796875 0.2027209997177124
471.07611083984375 542.5587768554688 0.202723890542984
474.9941711425781 543.3641357421875 0.20272678136825562
478.9122314453125 544.1694946289062 0.20272967219352722
482.8302917480469 544.974853515625 0.20273256301879883
486.74835205078125 545.7802124023438 0.20273534953594208
490.6651306152344 546.5853271484375 0.20260390639305115
494.58331298828125 547.3901977539062 0.20260469615459442
494.5833435058594 547.3901977539062 -0.19739092886447906
498.5056457519531 546.6057739257812 -0.19738803803920746
502.4279479980469 545.8213500976562 -0.19738514721393585
506.3502502441406 545.0369262695312 -0.19738225638866425
510.2725524902344 544.2525024414062 -0.19737936556339264
514.1948852539062 543.4680786132812 -0.19737647473812103
514.1949462890625 543.4680786132812 -0.5973721146583557
517.502197265625 541.2182006835938 -0.5973692536354065
520.8094482421875 538.9683227539062 -0.5973663926124573
520.8094482421875 538.96826171875 -0.9973620176315308
522.9794921875 535.6080932617188 -0.9973591566085815
525.1495361328125 532.2479248046875 -0.9973562955856323
527.3196411132812 528.8878173828125 -0.9973534345626831
529.48974609375 525.5277099609375 -0.9973505735397339
531.6598510742188 522.1676025390625 -0.9973477125167847
533.8299560546875 518.8074951171875 -0.9973448514938354
536.0000610351562 515.4473876953125 -0.9973419904708862
536.0000610351562 515.4473266601562 -1.3973376750946045
536.6904296875 511.50738525390625 -1.3973348140716553
537.3807983398438 507.56744384765625 -1.397331953048706
538.0711669921875 503.6274719238281 -1.3973324298858643
538.0711669921875 503.62744140625 -1.797327995300293
537.1727905273438 499.72967529296875 -1.7973251342773438
536.2744140625 495.8319091796875 -1.7973222732543945
535.3760375976562 491.9341125488281 -1.7973194122314453
534.4776611328125 488.03631591796875 -1.797316551208496
533.579345703125 484.1385192871094 -1.7973136901855469
532.6810302734375 480.2406921386719 -1.7973136901855469
532.6810302734375 480.24066162109375 -2.1973092555999756
530.3357543945312 477.0003662109375 -2.1973063945770264
527.990478515625 473.76007080078125 -2.197303533554077
525.6452026367188 470.519775390625 -2.197300672531128
523.2999267578125 467.27947998046875 -2.1972978115081787
520.9547119140625 464.0391540527344 -2.1972949504852295
518.6094970703125 460.798828125 -2.1972920894622803
516.2642822265625 457.5585021972656 -2.197289228439331
513.9190673828125 454.31817626953125 -2.197286367416382
511.5738525390625 451.0778503417969 -2.1972835063934326
509.2286682128906 447.8374938964844 -2.1972806453704834
506.88348388671875 444.5971374511719 -2.197277784347534
504.5382995605469 441.3567810058594 -2.197275161743164
504.53826904296875 441.35675048828125 -2.5972707271575928
501.11639404296875 439.285400390625 -2.5972678661346436
497.69451904296875 437.21405029296875 -2.5972650051116943
494.27264404296875 435.1427001953125 -2.597262144088745
490.85076904296875 433.0713195800781 -2.597259283065796
487.42889404296875 430.99993896484375 -2.5972564220428467
484.00701904296875 428.9285583496094 -2.5972535610198975
480.5851745605469 426.8571472167969 -2.5972506999969482
477.163330078125 424.7857360839844 -2.597247838973999
473.7414855957031 422.7143249511719 -2.59724497795105
470.31964111328125 420.6429138183594 -2.5972421169281006
466.8977966308594 418.57147216796875 -2.5972392559051514
463.4759826660156 416.5000305175781 -2.597236394882202
460.0541687011719 414.4285888671875 -2.597233533859253
456.6323547363281 412.35711669921875 -2.5972306728363037
453.2105407714844 410.28564453125 -2.5972278118133545
449.7887268066406 408.21417236328125 -2.5972249507904053
446.366943359375 406.1426696777344 -2.597222089767456
442.9451599121094 404.0711669921875 -2.597219228744507
439.52337646484375 401.9996643066406 -2.5972163677215576
436.1015930175781 399.9281311035156 -2.5972135066986084
432.6798095703125 397.8565979003906 -2.597210645675659
429.258056640625 395.7850646972656 -2.59720778465271
425.8363037109375 393.7135009765625 -2.5972049236297607
422.41455078125 391.6419372558594 -2.5972020626068115
418.9927978515625 389.57037353515625 -2.5971992015838623
415.571044921875 387.498779296875 -2.597196340560913
412.1493225097656 385.42718505859375 -2.597193479537964
408.72760009765625 383.3555908203125 -2.5971906185150146
405.3058776855469 381.2839660644531 -2.5971877574920654
401.8841552734375 379.21234130859375 -2.597184896469116
398.4624328613281 377.1407165527344 -2.597182035446167
395.0407409667969 375.0690612792969 -2.5971791744232178
391.6190490722656 372.9974060058594 -2.5971763134002686
388.1973571777344 370.9257507324219 -2.5971734523773193
384.7756652832031 368.85406494140625 -2.59717059135437
381.3539733886719 366.7823791503906 -2.597167730331421
377.93231201171875 364.710693359375 -2.5971648693084717
374.5106506347656 362.6390075683594 -2.5971620082855225
371.0889892578125 360.5672912597656 -2.5971591472625732
367.6673278808594 358.4955749511719 -2.597156286239624
364.24566650390625 356.4238586425781 -2.597153425216675
360.8240051269531 354.35211181640625 -2.5971505641937256
357.4023742675781 352.2803649902344 -2.5971477031707764
353.9807434082031 350.2086181640625 -2.597144842147827
350.5591125488281 348.1368408203125 -2.597141981124878
347.1374816894531 346.0650634765625 -2.5971391201019287
343.7158508300781 343.9932861328125 -2.5971362590789795
340.29425048828125 341.9214782714844 -2.5971333980560303
336.8726501464844 339.84967041015625 -2.597130537033081
333.4510498046875 337.7778625488281 -2.597127676010132
330.0294494628906 335.7060241699219 -2.5971248149871826
326.60784912109375 333.6341857910156 -2.5971219539642334
323.186279296875 331.5623474121094 -2.597119092941284
319.76470947265625 329.490478515625 -2.597116231918335
316.3431396484375 327.4186096191406 -2.5971133708953857
312.92156982421875 325.34674072265625 -2.5971105098724365
309.5 323.27484130859375 -2.5971076488494873
306.0784606933594 321.20294189453125 -2.597104787826538
302.65692138671875 319.13104248046875 -2.597101926803589
299.2353820800781 317.0591125488281 -2.5970990657806396
295.8138427734375 314.9871826171875 -2.5970962047576904
292.3923034667969 312.9152526855469 -2.597093343734741
288.9707946777344 310.84332275390625 -2.597090482711792
285.5492858886719 308.7713623046875 -2.5970876216888428
282.1277770996094 306.69940185546875 -2.5970847606658936
278.7062683105469 304.62744140625 -2.5970818996429443
275.2847595214844 302.5554504394531 -2.597079038619995
271.86328125 300.48345947265625 -2.597076177597046
268.4418029785156 298.4114685058594 -2.5970733165740967
265.02032470703125 296.3394470214844 -2.5970704555511475
261.5988464355469 294.2674255371094 -2.5970675945281982
258.1773681640625 292.1954040527344 -2.597064733505249
254.7559051513672 290.12335205078125 -2.5970618724823
254.48193359375 289.8800964355469 -2.2339026927948
252.01968383789062 286.727783203125 -2.2338998317718506
249.55743408203125 283.5754699707031 -2.2338969707489014
247.09519958496094 280.42315673828125 -2.233894109725952
244.6329803466797 277.27081298828125 -2.233891248703003
242.17076110839844 274.11846923828125 -2.2338883876800537
242.00222778320312 273.79583740234375 -1.8704899549484253
240.82131958007812 269.9741516113281 -1.870487093925476
239.6404266357422 266.1524658203125 -1.8704842329025269
238.4595489501953 262.3307800292969 -1.8704813718795776
237.2786865234375 258.50909423828125 -1.8704785108566284
236.0978240966797 254.68740844726562 -1.870474934577942
236.0549774169922 254.325927734375 -1.5070765018463135
236.30967712402344 250.33407592773438 -1.5070736408233643
236.56439208984375 246.34222412109375 -1.507070779800415
236.81912231445312 242.35037231445312 -1.5070679187774658
237.07386779785156 238.3585205078125 -1.5070650577545166
237.32861328125 234.36666870117188 -1.5070621967315674
237.5833740234375 230.37481689453125 -1.5070593357086182
237.83815002441406 226.38296508789062 -1.507056474685669
238.0929412841797 222.39111328125 -1.5070536136627197
238.3477325439453 218.39926147460938 -1.5070507526397705
238.6025390625 214.40740966796875 -1.5070478916168213
238.85736083984375 210.41555786132812 -1.507045030593872
239.11219787597656 206.4237060546875 -1.5070421695709229
239.36703491210938 202.43185424804688 -1.5070393085479736
239.36703491210938 202.43185424804688 -1.1070393323898315
241.15626525878906 198.8543701171875 -1.1070364713668823
241.375244140625 198.5635986328125 -0.7436380386352539
244.3192596435547 195.85574340820312 -0.7436351776123047
247.26329040527344 193.14788818359375 -0.7436323165893555
247.5774383544922 192.94992065429688 -0.3809681534767151
251.29063415527344 191.462646484375 -0.3809652626514435
255.0038299560547 189.9753875732422 -0.3809623718261719
258.717041015625 188.48814392089844 -0.38095948100090027
262.43023681640625 187.00091552734375 -0.38095659017562866
266.1434326171875 185.51368713378906 -0.38095369935035706
269.8566589355469 184.02647399902344 -0.38095080852508545
273.56988525390625 182.53927612304688 -0.38094791769981384
277.2831115722656 181.0520782470703 -0.38094502687454224
280.996337890625 179.5648956298828 -0.38094213604927063
284.7095642089844 178.07772827148438 -0.380939245223999
288.42279052734375 176.590576171875 -0.3809363543987274
292.1360168457031 175.10342407226562 -0.3809334635734558
295.8492736816406 173.6162872314453 -0.3809305727481842
299.5625305175781 172.12916564941406 -0.3809276819229126
303.2757873535156 170.6420440673828 -0.380924791097641
306.9890441894531 169.15493774414062 -0.3809219002723694
310.7023010253906 167.6678466796875 -0.3809190094470978
314.4155578613281 166.18075561523438 -0.38091611862182617
318.1288146972656 164.6936798095703 -0.38091322779655457
321.84210205078125 163.2066192626953 -0.38091033697128296
325.5553894042969 161.71957397460938 -0.38090744614601135
329.2686767578125 160.23252868652344 -0.38090455532073975
332.9819641113281 158.74549865722656 -0.38090166449546814
336.69525146484375 157.25848388671875 -0.38089877367019653
340.4085388183594 155.77146911621094 -0.3808958828449249
344.121826171875 154.2844696044922 -0.3808929920196533
347.83514404296875 152.7974853515625 -0.3808901011943817
351.5484619140625 151.3105010986328 -0.3808872103691101
355.26177978515625 149.8235321044922 -0.3808843195438385
358.97509765625 148.33657836914062 -0.3808813989162445
362.68841552734375 146.84963989257812 -0.3808785080909729
366.3519592285156 145.39498901367188 -0.3750564754009247
366.70916748046875 145.32504272460938 -0.011658072471618652
370.7088623046875 145.27841186523438 -0.011655187234282494
374.70855712890625 145.23179626464844 -0.011652301996946335
378.708251953125 145.18519592285156 -0.011649416759610176
382.70794677734375 145.1385955810547 -0.011646531522274017
386.7076416015625 145.09201049804688 -0.011643646284937859
390.70733642578125 145.04544067382812 -0.0116407610476017
394.70703125 144.99888610839844 -0.011637875810265541
398.70672607421875 144.95233154296875 -0.011634990572929382
402.7064208984375 144.90579223632812 -0.011632105335593224
406.70611572265625 144.85926818847656 -0.011629220098257065
410.705810546875 144.81275939941406 -0.011626334860920906
414.70550537109375 144.76625061035156 -0.011623449623584747
418.7052001953125 144.71975708007812 -0.011620564386248589
422.70489501953125 144.67327880859375 -0.01161767914891243
426.70458984375 144.62681579589844 -0.011614793911576271
430.70428466796875 144.58035278320312 -0.011611908674240112
434.7039794921875 144.53390502929688 -0.011609023436903954
438.70367431640625 144.4874725341797 -0.011606138199567795
442.703369140625 144.44105529785156 -0.011603252962231636
446.70306396484375 144.39463806152344 -0.011600367724895477
450.7027587890625 144.34823608398438 -0.011597482487559319
454.70245361328125 144.30184936523438 -0.01159459725022316
458.7021484375 144.25547790527344 -0.011591712012887001
462.70184326171875 144.2091064453125 -0.011588826775550842
466.7015380859375 144.16275024414062 -0.011585941538214684
470.70123291015625 144.1164093017578 -0.011583056300878525
474.700927734375 144.07008361816406 -0.011580171063542366
478.70062255859375 144.0237579345703 -0.011577285826206207
482.7003173828125 143.97744750976562 -0.011574400588870049
486.70001220703125 143.93115234375 -0.01157151535153389
490.69970703125 143.88487243652344 -0.011568630114197731
494.69940185546875 143.83859252929688 -0.011565744876861572
498.6990966796875 143.79232788085938 -0.011562859639525414
502.69879150390625 143.74607849121094 -0.011559974402189255
506.698486328125 143.69984436035156 -0.011557089164853096
510.69818115234375 143.6536102294922 -0.011554203927516937
514.6978759765625 143.60739135742188 -0.011551318690180779
518.6975708007812 143.56118774414062 -0.01154843345284462
522.697265625 143.51499938964844 -0.011545548215508461
522.7508544921875 143.50364685058594 -0.406032919883728
522.7509155273438 143.5036163330078 -0.8060285449028015
525.5203857421875 140.61746215820312 -0.8060256838798523
528.2898559570312 137.7313232421875 -0.8060228228569031
528.2898559570312 137.73129272460938 -1.2060184478759766
529.716796875 133.9945068359375 -1.2060155868530273
531.1437377929688 130.25772094726562 -1.2060127258300781
532.5707397460938 126.52094268798828 -1.206009864807129
533.9977416992188 122.78417205810547 -1.2060070037841797
535.4247436523438 119.04740142822266 -1.2060041427612305
536.8517456054688 115.31063842773438 -1.2060012817382812
538.2787475585938 111.5738754272461 -1.205998420715332
539.7057495117188 107.83712005615234 -1.2059955596923828
541.1328125 104.1003646850586 -1.2059926986694336
542.5598754882812 100.36361694335938 -1.205989956855774
542.5599975585938 100.36302185058594 -1.6059293746948242
542.4194946289062 96.36551666259766 -1.605926513671875
542.2789916992188 92.36801147460938 -1.6059236526489258
542.2789916992188 92.36796569824219 -2.0059192180633545
540.5928955078125 88.74072265625 -2.0059163570404053
538.9068603515625 85.11347198486328 -2.005913496017456
537.2208251953125 81.48621368408203 -2.005910634994507
535.5347900390625 77.85895538330078 -2.0059077739715576
535.5347900390625 77.85891723632812 -2.4059033393859863
532.5693359375 75.17454528808594 -2.405900478363037
529.6038818359375 72.49016571044922 -2.405897617340088
526.638427734375 69.80577087402344 -2.4058947563171387
523.6729736328125 67.12136840820312 -2.4058918952941895
523.6729125976562 67.12134552001953 -2.805887460708618
519.896240234375 65.8036117553711 -2.805884599685669
516.1195678710938 64.48587036132812 -2.8058817386627197
512.3428955078125 63.16811752319336 -2.8058788776397705
508.56622314453125 61.8503532409668 -2.8058760166168213
504.78955078125 60.53257751464844 -2.805873155593872
501.01287841796875 59.21479415893555 -2.805870294570923
497.2362060546875 57.89699935913086 -2.8058674335479736
493.45953369140625 56.579193115234375 -2.8058645725250244
489.6828918457031 55.261375427246094 -2.805861711502075
485.9118347167969 53.947059631347656 -2.806508779525757
485.8268737792969 53.93513870239258 3.085310220718384
481.8332214355469 54.16014862060547 3.085313081741333
477.8395690917969 54.38514709472656 3.0853159427642822
473.8459167480469 54.61013412475586 3.0853188037872314
469.8522644042969 54.83510971069336 3.0853216648101807
465.8586120605469 55.06007385253906 3.08532452583313
461.8649597167969 55.28502655029297 3.085327386856079
457.8713073730469 55.50996780395508 3.0853302478790283
453.8776550292969 55.73489761352539 3.0853331089019775
449.8840026855469 55.959815979003906 3.0853359699249268
445.8903503417969 56.184722900390625 3.085338830947876
441.8966979980469 56.40961837768555 3.085341691970825
437.9030456542969 56.63450241088867 3.0853445529937744
433.9093933105469 56.859375 3.0853474140167236
429.9157409667969 57.08423614501953 3.085350275039673
425.9220886230469 57.309085845947266 3.085353136062622
421.9284362792969 57.5339241027832 3.0853559970855713
421.5672912597656 57.48837661743164 -2.8344309329986572
417.7545471191406 56.278968811035156 -2.834428071975708
413.9418029785156 55.069549560546875 -2.834425210952759
410.1290588378906 53.8601188659668 -2.8344223499298096
406.3163146972656 52.65067672729492 -2.8344194889068604
402.5035705566406 51.44122314453125 -2.834416627883911
398.6908264160156 50.23175811767578 -2.834413766860962
394.8780822753906 49.022281646728516 -2.8344109058380127
394.8780517578125 49.02227783203125 3.048778772354126
390.8952941894531 49.39299774169922 3.048781633377075
386.91253662109375 49.76370620727539 3.0487844944000244
382.9297790527344 50.134403228759766 3.0487873554229736
378.947021484375 50.505088806152344 3.048790216445923
374.9642639160156 50.875762939453125 3.048793077468872
370.98150634765625 51.24642562866211 3.0487959384918213
366.9987487792969 51.6170768737793 3.0487987995147705
363.0159912109375 51.98771667480469 3.0488016605377197
359.0332336425781 52.35834503173828 3.048804521560669
355.05047607421875 52.72896194458008 3.048807382583618
351.0677185058594 53.09956741333008 3.0488102436065674
347.0849609375 53.47016143798828 3.0488131046295166
343.1022033691406 53.84074401855469 3.048815965652466
339.11944580078125 54.2113151550293 3.048818826675415
335.1366882324219 54.58187484741211 3.0488216876983643
331.1539306640625 54.952423095703125 3.0488245487213135
327.1711730957031 55.322959899902344 3.0488274097442627
323.18841552734375 55.693485260009766 3.048830270767212
319.20562744140625 56.06399917602539 3.048833131790161
315.22283935546875 56.43450164794922 3.0488359928131104
311.24005126953125 56.80499267578125 3.0488388538360596
307.25726318359375 57.175472259521484 3.048841714859009
303.27447509765625 57.54594039916992 3.048844575881958
299.29168701171875 57.91639709472656 3.0488474369049072
295.30889892578125 58.286842346191406 3.0488502979278564
291.32611083984375 58.65727615356445 3.0488531589508057
287.34332275390625 59.0276985168457 3.048856019973755
283.36053466796875 59.398109436035156 3.048858880996704
279.37774658203125 59.76850891113281 3.0488617420196533
275.39495849609375 60.13889694213867 3.0488646030426025
271.41217041015625 60.509273529052734 3.0488674640655518
267.42938232421875 60.879638671875 3.048870325088501
263.44659423828125 61.24999237060547 3.04887318611145
259.46380615234375 61.620338439941406 3.0488760471343994
255.48101806640625 61.99067306518555 3.0488789081573486
251.49822998046875 62.36099624633789 3.048881769180298
247.51544189453125 62.73130798339844 3.048884630203247
243.53265380859375 63.10160827636719 3.0488874912261963
239.54986572265625 63.47189712524414 3.0488903522491455
235.5670623779297 63.8421745300293 3.0488932132720947
231.58425903320312 64.21244049072266 3.048896074295044
227.60145568847656 64.58269500732422 3.048898935317993
223.61865234375 64.95293426513672 3.0489017963409424
219.63584899902344 65.32316589355469 3.0489046573638916
215.65304565429688 65.6933822631836 3.048907518386841
211.6702423095703 66.06359100341797 3.04891037940979
207.68743896484375 66.43378448486328 3.0489132404327393
203.7046356201172 66.80397033691406 3.0489161014556885
199.72183227539062 67.17414093017578 3.0489189624786377
195.73902893066406 67.54430389404297 3.048921823501587
191.7562255859375 67.9144515991211 3.048924684524536
187.77342224121094 68.28459167480469 3.0489275455474854
183.79061889648438 68.65471649169922 3.0489304065704346
179.80780029296875 69.02483367919922 3.048933267593384
175.82498168945312 69.39493560791016 3.048936128616333
171.8421630859375 69.76502990722656 3.0489389896392822
167.85934448242188 70.1351089477539 3.0489418506622314
163.87652587890625 70.50518035888672 3.0489447116851807
159.89370727539062 70.87523651123047 3.04894757270813
155.910888671875 71.24528503417969 3.048950433731079
151.92807006835938 71.61531829833984 3.0489532947540283
147.94525146484375 71.98534393310547 3.0489561557769775
143.96243286132812 72.35535430908203 3.0489590167999268
139.9796142578125 72.72535705566406 3.048961877822876
135.99679565429688 73.09534454345703 3.048964738845825
132.01397705078125 73.46532440185547 3.0489675998687744
128.03115844726562 73.83528900146484 3.0489704608917236
124.04833221435547 74.20524597167969 3.048973321914673
120.06550598144531 74.57518768310547 3.048976182937622
116.08267974853516 74.94512176513672 3.0489790439605713
112.099853515625 75.3150405883789 3.0489819049835205
108.11701965332031 75.68495178222656 3.0489847660064697
104.13418579101562 76.05485534667969 3.048987627029419
100.15135192871094 76.42474365234375 3.048990488052368
96.16851806640625 76.79462432861328 3.0489933490753174
95.76630401611328 76.7594985961914 -2.874784231185913
91.9078598022461 75.70488739013672 -2.874781370162964
88.04942321777344 74.6502685546875 -2.8747785091400146
84.19098663330078 73.59563446044922 -2.8747756481170654
80.33255767822266 72.5409927368164 -2.874772787094116
76.47412872314453 71.48633575439453 -2.874769926071167
72.6156997680664 70.43167114257812 -2.8747670650482178
68.75727844238281 69.37699890136719 -2.8747642040252686
64.89885711669922 68.32231140136719 -2.8747613430023193
61.04043960571289 67.26761627197266 -2.87475848197937
57.18202590942383 66.21290588378906 -2.874755620956421
53.32361602783203 65.15818786621094 -2.8747527599334717
49.465213775634766 64.10346221923828 -2.874749183654785
49.465213775634766 64.10346221923828 -2.4747490882873535
46.32212448120117 61.62944412231445 -2.4747462272644043
43.17904281616211 59.155418395996094 -2.474743366241455
40.03601837158203 56.68142318725586 -2.474733829498291
39.795387268066406 56.40829849243164 -2.111335515975952
37.73700714111328 52.978599548339844 -2.111332654953003
35.67863845825195 49.548892974853516 -2.1113297939300537
33.62028121948242 46.119178771972656 -2.1113269329071045
31.561931610107422 42.68946075439453 -2.1113240718841553
29.503591537475586 39.259735107421875 -2.111321210861206
27.445262908935547 35.83000564575195 -2.111318349838257
25.386943817138672 32.4002685546875 -2.1113154888153076
23.32863426208496 28.97052764892578 -2.1113126277923584
21.270334243774414 25.54077911376953 -2.111309766769409
19.21204376220703 22.111024856567383 -2.11130690574646
17.153762817382812 18.681264877319336 -2.1113040447235107
17.153762817382812 18.681264877319336 -2.1113011837005615
17.153762817382812 18.681264877319336 -2.1112983226776123
17.153762817382812 18.681264877319336 -2.111295461654663
17.153762817382812 18.681264877319336 -2.111292600631714
17.153762817382812 18.681264877319336 -2.1112897396087646
17.153762817382812 18.681264877319336 -2.1112868785858154
17.153762817382812 18.681264877319336 -2.111284017562866
17.153762817382812 18.681264877319336 -2.111281156539917
17.153762817382812 18.681264877319336 -2.1112782955169678
17.153762817382812 18.681264877319336 -2.1112754344940186
