62.828426361083984 452.82843017578125 0.7853981852531433
65.65685272216797 455.6568603515625 0.7853981852531433
68.48528289794922 458.48529052734375 0.7853981852531433
71.31371307373047 461.313720703125 0.7853981852531433
74.14214324951172 464.14215087890625 0.7853981852531433
76.97057342529297 466.9705810546875 0.7853981852531433
79.79900360107422 469.79901123046875 0.7853981852531433
82.62743377685547 472.62744140625 0.7853981852531433
85.45586395263672 475.45587158203125 0.7853981852531433
88.28429412841797 478.2843017578125 0.7853981852531433
91.11272430419922 481.11273193359375 0.7853981852531433
93.94115447998047 483.941162109375 0.7853981852531433
96.76958465576172 486.76959228515625 0.7853981852531433
99.59801483154297 489.5980224609375 0.7853981852531433
102.42644500732422 492.42645263671875 0.7853981852531433
105.25487518310547 495.2548828125 0.7853981852531433
108.08330535888672 498.08331298828125 0.7853981852531433
110.91173553466797 500.9117431640625 0.7853981852531433
113.74016571044922 503.74017333984375 0.7853981852531433
116.56859588623047 506.568603515625 0.7853981852531433
119.39702606201172 509.39703369140625 0.7853981852531433
122.22545623779297 512.2254638671875 0.7853981852531433
125.05388641357422 515.0538940429688 0.7853981852531433
127.88231658935547 517.88232421875 0.7853981852531433
130.7107391357422 520.7107543945312 0.7853981852531433
133.53916931152344 523.5391845703125 0.7853981852531433
136.3675994873047 526.3676147460938 0.7853981852531433
139.19602966308594 529.196044921875 0.7853981852531433
141.64283752441406 531.48974609375 0.7208373546600342
144.23252868652344 533.620849609375 0.656276524066925
146.95431518554688 535.5804443359375 0.5917156934738159
149.79684448242188 537.3603515625 0.5271548628807068
152.748291015625 538.953125 0.46259400248527527
155.79635620117188 540.3521728515625 0.39803314208984375
158.92832946777344 541.5516967773438 0.33347228169441223
162.13116455078125 542.546630859375 0.2689114212989807
165.39151000976562 543.3328857421875 0.2043505609035492
168.69578552246094 543.9071044921875 0.13978970050811768
172.0302276611328 544.2669677734375 0.07522884756326675
175.38095092773438 544.4109497070312 0.010667994618415833
178.73397827148438 544.3385009765625 -0.05389285832643509
182.07534790039062 544.0498657226562 -0.11845371127128601
185.39112854003906 543.5462646484375 -0.18301457166671753
188.66751098632812 542.8297729492188 -0.24757543206214905
191.89083862304688 541.9033813476562 -0.31213629245758057
195.0476837158203 540.77099609375 -0.3766971528530121
198.12489318847656 539.437255859375 -0.4412580132484436
201.10964965820312 537.9077758789062 -0.5058188438415527
203.98951721191406 536.1889038085938 -0.5703796744346619
206.7524871826172 534.287841796875 -0.634940505027771
209.38705444335938 532.2124633789062 -0.6995013356208801
211.88223266601562 529.971435546875 -0.7640621662139893
214.22764587402344 527.5740966796875 -0.8286229968070984
216.4134979248047 525.0304565429688 -0.8931838274002075
218.4307098388672 522.35107421875 -0.9577429890632629
220.732177734375 519.0794677734375 -0.9577429890632629
223.0336456298828 515.807861328125 -0.9577429890632629
225.33511352539062 512.5362548828125 -0.9577429890632629
227.63658142089844 509.2646789550781 -0.9577429890632629
229.93804931640625 505.99310302734375 -0.9577429890632629
232.23951721191406 502.7215270996094 -0.9577429890632629
234.54098510742188 499.449951171875 -0.9577429890632629
236.8424530029297 496.1783752441406 -0.9577429890632629
239.1439208984375 492.90679931640625 -0.9577429890632629
241.4453887939453 489.6352233886719 -0.9577429890632629
243.74685668945312 486.3636474609375 -0.9577429890632629
246.04832458496094 483.0920715332031 -0.9577429890632629
248.34979248046875 479.82049560546875 -0.9577429890632629
250.65126037597656 476.5489196777344 -0.9577429890632629
252.95272827148438 473.27734375 -0.9577429890632629
255.2541961669922 470.0057678222656 -0.9577429890632629
257.5556640625 466.73419189453125 -0.9577429890632629
259.8571472167969 463.4626159667969 -0.9577429890632629
262.15863037109375 460.1910400390625 -0.9577429890632629
264.4601135253906 456.9194641113281 -0.9577429890632629
266.7615966796875 453.64788818359375 -0.9577429890632629
269.0630798339844 450.3763122558594 -0.9577429890632629
271.36456298828125 447.104736328125 -0.9577429890632629
272.4918212890625 445.8404541015625 -0.727502167224884
273.8646240234375 444.8778381347656 -0.4955456852912903
273.8646240234375 444.8778381347656 -0.0955456793308258
277.84637451171875 444.4962463378906 -0.0955456793308258
281.828125 444.1146545410156 -0.0955456793308258
285.80987548828125 443.7330627441406 -0.0955456793308258
289.7916259765625 443.3514709472656 -0.0955456793308258
293.77337646484375 442.9698791503906 -0.0955456793308258
293.77337646484375 442.9698791503906 0.30445432662963867
297.58941650390625 444.1689758300781 0.30445432662963867
301.40545654296875 445.3680725097656 0.30445432662963867
305.22149658203125 446.5671691894531 0.30445432662963867
309.03753662109375 447.7662658691406 0.30445432662963867
312.85357666015625 448.9653625488281 0.30445432662963867
316.66961669921875 450.1644592285156 0.30445432662963867
316.66961669921875 450.1644592285156 0.7044543027877808
319.29388427734375 452.2528381347656 0.6398934721946716
322.0473937988281 454.1675720214844 0.5753326416015625
324.918701171875 455.9006652832031 0.5107718110084534
328.4081726074219 457.8560791015625 0.5107718110084534
331.89764404296875 459.8114929199219 0.5107718110084534
335.3871154785156 461.76690673828125 0.5107718110084534
338.8765869140625 463.7223205566406 0.5107718110084534
342.3660583496094 465.677734375 0.5107718110084534
345.85552978515625 467.6331481933594 0.5107718110084534
349.3450012207031 469.58856201171875 0.5107718110084534
352.83447265625 471.5439758300781 0.5107718110084534
356.3239440917969 473.4993896484375 0.5107718110084534
359.81341552734375 475.4548034667969 0.5107718110084534
363.3028869628906 477.41021728515625 0.5107718110084534
366.7923583984375 479.3656311035156 0.5107718110084534
370.2818298339844 481.321044921875 0.5107718110084534
373.77130126953125 483.2764587402344 0.5107718110084534
377.2607727050781 485.23187255859375 0.5107718110084534
380.750244140625 487.1872863769531 0.5107718110084534
384.2397155761719 489.1427001953125 0.5107718110084534
387.72918701171875 491.0981140136719 0.5107718110084534
391.2186584472656 493.05352783203125 0.5107718110084534
394.7081298828125 495.0089416503906 0.5107718110084534
398.1976013183594 496.96435546875 0.5107718110084534
401.68707275390625 498.9197692871094 0.5107718110084534
405.1765441894531 500.87518310546875 0.5107718110084534
408.666015625 502.8305969238281 0.5107718110084534
412.1554870605469 504.7860107421875 0.5107718110084534
415.64495849609375 506.7414245605469 0.5107718110084534
419.1344299316406 508.69683837890625 0.5107718110084534
422.6239013671875 510.6522521972656 0.5107718110084534
426.1133728027344 512.607666015625 0.5107718110084534
429.60284423828125 514.5630493164062 0.5107718110084534
433.0923156738281 516.5184326171875 0.5107718110084534
436.581787109375 518.4738159179688 0.5107718110084534
440.0712585449219 520.42919921875 0.5107718110084534
443.56072998046875 522.3845825195312 0.5107718110084534
447.0502014160156 524.3399658203125 0.5107718110084534
450.5396728515625 526.2953491210938 0.5107718110084534
454.0291442871094 528.250732421875 0.5107718110084534
457.51861572265625 530.2061157226562 0.5107718110084534
461.0080871582031 532.1614990234375 0.5107718110084534
464.49755859375 534.1168823242188 0.5107718110084534
467.9870300292969 536.072265625 0.5107718110084534
470.9642028808594 537.6165161132812 0.44621360301971436
474.0347595214844 538.9654541015625 0.3816527724266052
477.1859436035156 540.1134643554688 0.3170919120311737
480.4046325683594 541.0557861328125 0.2525310516357422
484.27777099609375 542.0552368164062 0.2525310516357422
487.5505676269531 542.7879638671875 0.18797045946121216
491.4801025390625 543.535400390625 0.18797045946121216
495.4096374511719 544.2828369140625 0.18797045946121216
498.7228698730469 544.8028564453125 0.12340960651636124
502.0627746582031 545.1080932617188 0.058848753571510315
505.4154052734375 545.1972045898438 -0.005712099373340607
508.76678466796875 545.06982421875 -0.07027295231819153
512.7568969726562 544.7889404296875 -0.07027295231819153
516.0968017578125 544.4458618164062 -0.13446925580501556
520.0606689453125 543.9096069335938 -0.13446925580501556
523.3684692382812 543.3529663085938 -0.19898247718811035
527.28955078125 542.562255859375 -0.19898247718811035
530.5540771484375 541.7935180664062 -0.26354333758354187
533.76220703125 540.8157958984375 -0.3281041979789734
536.9005737304688 539.6331176757812 -0.3926650583744049
539.9561157226562 538.2504272460938 -0.4572259187698364
542.9160766601562 536.6735229492188 -0.5217867493629456
545.7681274414062 534.908935546875 -0.5863475799560547
548.5003662109375 532.9639892578125 -0.6509084105491638
551.1014404296875 530.8468627929688 -0.715469241142273
553.560546875 528.5662841796875 -0.7800300717353821
555.8673706054688 526.1318359375 -0.844590961933136
555.8673706054688 526.1318359375 -1.2445909976959229
556.8389892578125 522.921875 -1.3091518878936768
557.6015014648438 519.6558837890625 -1.3737127780914307
558.1517333984375 516.3475341796875 -1.4382736682891846
558.4873657226562 513.0105590820312 -1.5028345584869385
558.6069946289062 509.65887451171875 -1.5673954486846924
558.5101318359375 506.30645751953125 -1.6319563388824463
558.1972045898438 502.96728515625 -1.6965172290802002
557.6694946289062 499.6552429199219 -1.761078119277954
556.92919921875 496.3841552734375 -1.825639009475708
555.9208374023438 492.5133361816406 -1.825639009475708
554.9500732421875 489.1105041503906 -1.8717488050460815
553.85302734375 485.9411315917969 -1.9363030195236206
552.5538330078125 482.84918212890625 -2.000863790512085
550.8861083984375 479.21343994140625 -2.000863790512085
549.39013671875 476.2117614746094 -2.065424680709839
547.70361328125 473.3128356933594 -2.1299855709075928
545.8336181640625 470.5287780761719 -2.1945464611053467
543.497314453125 467.2820129394531 -2.1945464611053467
541.1610107421875 464.0352478027344 -2.1945464611053467
539.1152954101562 461.37762451171875 -2.2591073513031006
536.5743408203125 458.288330078125 -2.2591073513031006
534.0333862304688 455.19903564453125 -2.2591073513031006
531.8204345703125 452.6789245605469 -2.3236682415008545
529.0855102539062 449.760009765625 -2.3236682415008545
526.3505859375 446.8410949707031 -2.3236682415008545
523.9796752929688 444.4690246582031 -2.3882291316986084
521.0621337890625 441.7326354980469 -2.3882291316986084
518.5430908203125 439.5184631347656 -2.452789306640625
515.455078125 436.97601318359375 -2.452789306640625
512.3670654296875 434.4335632324219 -2.452789306640625
509.2790222167969 431.89111328125 -2.452789306640625
506.19097900390625 429.3486633300781 -2.452789306640625
503.1029357910156 426.80621337890625 -2.452789306640625
500.44610595703125 424.7589416503906 -2.5173206329345703
497.2005615234375 422.4209289550781 -2.5173206329345703
493.95501708984375 420.0829162597656 -2.5173206329345703
490.70947265625 417.7449035644531 -2.5173206329345703
487.46392822265625 415.4068908691406 -2.5173206329345703
484.2183837890625 413.0688781738281 -2.5173206329345703
480.97283935546875 410.7308654785156 -2.5173206329345703
478.18157958984375 408.8516540527344 -2.5807740688323975
474.7943115234375 406.72412109375 -2.5807740688323975
471.40704345703125 404.5965881347656 -2.5807740688323975
468.5106506347656 402.9051513671875 -2.6453044414520264
464.99322509765625 401.00048828125 -2.6453044414520264
461.4757995605469 399.0958251953125 -2.6453044414520264
457.9583740234375 397.191162109375 -2.6453044414520264
454.4409484863281 395.2864990234375 -2.6453044414520264
450.92352294921875 393.3818359375 -2.6453044414520264
447.4060974121094 391.4771728515625 -2.6453044414520264
443.888671875 389.572509765625 -2.6453044414520264
440.3712463378906 387.6678466796875 -2.6453044414520264
436.85382080078125 385.76318359375 -2.6453044414520264
433.3363952636719 383.8585205078125 -2.6453044414520264
429.8189697265625 381.953857421875 -2.6453044414520264
426.3015441894531 380.0491943359375 -2.6453044414520264
422.78411865234375 378.14453125 -2.6453044414520264
419.2666931152344 376.2398681640625 -2.6453044414520264
415.749267578125 374.335205078125 -2.6453044414520264
412.2318420410156 372.4305419921875 -2.6453044414520264
408.71441650390625 370.52587890625 -2.6453044414520264
405.1969909667969 368.6212158203125 -2.6453044414520264
401.6795654296875 366.716552734375 -2.6453044414520264
398.1621398925781 364.8118896484375 -2.6453044414520264
394.64471435546875 362.9072265625 -2.6453044414520264
391.1272888183594 361.0025634765625 -2.6453044414520264
387.60986328125 359.097900390625 -2.6453044414520264
384.0924377441406 357.1932373046875 -2.6453044414520264
380.57501220703125 355.28857421875 -2.6453044414520264
377.0575866699219 353.3839111328125 -2.6453044414520264
373.5401611328125 351.479248046875 -2.6453044414520264
370.0227355957031 349.5745849609375 -2.6453044414520264
366.50531005859375 347.669921875 -2.6453044414520264
362.9878845214844 345.7652587890625 -2.6453044414520264
359.470458984375 343.860595703125 -2.6453044414520264
355.9530334472656 341.9559326171875 -2.6453044414520264
352.43560791015625 340.05126953125 -2.6453044414520264
348.9181823730469 338.1466064453125 -2.6453044414520264
345.4007568359375 336.241943359375 -2.6453044414520264
341.8833312988281 334.3372802734375 -2.6453044414520264
338.36590576171875 332.4326171875 -2.6453044414520264
334.8484802246094 330.5279541015625 -2.6453044414520264
331.3310546875 328.623291015625 -2.6453044414520264
327.8136291503906 326.7186279296875 -2.6453044414520264
324.29620361328125 324.81396484375 -2.6453044414520264
320.7787780761719 322.9093017578125 -2.6453044414520264
317.2613525390625 321.004638671875 -2.6453044414520264
313.7439270019531 319.0999755859375 -2.6453044414520264
310.22650146484375 317.1953125 -2.6453044414520264
306.7090759277344 315.2906494140625 -2.6453044414520264
303.191650390625 313.385986328125 -2.6453044414520264
299.6742248535156 311.4813232421875 -2.6453044414520264
296.15679931640625 309.57666015625 -2.6453044414520264
292.6393737792969 307.6719970703125 -2.6453044414520264
289.1219482421875 305.767333984375 -2.6453044414520264
285.6045227050781 303.8626708984375 -2.6453044414520264
282.08709716796875 301.9580078125 -2.6453044414520264
278.5696716308594 300.0533447265625 -2.6453044414520264
275.05224609375 298.148681640625 -2.6453044414520264
271.5348205566406 296.2440185546875 -2.6453044414520264
268.01739501953125 294.33935546875 -2.6453044414520264
264.4999694824219 292.4346923828125 -2.6453044414520264
260.9825439453125 290.530029296875 -2.6453044414520264
260.9825439453125 290.530029296875 -2.2453043460845947
258.8045959472656 287.9796142578125 -2.3098652362823486
256.4666442871094 285.5750427246094 -2.3744261264801025
253.58712768554688 282.79864501953125 -2.3744261264801025
250.70761108398438 280.0222473144531 -2.3744261264801025
249.64495849609375 278.7282409667969 -2.142245054244995
248.90121459960938 277.2121276855469 -1.9114912748336792
247.6791229248047 274.0888977050781 -1.976052165031433
246.25784301757812 271.0501708984375 -2.040525436401367
245.72018432617188 269.5709228515625 -1.798304557800293
244.85867309570312 266.32965087890625 -1.8628654479980469
243.70693969726562 262.4990539550781 -1.8628654479980469
243.40884399414062 260.8319091796875 -1.632597804069519
243.1617889404297 256.83953857421875 -1.632597804069519
242.91473388671875 252.84716796875 -1.632597804069519
242.6676788330078 248.85479736328125 -1.632597804069519
242.42062377929688 244.8624267578125 -1.632597804069519
242.17356872558594 240.87005615234375 -1.632597804069519
241.926513671875 236.877685546875 -1.632597804069519
241.67945861816406 232.88531494140625 -1.632597804069519
241.43240356445312 228.8929443359375 -1.632597804069519
241.1853485107422 224.90057373046875 -1.632597804069519
240.93829345703125 220.908203125 -1.632597804069519
241.028564453125 219.21676635742188 -1.4023569822311401
241.6991424560547 215.27337646484375 -1.4023569822311401
242.36972045898438 211.32998657226562 -1.4023569822311401
242.84361267089844 209.7037811279297 -1.1721161603927612
244.125244140625 207.06307983398438 -1.0657821893692017
245.10874938964844 205.6860809326172 -0.8353729248046875
247.7923583984375 202.7198944091797 -0.8353729248046875
250.47596740722656 199.7537078857422 -0.8353729248046875
251.74209594726562 198.643798828125 -0.6041226387023926
255.0341033935547 196.37164306640625 -0.6041226387023926
258.32611083984375 194.0994873046875 -0.6041226387023926
259.82086181640625 193.30418395996094 -0.3738139271736145
263.54461669921875 191.843505859375 -0.3738139271736145
267.26837158203125 190.38282775878906 -0.3738139271736145
270.99212646484375 188.92214965820312 -0.3738139271736145
274.71588134765625 187.4614715576172 -0.3738139271736145
278.43963623046875 186.00079345703125 -0.3738139271736145
282.16339111328125 184.5401153564453 -0.3738139271736145
285.88714599609375 183.07943725585938 -0.3738139271736145
289.61090087890625 181.61875915527344 -0.3738139271736145
293.33465576171875 180.1580810546875 -0.3738139271736145
297.05841064453125 178.69740295410156 -0.3738139271736145
300.78216552734375 177.23672485351562 -0.3738139271736145
304.50592041015625 175.7760467529297 -0.3738139271736145
308.22967529296875 174.31536865234375 -0.3738139271736145
311.95343017578125 172.8546905517578 -0.3738139271736145
315.67718505859375 171.39401245117188 -0.3738139271736145
319.40093994140625 169.93333435058594 -0.3738139271736145
323.12469482421875 168.47265625 -0.3738139271736145
326.84844970703125 167.01197814941406 -0.3738139271736145
330.57220458984375 165.55130004882812 -0.3738139271736145
334.29595947265625 164.0906219482422 -0.3738139271736145
338.01971435546875 162.62994384765625 -0.3738139271736145
341.74346923828125 161.1692657470703 -0.3738139271736145
345.46722412109375 159.70858764648438 -0.3738139271736145
349.19097900390625 158.24790954589844 -0.3738139271736145
352.91473388671875 156.7872314453125 -0.3738139271736145
356.63848876953125 155.32655334472656 -0.3738139271736145
360.36224365234375 153.86587524414062 -0.3738139271736145
362.0597839355469 153.410888671875 -0.14992794394493103
366.0149230957031 152.81341552734375 -0.14992794394493103
369.9700622558594 152.2159423828125 -0.14992794394493103
373.9252014160156 151.61846923828125 -0.14992794394493103
377.8803405761719 151.02099609375 -0.14992794394493103
381.8354797363281 150.42352294921875 -0.14992794394493103
385.7906188964844 149.8260498046875 -0.14992794394493103
389.7457580566406 149.22857666015625 -0.14992794394493103
393.7008972167969 148.631103515625 -0.14992794394493103
397.6560363769531 148.03363037109375 -0.14992794394493103
401.6111755371094 147.4361572265625 -0.14992794394493103
405.5663146972656 146.83868408203125 -0.14992794394493103
409.5214538574219 146.2412109375 -0.14992794394493103
413.4765930175781 145.64373779296875 -0.14992794394493103
417.4317321777344 145.0462646484375 -0.14992794394493103
421.3868713378906 144.44879150390625 -0.14992794394493103
425.3420104980469 143.851318359375 -0.14992794394493103
429.2971496582031 143.25384521484375 -0.14992794394493103
433.2522888183594 142.6563720703125 -0.14992794394493103
437.2074279785156 142.05889892578125 -0.14992794394493103
441.1625671386719 141.46142578125 -0.14992794394493103
445.1177062988281 140.86395263671875 -0.14992794394493103
449.0728454589844 140.2664794921875 -0.14992794394493103
453.0279846191406 139.66900634765625 -0.14992794394493103
456.9831237792969 139.071533203125 -0.14992794394493103
460.9382629394531 138.47406005859375 -0.14992794394493103
464.8934020996094 137.8765869140625 -0.14992794394493103
468.8485412597656 137.27911376953125 -0.14992794394493103
472.8036804199219 136.681640625 -0.14992794394493103
476.7588195800781 136.08416748046875 -0.14992794394493103
480.7139587402344 135.4866943359375 -0.14992794394493103
484.6690979003906 134.88922119140625 -0.14992794394493103
488.6242370605469 134.291748046875 -0.14992794394493103
492.5793762207031 133.69427490234375 -0.14992794394493103
496.5345153808594 133.0968017578125 -0.14992794394493103
500.4896545410156 132.49932861328125 -0.14992794394493103
504.4447937011719 131.90185546875 -0.14992794394493103
508.3999328613281 131.30438232421875 -0.14992794394493103
512.3550415039062 130.7069091796875 -0.14992794394493103
516.3101806640625 130.10943603515625 -0.14992794394493103
520.2653198242188 129.511962890625 -0.14992794394493103
524.220458984375 128.91448974609375 -0.14992794394493103
528.1755981445312 128.3170166015625 -0.14992794394493103
531.473876953125 127.70930480957031 -0.21448880434036255
534.72607421875 126.89006042480469 -0.27904966473579407
537.9186401367188 125.86270904541016 -0.3436105251312256
541.0382690429688 124.63152313232422 -0.4081713855266571
544.0719604492188 123.2016372680664 -0.4727322459220886
547.007080078125 121.5790023803711 -0.5372930765151978
549.8314208984375 119.7703857421875 -0.6018539071083069
552.533203125 117.78331756591797 -0.666414737701416
555.1011352539062 115.62608337402344 -0.7309755682945251
555.1011352539062 115.62608337402344 -1.130975604057312
556.430419921875 112.54695892333984 -1.195536494255066
557.5582885742188 109.38848876953125 -1.2600973844528198
558.4800415039062 106.16383361816406 -1.3246582746505737
559.1918334960938 102.88642883300781 -1.3892191648483276
559.690673828125 99.56993103027344 -1.4537800550460815
559.9745483398438 96.22815704345703 -1.5183409452438354
560.042236328125 92.87503051757812 -1.5829018354415894
559.8934326171875 89.52452087402344 -1.6474627256393433
559.5287475585938 86.19059753417969 -1.7120236158370972
558.9497680664062 82.88714599609375 -1.776584506034851
558.1588745117188 79.6279296875 -1.841145396232605
557.1593627929688 76.42652893066406 -1.9057062864303589
555.8446044921875 72.64877319335938 -1.9057062864303589
554.640625 69.5185317993164 -1.9702671766281128
553.2371826171875 66.47248840332031 -2.034827947616577
551.64013671875 63.52333450317383 -2.099388837814331
549.8561401367188 60.68335723876953 -2.163949728012085
547.8926391601562 57.964393615722656 -2.228510618209839
545.7578125 55.377769470214844 -2.2930715084075928
543.4605712890625 52.93426513671875 -2.3576323986053467
541.010498046875 50.64405822753906 -2.4221932888031006
538.417724609375 48.516693115234375 -2.4867541790008545
535.693115234375 46.56103515625 -2.5513150691986084
532.8480224609375 44.78523254394531 -2.6158759593963623
529.894287109375 43.19668197631836 -2.680436849594116
526.84423828125 41.802005767822266 -2.74499773979187
523.7105712890625 40.60701370239258 -2.809558629989624
520.5062866210938 39.61668395996094 -2.874119520187378
517.2448120117188 38.83514404296875 -2.938680410385132
513.939697265625 38.265647888183594 -3.0032413005828857
510.604736328125 37.91057205200195 -3.0678021907806396
507.2538146972656 37.771392822265625 -3.1323630809783936
503.9009094238281 37.84869384765625 3.08626127243042
500.5599670410156 38.14215087890625 3.021700382232666
497.2449035644531 38.65053939819336 2.957139492034912
493.9600830078125 39.372222900390625 2.893512487411499
490.0825500488281 40.35439682006836 2.893512487411499
486.20501708984375 41.336570739746094 2.893512487411499
482.3274841308594 42.31874465942383 2.893512487411499
478.449951171875 43.30091857910156 2.893512487411499
474.5724182128906 44.2830924987793 2.893512487411499
470.69488525390625 45.26526641845703 2.893512487411499
466.8173522949219 46.247440338134766 2.893512487411499
462.9398193359375 47.2296142578125 2.893512487411499
459.0622863769531 48.211788177490234 2.893512487411499
455.18475341796875 49.19396209716797 2.893512487411499
451.3072204589844 50.1761360168457 2.893512487411499
447.4296875 51.15830993652344 2.893512487411499
443.5521545410156 52.14048385620117 2.893512487411499
439.67462158203125 53.122657775878906 2.893512487411499
435.7970886230469 54.10483169555664 2.893512487411499
431.9195556640625 55.087005615234375 2.893512487411499
428.0420227050781 56.06917953491211 2.893512487411499
424.16448974609375 57.051353454589844 2.893512487411499
420.2869567871094 58.03352737426758 2.893512487411499
416.409423828125 59.01570129394531 2.893512487411499
412.5318908691406 59.99787521362305 2.893512487411499
412.5318908691406 59.99787521362305 -2.9896726608276367
412.5318908691406 59.99787521362305 -2.589672803878784
409.62078857421875 58.332481384277344 -2.654233694076538
406.6083068847656 56.85837173461914 -2.718794584274292
403.5069885253906 55.58168411254883 -2.783355474472046
399.76092529296875 54.1791877746582 -2.783355474472046
396.0148620605469 52.77669143676758 -2.783355474472046
392.837646484375 51.7027473449707 -2.8479163646698
389.0089111328125 50.54485321044922 -2.8479163646698
385.76904296875 49.67812728881836 -2.9124770164489746
381.8735656738281 48.76966094970703 -2.9124770164489746
377.97808837890625 47.8611946105957 -2.9124770164489746
374.0826110839844 46.952728271484375 -2.9124770164489746
370.7935485839844 46.29683303833008 -2.9770379066467285
366.84759521484375 45.641578674316406 -2.9770379066467285
363.5230712890625 45.199249267578125 -3.0415987968444824
359.5430603027344 44.7999382019043 -3.0415987968444824
355.56304931640625 44.40062713623047 -3.0415987968444824
351.5830383300781 44.00131607055664 -3.0415987968444824
348.2369079589844 43.774391174316406 -3.1061596870422363
344.2394104003906 43.6326904296875 -3.1061596870422363
340.2419128417969 43.490989685058594 -3.1061596870422363
336.88812255859375 43.48041534423828 3.112464666366577
332.88983154296875 43.5969123840332 3.112464666366577
328.89154052734375 43.713409423828125 3.112464666366577
324.89324951171875 43.82990646362305 3.112464666366577
320.89495849609375 43.94640350341797 3.112464666366577
316.89666748046875 44.06290054321289 3.112464666366577
312.89837646484375 44.17939758300781 3.112464666366577
309.5416564941406 44.38425064086914 3.048818349838257
305.5588684082031 44.75481414794922 3.048818349838257
301.5760803222656 45.1253776550293 3.048818349838257
297.5932922363281 45.495941162109375 3.048818349838257
293.6105041503906 45.86650466918945 3.048818349838257
289.6277160644531 46.23706817626953 3.048818349838257
285.6449279785156 46.60763168334961 3.048818349838257
281.6621398925781 46.97819519042969 3.048818349838257
277.6793518066406 47.348758697509766 3.048818349838257
273.6965637207031 47.719322204589844 3.048818349838257
269.7137756347656 48.08988571166992 3.048818349838257
265.7309875488281 48.46044921875 3.048818349838257
261.7481994628906 48.83101272583008 3.048818349838257
257.7654113769531 49.201576232910156 3.048818349838257
253.78260803222656 49.572139739990234 3.048818349838257
249.7998046875 49.94270324707031 3.048818349838257
245.81700134277344 50.31326675415039 3.048818349838257
241.83419799804688 50.68383026123047 3.048818349838257
237.8513946533203 51.05439376831055 3.048818349838257
233.86859130859375 51.424957275390625 3.048818349838257
229.8857879638672 51.7955207824707 3.048818349838257
225.90298461914062 52.16608428955078 3.048818349838257
221.92018127441406 52.53664779663086 3.048818349838257
217.9373779296875 52.90721130371094 3.048818349838257
213.95457458496094 53.277774810791016 3.048818349838257
209.97177124023438 53.648338317871094 3.048818349838257
205.9889678955078 54.01890182495117 3.048818349838257
202.00616455078125 54.38946533203125 3.048818349838257
198.0233612060547 54.76002883911133 3.048818349838257
194.04055786132812 55.130592346191406 3.048818349838257
190.05775451660156 55.501155853271484 3.048818349838257
186.074951171875 55.87171936035156 3.048818349838257
182.09214782714844 56.24228286743164 3.048818349838257
178.10934448242188 56.61284637451172 3.048818349838257
174.1265411376953 56.9834098815918 3.048818349838257
170.14373779296875 57.353973388671875 3.048818349838257
166.1609344482422 57.72453689575195 3.048818349838257
162.17813110351562 58.09510040283203 3.048818349838257
158.19532775878906 58.46566390991211 3.048818349838257
154.2125244140625 58.83622741699219 3.048818349838257
150.22972106933594 59.206790924072266 3.048818349838257
146.24691772460938 59.577354431152344 3.048818349838257
142.2641143798828 59.94791793823242 3.048818349838257
138.28131103515625 60.3184814453125 3.048818349838257
134.2985076904297 60.68904495239258 3.048818349838257
130.31570434570312 61.059608459472656 3.048818349838257
126.3329086303711 61.430171966552734 3.048818349838257
122.35011291503906 61.80073547363281 3.048818349838257
118.36731719970703 62.17129898071289 3.048818349838257
114.384521484375 62.54186248779297 3.048818349838257
110.40172576904297 62.91242599487305 3.048818349838257
106.41893005371094 63.282989501953125 3.048818349838257
102.4361343383789 63.6535530090332 3.048818349838257
98.45333862304688 64.02411651611328 3.048818349838257
94.47054290771484 64.39468383789062 3.048818349838257
90.48774719238281 64.76525115966797 3.048818349838257
86.50495147705078 65.13581848144531 3.048818349838257
82.52215576171875 65.50638580322266 3.048818349838257
80.8287353515625 65.46853637695312 -3.0041260719299316
76.86647033691406 64.92040252685547 -3.0041260719299316
72.90420532226562 64.37226867675781 -3.0041260719299316
68.94194030761719 63.82413101196289 -3.0041260719299316
64.97967529296875 63.27599334716797 -3.0041260719299316
61.01741027832031 62.72785568237305 -3.0041260719299316
57.055145263671875 62.179718017578125 -3.0041260719299316
55.4011344909668 61.754058837890625 -2.77528977394104
51.66650390625 60.32139587402344 -2.77528977394104
50.16518783569336 59.53707504272461 -2.545048952102661
46.85606002807617 57.2899284362793 -2.545048952102661
43.546932220458984 55.042781829833984 -2.545048952102661
42.26427459716797 53.93657684326172 -2.3148016929626465
39.55531311035156 50.9935302734375 -2.3148016929626465
36.846351623535156 48.05048370361328 -2.3148016929626465
34.13739013671875 45.10743713378906 -2.3148016929626465
31.428428649902344 42.164390563964844 -2.3148016929626465
28.719467163085938 39.221343994140625 -2.3148016929626465
27.761926651000977 37.896728515625 -2.0786290168762207
25.816787719726562 34.401527404785156 -2.0786290168762207
23.87164878845215 30.906326293945312 -2.0786290168762207
21.926509857177734 27.41112518310547 -2.0786290168762207
19.98137092590332 23.915924072265625 -2.0786290168762207
18.036231994628906 20.42072296142578 -2.0786290168762207
18.036231994628906 20.42072296142578 -2.0786290168762207
18.036231994628906 20.42072296142578 -2.0786290168762207
18.036231994628906 20.42072296142578 -2.0786290168762207
18.036231994628906 20.42072296142578 -2.0786290168762207
18.036231994628906 20.42072296142578 -2.0786290168762207
18.036231994628906 20.42072296142578 -2.0786290168762207
18.036231994628906 20.42072296142578 -2.0786290168762207
18.036231994628906 20.42072296142578 -2.0786290168762207
18.036231994628906 20.42072296142578 -2.0786290168762207
18.036231994628906 20.42072296142578 -2.0786290168762207
