-390.47406000882404
-390.7204646602505
-390.7147880063456
-390.45761459913444
-389.9743999955893
-389.3131505696241
-388.5397678745968
-387.731824464132
-386.97077465166365
-383.47101066424136
-379.98111994324955
-376.5013770425325
-373.0320659469447
-369.5734804372383
-366.12592446925584
-362.68971256787285
-362.66921089745335
-362.66921089745335
-362.66921089745335
-362.66921089745335
-362.66921089745335
-362.66921089745335
-362.66921089745335
-363.4270187270935
-364.0591663821305
-364.50268283947
-364.7136250905934
-364.67116162854427
-364.3794605472709
-363.8673862683519
-363.185761540198
-363.185761540198
-362.3867884684165
-358.5805391620137
-354.7785526935532
-350.9809675940969
-347.1879282918532
-343.3995854194263
-339.61609613977805
-335.83762449218875
-332.0643417595965
-328.29642685880117
-324.53406675512906
-320.77745690327623
-317.026801716177
-313.30957277667034
-313.25751011852094
-309.25938606197604
-305.26131100134927
-301.26328688731996
-297.26531577548343
-293.2673998334986
-292.46506223767784
-292.4124895260525
-291.6053704916032
-291.55260700104736
-291.55260700104736
-291.49983062171117
-291.49983062171117
-291.44707181326817
-290.63897983722586
-286.71251126581916
-282.75850599331073
-278.8058130715103
-274.8544891193209
-270.9045940387501
-266.98678442779595
-263.04191723857525
-262.2700570552103
-258.7411815538481
-255.2262039311231
-251.7257063777413
-251.6754593201851
-250.89746173711154
-247.27403910078115
-243.66239882747288
-240.06307290389225
-236.4766236276172
-232.9036458562492
-229.34476921112847
-225.80066044286855
-222.27202597025712
-222.2215637940255
-222.2215637940255
-222.1711782179104
-222.1711782179104
-222.1208692999749
-222.1208692999749
-222.07066689624875
-222.07066689624875
-218.60063626638816
-215.24578430939664
-215.19575368565913
-214.42056400595456
-210.8473341190911
-210.79634330153428
-210.79634330153428
-210.74540668370088
-210.74540668370088
-210.69455391785706
-210.69455391785706
-210.64375546174637
-210.64375546174637
-210.59304133194246
-210.59304133194246
-210.54241158553629
-210.54241158553629
-210.4918363221619
-210.4918363221619
-210.4413455604865
-210.4413455604865
-210.3909682275177
-210.3909682275177
-210.34067515252525
-210.34067515252525
-210.29046639758874
-210.29046639758874
-210.24034202586557
-210.24034202586557
-210.1903316931801
-210.1903316931801
-210.14040587200503
-210.14040587200503
-210.0905646287063
-210.0905646287063
-210.04080803073145
-210.04080803073145
-209.99116573562813
-209.99116573562813
-209.94160822265633
-209.94160822265633
-209.8921355624839
-209.8921355624839
-209.8427478268645
-209.8427478268645
-206.47639913614682
-206.4273542956996
-205.66578128509278
-205.2543921059301
-204.48365842625017
-204.42369859257903
-204.42369859257903
-204.36155482053658
-204.36155482053658
-204.29550429144973
-204.29550429144973
-204.22231008083577
-204.22231008083577
-204.13495617922325
-204.13495617922325
-204.01274849535628
-204.01274849535628
-204.01274849535628
-204.01274849535628
-204.01274849535628
-204.01274849535628
-204.01274849535628
-204.01274849535628
-204.01274849535628
-204.01274849535628
-204.01274849535628
