-392.83858191912674
-395.6972355523969
-398.5755592935078
-401.4731000789032
-404.38944439864514
-407.32421885751415
-410.2769979462287
-413.24739556254974
-416.2350643492173
-419.2396054381747
-422.26065851821727
-425.2979019846047
-428.3509608349117
-431.4194997036606
-434.5032208458125
-437.6017733890442
-440.7148435269424
-443.84212636758093
-446.98335374837364
-450.13820389511557
-453.30639123673626
-456.48763883495565
-459.68170560722587
-462.88829529846396
-466.1071503336338
-469.3380170217544
-472.58071142936757
-475.83493011291625
-479.10044058366714
-482.37701083429994
-485.66441675147695
-484.67572693210553
-487.2991713139756
-489.9412248457912
-492.6009231508937
-492.6009231508937
-493.91367677128676
-495.25525765818895
-496.6254288455959
-498.0240168999781
-499.45073108481273
-499.111121573207
-499.6055384834748
-500.13145871309314
-500.13582311321517
-499.26478959666554
-498.4243356134148
-497.6146748900341
-496.83590287167215
-496.088169695029
-495.3716076634623
-494.6863522328747
-494.0325336761916
-493.4102769645482
-492.8197016522493
-492.8197016522493
-490.76080285604206
-488.72596362043805
-486.7154906873006
-484.7296925674623
-482.7689025152892
-480.833392160465
-478.9234736323432
-477.0394828396075
-475.18169379845415
-473.3504209660829
-471.5459735234323
-469.7686825972058
-468.01883541359166
-466.29674118525264
-464.60272991316344
-462.93708835099216
-461.3001173613165
-459.69213685287895
-458.11346597215027
-456.56438105075114
-455.04519851840655
-453.55623172662916
-452.0977518635857
-450.67006985638767
-449.2734646751919
-447.9082687570091
-446.5747282295041
-445.27312750525806
-444.00378948417875
-442.7669494520646
-441.5628804945479
-440.3918681203512
-439.254185697808
-438.1500669775339
-437.07978369539927
-436.0435928755839
-435.04171270514996
-434.0743987999562
-433.1418650287898
-432.24436078425634
-432.24436078425634
-432.24436078425634
-432.24436078425634
-432.24447746953837
-432.24459996119924
-432.2447525454028
-432.2447525454028
-435.53530503213614
-438.8376431899597
-442.1514848432899
-445.4765912159575
-448.81271193818515
-452.15958547639866
-455.5169923962233
-458.8846839982034
-462.2624528513786
-465.6500623913805
-469.04731652000305
-472.45400718454187
-475.8699147909983
-479.294884524285
-479.294884524285
-479.294884524285
-479.294884524285
-482.4627272983034
-485.6428517213618
-488.83501809809655
-492.0390171817038
-495.2545945182824
-498.48155100007983
-501.71964242271497
-504.96866157640216
-508.22839163118505
-511.4986278085716
-514.7791944308149
-518.0698710107545
-521.370490507973
-524.6808411926515
-528.0007457139179
-528.0007457139179
-531.9295655191667
-535.8594380552521
-539.7903458309758
-543.7222608947898
-547.6551615510831
-551.5890320475496
-555.5238464528882
-559.459584850882
-563.3962330425305
-567.3337669245757
-571.2721681829663
-575.2114429384071
-579.1515548291761
-583.0924819282617
-587.0342078174903
-590.9766974718168
-594.9199543160196
-598.863963195271
-602.8087569171444
-606.7542543025336
-610.7004604382464
-614.6473616731635
-618.5949254794327
-618.5949254794327
-621.984367732902
-625.3810709356359
-628.7848707797104
-632.1956526382168
-635.6133041120316
-639.0377149825483
-642.4687771653722
-645.9063846649684
-649.350433530248
-652.8008218110799
-656.2574495157148
-659.7202185691068
-663.1890529676554
-663.1890529676554
-665.6208137190977
-668.0676521372096
-670.5294231360803
-673.0059628512334
-675.4971536400615
-674.7622910222376
-676.4287930334164
-678.1148356961438
-679.8202325501468
-681.5448383082563
-683.2885075218833
-682.8335599916413
-682.7184352300274
-682.5627966419783
-682.4305685215902
-682.4305685215902
-680.7723333541029
-679.1336517671003
-677.5146224349966
-675.915386577748
-674.3360850202581
-672.7768581461038
-671.2378458505065
-669.719187492568
-669.719187492568
-666.8931814201103
-664.0792423800849
-661.2775244193015
-658.4881835315443
-655.7114232940933
-652.94735836428
-650.1961506501335
-647.4579640520641
-644.7329644724784
-644.2075279928348
-640.6845883249134
-637.1672609840352
-633.6693459885329
-633.6693459885329
-629.6891409044451
-625.7091678870713
-621.7294514077516
-617.7499964245535
-613.7707884616646
-609.7918523313464
-605.8132402888084
-601.8348914716528
-597.8567646201452
-593.8789319593869
-589.9013994407536
-585.9241966951413
-581.9473065119121
-577.9707353430861
-577.9707353430861
-574.1404602941678
-570.3125151593601
-566.4869471707331
-562.663808598543
-558.8431452603302
-555.0249885692134
-551.2094106266679
-547.3964653575028
-543.586188304673
-539.7786792738884
-535.9739535812253
-532.1720912075352
-528.3731539610984
-524.5771852668117
-520.7842704914449
-516.994479454374
-513.2078784797986
-509.4245387038362
-505.6445129183323
-501.86789675868636
-498.09474725109413
-494.3251871800416
-490.55925548316105
-486.79705737623
-483.0386800976428
-479.28419268976825
-475.5337307245489
-471.7873463451826
-468.04515880949657
-464.30726959368246
-460.5737621744478
-456.84476553618146
-453.1203915705499
-449.40075438729065
-445.6859725841291
-441.97614705784866
-438.27142559704896
-434.571917058372
-430.87779920251825
-427.189189764489
-423.50621076337455
-419.8290327076479
-416.1577872989085
-412.4926554373376
-408.8338224478661
-408.8338224478661
-404.83450379063413
-400.8351981147697
-396.83590581275087
-392.836625931401
-388.837360241048
-384.8381091841135
-380.8388940961401
-376.8396723082583
-372.8404665784569
-368.8412551544676
-364.84206084704294
-360.8428842252876
-356.84372588381586
-352.84458644419664
-348.8454665564984
-344.84636690094135
-344.84636690094135
-341.20000300759114
-337.56162643161906
-333.9315417846828
-330.3099783326564
-326.69724271037234
-323.09363104836234
-319.49942903677567
-315.9149814365244
-315.9149814365244
-311.9229141073524
-307.9310530551565
-303.93940640750117
-299.94799262951943
-295.95684394212816
-291.96594663158857
-287.9753008317998
-283.98490372115856
-279.99478971904296
-276.0049608022166
-276.0049608022166
-272.2216720030383
-268.44467581473
-264.67423137099325
-260.91063277901526
-260.91063277901526
-257.99303393989965
-255.1047970859962
-252.24693082683893
-249.42047914601662
-246.6265221422668
-243.86617670628985
-241.14059712041194
-238.45096449487278
-235.79852012224796
-233.18453306257925
-230.61031109200704
-228.07720067767715
-225.58658677048984
-223.13989239363684
-220.73857800377266
-218.38412844956437
-218.38412844956437
-218.38412844956437
-219.12789996990782
-219.94193399826509
-219.94193399826509
-222.27005294482606
-224.6452799153822
-227.06614916371873
-229.53120405351203
-232.03903611179197
-234.58826545608727
-237.17756479615906
-239.8056626282136
-242.47127164016428
-245.17316807952625
-247.91016524420314
-250.68110644870174
-253.4848851014785
-256.3204233803771
-259.186706508461
-262.0826988859422
-265.00742629708213
-267.95994176869846
-270.9393425494461
-273.944751208579
-276.97534943087305
-280.03029176959717
-283.1087899380206
-286.2100785852148
-289.33342976309365
-292.47813644978555
-295.64351697366476
-298.8289432919232
-302.0337528945678
-305.257330767594
-308.499092771903
-311.75847145760923
-315.0349198385256
-318.32791064270384
-321.6369651527404
-324.9615638949457
-328.3012308744836
-331.6555143699318
-335.0239751730043
-338.40618974353794
-341.801779452886
-345.2103205559517
-348.6314299902458
-352.06474429042237
-355.5099096802847
-358.9665847675613
-362.4344387300903
-365.91318501815897
-369.40248657022073
-372.90204570432945
-376.4115774162708
-379.9308051852277
-383.4594618918471
-386.9972883918917
-390.5440666747308
-394.0995255115303
-397.663430953352
-401.23555877181366
-404.8156911500285
-408.40361657114624
-411.9991625257432
-415.60210155855026
-419.21224213951785
-422.8294004661955
-426.4533978216375
-430.0840605086527
-433.7212217132317
-437.36474958665855
-441.01445595988406
-444.6701891879757
-448.3318017032639
-451.9991499834142
-455.6720959493595
-459.3505356549168
-463.0343078869002
-466.72328671232185
-470.4173495111357
-474.11637696887425
-477.82025404555975
-481.52886870484593
-485.2421119161822
-485.4148384834218
-488.35975635018747
-491.31964855451463
-494.2941862230861
-497.2831061970214
-496.4871165879083
-498.69433634756444
-500.92377154754126
-503.1751266841217
-505.4481087018315
-507.74248803083367
-510.05791617478883
-512.394107481062
-512.394107481062
-512.394107481062
-512.394107481062
-512.394107481062
-512.394107481062
-508.4726413882292
-504.5524078115783
-500.63343570493726
-496.71575492642444
-492.7993962736316
-488.8843915204429
-484.9707734555779
-481.0585759229525
-477.14783386395726
-473.2385833617583
-469.3308616877341
-465.4247073501664
-465.4247073501664
-461.4913967765242
-457.5592428943629
-453.6282758847119
-449.698557102829
-445.77008819869405
-441.8428720978507
-437.916973573546
-433.9924284480595
-430.0692735428065
-426.14754717928366
-422.22728920598433
-418.3085406960705
-414.39134449958647
-410.4757448603325
-406.56178783011103
-402.64949080035564
-398.738933862164
-394.83016870289987
-390.92324890676224
-387.01823027868386
-383.1151709091082
-379.2141311549618
-375.315173928262
-371.41836468876966
-367.52374115917047
-363.631404958889
-359.74143024573783
-355.8538943461071
-351.96887798970977
-351.9687254477121
-351.968572332267
-348.5824215746224
-345.2094043007916
-341.84990948964656
-338.50437048597627
-335.1731438812801
-331.8566918516566
-331.8566918516566
-327.9347445446735
-324.0147050251378
-320.0966435915313
-316.18063373166245
-312.26675285872074
-308.35508197454055
-304.4457065162851
-300.53871597477814
-296.6341745836928
-292.7322111325922
-288.8329301008661
-284.93644161316837
-281.04286182030074
-277.15231331086204
-273.2649255565508
-269.3808353943163
-265.5001875488973
-261.62313519967415
-257.74984059619084
-253.88047572718943
-250.015223048545
-250.015223048545
-246.0537077212334
-242.0934576032565
-238.13450561451558
-234.17694902134295
-230.22085964845746
-226.26631461887018
-222.31339586422575
-218.36219184109447
-214.41279688034956
-210.4653126737514
-206.51984888380463
-202.57652312007968
-198.6354323119675
-194.69675929607882
-190.76063749582866
-186.8272129286998
-182.8966754424921
-178.96921522805724
-175.04503904713525
-171.1243726413021
-167.20744755443036
-163.29454902782135
-159.3859734743319
-155.48204660728877
-151.58312740398168
-147.6895969303198
-143.80190917544047
-139.92055087308907
-136.04606353689394
-132.17905114367326
-128.32017384072387
-124.47020458866072
-120.62999638946026
-116.80051134307143
-112.98283944722611
-109.17820501731069
-105.38803598177329
-101.61395060429122
-97.85780937014444
-94.12176123651273
-90.40828073152117
-86.72028363050694
-83.06116543178432
-79.43491520951142
-75.84624686367047
-72.30074145465322
-68.80509061005013
-65.36729032101107
-61.99695713363301
-58.70572295703371
-55.5076561192725
-55.5076561192725
-51.65865413874749
-47.8344224527211
-44.041418536773286
-40.28846629700573
-36.58788452834446
-32.95732446819718
-29.422719714578925
-26.02319131173329
-22.819190377204116
-19.905367140781472
-17.42787865043474
-15.596064368138714
-14.654102745845256
-14.773192928567896
-15.929555053465293
-17.923539837989267
-20.512313718579296
-23.500121148498955
-26.753606834291087
-30.18698926258453
-33.74540345086064
-37.39317085924798
-41.106511109650555
-41.106511109650555
-41.106511109650555
-41.106511109650555
-41.106511109650555
-41.106511109650555
-41.106511109650555
-41.106511109650555
-41.106511109650555
-41.106511109650555
-41.106511109650555
