62.828426361083984 452.82843017578125 0.7853984236717224
65.65685272216797 455.6568603515625 0.7853986620903015
68.48527526855469 458.48529052734375 0.7853989005088806
71.3136978149414 461.313720703125 0.7853991389274597
74.14212036132812 464.14215087890625 0.7853993773460388
76.97054290771484 466.9705810546875 0.7853996157646179
79.79896545410156 469.79901123046875 0.785399854183197
82.62738800048828 472.62744140625 0.7854000926017761
85.455810546875 475.45587158203125 0.7854003310203552
88.28423309326172 478.2843017578125 0.7854005694389343
91.1126480102539 481.11273193359375 0.7854008078575134
93.9410629272461 483.941162109375 0.7854010462760925
96.76947784423828 486.76959228515625 0.7854012846946716
99.59789276123047 489.5980224609375 0.7854015231132507
102.42630767822266 492.42645263671875 0.7854017615318298
105.25472259521484 495.2548828125 0.7854019999504089
108.08313751220703 498.08331298828125 0.785402238368988
110.91155242919922 500.9117431640625 0.7854024767875671
113.7399673461914 503.74017333984375 0.7854026556015015
116.55408477783203 506.5471496582031 0.7828748822212219
119.37528991699219 509.3470153808594 0.7803471088409424
122.20355987548828 512.1397094726562 0.7778193354606628
125.03887939453125 514.92529296875 0.7752915620803833
127.88123321533203 517.7036743164062 0.7727637887001038
130.73060607910156 520.474853515625 0.7702360153198242
133.58670043945312 523.2384643554688 0.7676627039909363
133.58670043945312 523.2384643554688 0.3676626980304718
137.297607421875 524.6624145507812 0.3651348948478699
141.01210021972656 526.0769653320312 0.36260709166526794
144.73016357421875 527.4821166992188 0.36007925868034363
144.73016357421875 527.4821166992188 -0.03992074728012085
148.7269744873047 527.3224487304688 -0.03992050886154175
152.72378540039062 527.1627807617188 -0.039920270442962646
156.69512939453125 526.9990844726562 -0.04244806617498398
160.66604614257812 526.8253784179688 -0.04497586190700531
164.6365203857422 526.6416015625 -0.04750365763902664
168.6065216064453 526.4478149414062 -0.050031453371047974
172.57601928710938 526.2439575195312 -0.052559249103069305
172.57601928710938 526.2439575195312 -0.4525592625141144
176.1483917236328 524.5014038085938 -0.4550870656967163
179.7163543701172 522.7498168945312 -0.45761486887931824
183.27987670898438 520.9891967773438 -0.46014267206192017
186.83892822265625 519.2196044921875 -0.4626704752445221
186.83892822265625 519.2196044921875 -0.8626704812049866
189.4202880859375 516.1972045898438 -0.8651982545852661
191.99400329589844 513.1682739257812 -0.8677260279655457
194.5802459716797 510.1168212890625 -0.8677257895469666
197.16650390625 507.06536865234375 -0.8677255511283875
199.7527618408203 504.013916015625 -0.8677253127098083
202.33901977539062 500.96246337890625 -0.8677250742912292
204.92527770996094 497.9110107421875 -0.8677248358726501
207.51153564453125 494.85955810546875 -0.867724597454071
210.09779357910156 491.8081359863281 -0.8677243590354919
212.68405151367188 488.7567138671875 -0.8677241206169128
215.2703094482422 485.7052917480469 -0.8677238821983337
217.8565673828125 482.65386962890625 -0.8677236437797546
220.4428253173828 479.6024475097656 -0.8677234053611755
223.02908325195312 476.551025390625 -0.8677231669425964
225.61534118652344 473.4996032714844 -0.8677229285240173
228.20159912109375 470.44818115234375 -0.8677226901054382
230.78785705566406 467.3967590332031 -0.8677224516868591
233.37411499023438 464.3453369140625 -0.86772221326828
235.9603729248047 461.2939147949219 -0.8677219748497009
238.546630859375 458.24249267578125 -0.8677217364311218
241.1328887939453 455.1910705566406 -0.8677214980125427
243.71914672851562 452.1396484375 -0.8677212595939636
246.30540466308594 449.0882263183594 -0.8677210211753845
248.89166259765625 446.03680419921875 -0.8677207827568054
251.47793579101562 442.9853820800781 -0.8677205443382263
254.064208984375 439.9339599609375 -0.8677203059196472
254.064208984375 439.9339599609375 -0.46772077679634094
254.064208984375 439.9339599609375 -0.06772124767303467
258.02947998046875 439.6599426269531 -0.070249043405056
261.9940490722656 439.37591552734375 -0.07277683913707733
265.9578857421875 439.08184814453125 -0.07530463486909866
269.92095947265625 438.77777099609375 -0.07783243060112
273.88323974609375 438.46368408203125 -0.08036022633314133
277.8447265625 438.13958740234375 -0.08288802206516266
281.8053894042969 437.8054504394531 -0.08541581779718399
285.76519775390625 437.4613037109375 -0.08794361352920532
286.18768310546875 437.4808349609375 0.18039894104003906
290.09881591796875 438.1889953613281 0.17787113785743713
294.01171875 438.88726806640625 0.1753433346748352
297.9263610839844 439.5756530761719 0.17281553149223328
301.8427429199219 440.254150390625 0.17028766870498657
305.7608337402344 440.9227294921875 0.16775986552238464
306.1646423339844 441.0484924316406 0.43610242009162903
304.3513488769531 440.4192810058594 0.23189431428909302
302.46990966796875 440.1758117675781 0.02549336850643158
302.8874816894531 440.2430419921875 0.29383593797683716
303.0365905761719 440.25830078125 -0.08985751867294312
303.4591064453125 440.27703857421875 0.17848503589630127
307.37158203125 440.97772216796875 0.17595723271369934
307.77435302734375 441.1068115234375 0.4442997872829437
305.9662780761719 440.4627685546875 0.24009168148040771
309.82818603515625 441.40301513671875 0.2375638782978058
310.2222595214844 441.556640625 0.5059064626693726
308.457275390625 440.802490234375 0.30169835686683655
312.25396728515625 441.9787292480469 0.2991705536842346
312.6378173828125 442.1563415527344 0.567513108253479
310.922607421875 441.2949523925781 0.363305002450943
314.6393127441406 442.7025451660156 0.3607368767261505
315.0115051269531 442.9034118652344 0.6290794610977173
311.7818908691406 440.554931640625 0.6284000873565674
310.12225341796875 439.59075927734375 0.42419198155403137
308.3016052246094 438.9831848144531 0.21998387575149536
308.69830322265625 439.1298522949219 0.48832643032073975
306.9203186035156 438.4068298339844 0.28411832451820374
310.7370910644531 439.5161437988281 0.2815905213356018
311.1239929199219 439.6869812011719 0.5499330759048462
309.3938903808594 438.8558654785156 0.3457249701023102
313.1351318359375 440.19805908203125 0.34319716691970825
313.51080322265625 440.3923645019531 0.6115397214889526
311.8351745605469 439.4563293457031 0.4073316156864166
315.4866943359375 441.02630615234375 0.4048038125038147
315.84967041015625 441.2433776855469 0.6731463670730591
312.73382568359375 438.7633056640625 0.6713812351226807
311.1171569824219 437.7287292480469 0.46717312932014465
309.32550048828125 437.0440979003906 0.26283276081085205
309.7155456542969 437.2076416015625 0.5311753153800964
307.9711608886719 436.4096984863281 0.3268536627292633
308.3499450683594 436.59783935546875 0.5951962471008301
306.66241455078125 435.69140625 0.3906133770942688
310.33966064453125 437.20013427734375 0.38808557391166687
314.0207214355469 438.6995544433594 0.38555777072906494
314.3878173828125 438.90960693359375 0.6539003252983093
312.7533264160156 437.9034423828125 0.4496922194957733
316.3350830078125 439.62664794921875 0.4471644163131714
316.68853759765625 439.8589172363281 0.7155069708824158
313.6736755371094 437.24041748046875 0.7148306965827942
312.1025390625 436.13580322265625 0.5107234120368958
315.5182189941406 438.02838134765625 0.501221239566803
315.8586120605469 438.2793884277344 0.7695637941360474
315.85845947265625 438.279296875 0.3695825934410095
316.2288513183594 438.48345947265625 0.6379251480102539
314.5784912109375 437.5035400390625 0.4337170422077179
314.93505859375 437.73101806640625 0.7020596265792847
313.35089111328125 436.6473388671875 0.49785155057907104
311.8108215332031 436.0268859863281 0.2681030035018921
312.20001220703125 436.1924743652344 0.5364455580711365
315.4472351074219 438.06884765625 0.5114920735359192
318.91571044921875 440.0099792480469 0.5089622139930725
319.254150390625 440.26361083984375 0.7773047685623169
319.2539978027344 440.2635192871094 0.37732356786727905
319.622802734375 440.4705505371094 0.6456661224365234
317.9800720214844 439.4778747558594 0.4414580166339874
318.3348693847656 439.7080993652344 0.7098006010055542
315.3050842285156 437.1068420410156 0.7091262936592102
313.7286071777344 436.0119934082031 0.5049182176589966
314.0680847167969 436.2642517089844 0.773260772228241
311.2093811035156 433.47607421875 0.772586464881897
314.0592346191406 436.24676513671875 0.7700586915016174
311.1916198730469 433.4677734375 0.7693843841552734
314.0503234863281 436.22930908203125 0.7668566107749939
311.173828125 433.4595031738281 0.7661822438240051
314.0413818359375 436.2118835449219 0.7636544704437256
311.1560363769531 433.4512939453125 0.7629801034927368
314.0323791503906 436.1944885253906 0.7604523301124573
311.13818359375 433.44317626953125 0.7597779631614685
314.0232849121094 436.1771240234375 0.757250189781189
312.5013427734375 435.00775146484375 0.5530359745025635
315.88623046875 437.09124755859375 0.5505077242851257
319.2763671875 439.16619873046875 0.5479799509048462
319.60467529296875 439.432861328125 0.8163225054740906
319.6045227050781 439.4327697753906 0.41634130477905273
319.9649963378906 439.6540222167969 0.6846838593482971
318.3622741699219 438.5980529785156 0.48047247529029846
318.70782470703125 438.8419494628906 0.7488150596618652
315.7818298339844 436.1244812011719 0.7481407523155212
314.24945068359375 434.9691467285156 0.5439059734344482
317.6531982421875 437.02166748046875 0.5413782000541687
317.9832458496094 437.2861328125 0.8097207546234131
317.98309326171875 437.2860412597656 0.40973955392837524
318.3450012207031 437.5049133300781 0.6780821084976196
316.7353210449219 436.45953369140625 0.4738740026950836
317.08245849609375 436.7011413574219 0.7422165870666504
315.5430603027344 435.5547180175781 0.5380085110664368
318.9588623046875 437.5871276855469 0.5354807376861572
319.29046630859375 437.84967041015625 0.8038232922554016
319.2903137207031 437.8495788574219 0.40384209156036377
319.65350341796875 438.0663146972656 0.6721846461296082
322.7330017089844 440.4979248046875 0.6645627617835999
323.0280456542969 440.80096435546875 0.9329053163528442
323.0279235839844 440.80084228515625 0.5329241156578064
323.3601989746094 441.0625305175781 0.8012666702270508
323.36004638671875 441.06243896484375 0.40128546953201294
323.7237854003906 441.2782287597656 0.6696280241012573
324.0173034667969 441.582763671875 0.9379705786705017
324.0171813964844 441.5826416015625 0.5379893779754639
324.3481140136719 441.84600830078125 0.8063319325447083
324.34796142578125 441.8459167480469 0.4063507318496704
324.7106018066406 442.0635681152344 0.6746932864189148
325.0025634765625 442.36956787109375 0.9430358409881592
325.00244140625 442.36944580078125 0.5430546402931213
325.3320617675781 442.6344909667969 0.8113971948623657
325.3319091796875 442.6343994140625 0.4114159941673279
325.6934509277344 442.8538818359375 0.6797585487365723
325.9838562011719 443.1613464355469 0.9481011033058167
325.9837341308594 443.1612243652344 0.5481199026107788
326.3119812011719 443.42791748046875 0.8164624571800232
329.0511779785156 446.34283447265625 0.8164626955986023
331.7903747558594 449.25775146484375 0.8164629340171814
334.5295715332031 452.17266845703125 0.8164631724357605
337.2687683105469 455.08758544921875 0.8164634108543396
340.0079650878906 458.00250244140625 0.8164636492729187
342.7471618652344 460.91741943359375 0.8164638876914978
345.4863586425781 463.83233642578125 0.8164641261100769
348.2255554199219 466.74725341796875 0.816464364528656
350.9647521972656 469.66217041015625 0.8164646029472351
353.7039489746094 472.57708740234375 0.8164648413658142
356.4431457519531 475.49200439453125 0.8164650797843933
359.1823425292969 478.40692138671875 0.8164653182029724
361.9215393066406 481.32183837890625 0.8164655566215515
364.6607360839844 484.23675537109375 0.8164657950401306
367.3999328613281 487.15167236328125 0.8164660334587097
370.1391296386719 490.06658935546875 0.8164662718772888
372.8783264160156 492.98150634765625 0.8164665102958679
375.6175231933594 495.89642333984375 0.816466748714447
378.3567199707031 498.81134033203125 0.8164669871330261
381.0959167480469 501.72625732421875 0.8164672255516052
383.8250732421875 504.6250915527344 0.8146084547042847
386.5560302734375 507.5130615234375 0.8120806813240051
389.2942810058594 510.39410400390625 0.8095529079437256
392.039794921875 513.2682495117188 0.807025134563446
394.7925720214844 516.1354370117188 0.8044973611831665
397.5525817871094 518.9956665039062 0.801969587802887
400.31982421875 521.848876953125 0.7994418144226074
400.31982421875 521.848876953125 0.39944180846214294
403.9836120605469 523.3900146484375 0.396914005279541
407.6512756347656 524.921875 0.3943862020969391
411.32281494140625 526.4444580078125 0.39185836911201477
414.76910400390625 527.809814453125 0.36256083846092224
414.79681396484375 527.8143920898438 -0.034611791372299194
418.7944030761719 527.6759643554688 -0.03461155295372009
422.7919921875 527.5375366210938 -0.03461131453514099
426.7895812988281 527.3991088867188 -0.03461107611656189
430.78717041015625 527.2606811523438 -0.03461083769798279
434.7847595214844 527.1222534179688 -0.034610599279403687
438.7823486328125 526.9838256835938 -0.034610360860824585
442.7799377441406 526.8453979492188 -0.03461012244224548
446.77752685546875 526.7069702148438 -0.03460988402366638
450.7751159667969 526.5685424804688 -0.03460964560508728
454.772705078125 526.4301147460938 -0.03460940718650818
458.7702941894531 526.2916870117188 -0.03460916876792908
462.76788330078125 526.1532592773438 -0.034608930349349976
466.7654724121094 526.0148315429688 -0.034608691930770874
470.7630615234375 525.8764038085938 -0.03460845351219177
474.7606506347656 525.7379760742188 -0.03460821509361267
478.75823974609375 525.5995483398438 -0.03460797667503357
482.7558288574219 525.4611206054688 -0.03460773825645447
486.75341796875 525.3226928710938 -0.034607499837875366
490.7510070800781 525.1842651367188 -0.034607261419296265
494.74859619140625 525.0458374023438 -0.03460702300071716
498.7461853027344 524.9074096679688 -0.03460678458213806
502.7437744140625 524.7689819335938 -0.03460654616355896
506.7413635253906 524.6305541992188 -0.03460630774497986
510.73895263671875 524.4921264648438 -0.03460606932640076
514.736572265625 524.353759765625 -0.034605830907821655
518.7341918945312 524.2153930664062 -0.034605592489242554
522.7318115234375 524.0770263671875 -0.03460535407066345
522.730224609375 524.077392578125 -0.4344404637813568
522.7288818359375 524.078369140625 -0.8342756032943726
522.7288818359375 524.078369140625 -1.2342755794525146
524.0365600585938 520.324951171875 -1.236803412437439
525.3347778320312 516.5682373046875 -1.2393312454223633
526.6234741210938 512.8082275390625 -1.2418590784072876
527.9024047851562 509.0455322265625 -1.244449257850647
527.9024047851562 509.0455322265625 -1.644449234008789
527.6080322265625 505.0563659667969 -1.64444899559021
527.3136596679688 501.06719970703125 -1.6444487571716309
527.019287109375 497.0780334472656 -1.6444485187530518
526.7217407226562 493.1144714355469 -1.646976351737976
526.4172973632812 489.1260681152344 -1.646976113319397
526.1128540039062 485.1376647949219 -1.6469758749008179
526.11328125 485.1392517089844 -2.046811103820801
524.2874145507812 481.6087341308594 -2.0493388175964355
522.45263671875 478.08282470703125 -2.0518665313720703
520.6089477539062 474.56158447265625 -2.054394245147705
518.75634765625 471.0450134277344 -2.05692195892334
516.8948974609375 467.53314208984375 -2.0594496726989746
515.0245361328125 464.0259704589844 -2.0619773864746094
513.1453247070312 460.5235595703125 -2.064505100250244
513.1453247070312 460.5235595703125 -2.464505195617676
510.04425048828125 458.0372314453125 -2.4670329093933105
506.9369201660156 455.5587463378906 -2.4695606231689453
503.8233337402344 453.088134765625 -2.47208833694458
500.7034912109375 450.6253967285156 -2.474616050720215
497.57745361328125 448.1705627441406 -2.4771437644958496
494.4452209472656 445.7236328125 -2.4796714782714844
491.3067932128906 443.2846374511719 -2.482199192047119
488.1622314453125 440.85357666015625 -2.484726905822754
485.01153564453125 438.43048095703125 -2.4872546195983887
481.8547058105469 436.0153503417969 -2.4897823333740234
478.6917724609375 433.60821533203125 -2.492310047149658
475.52276611328125 431.2090759277344 -2.494837760925293
472.34771728515625 428.8179626464844 -2.4973654747009277
469.1666259765625 426.43487548828125 -2.4998931884765625
465.9795227050781 424.0598449707031 -2.5024209022521973
462.78643798828125 421.69287109375 -2.504948616027832
459.5873718261719 419.333984375 -2.507476329803467
456.3823547363281 416.9831848144531 -2.5100040435791016
453.1714172363281 414.6404724121094 -2.5125317573547363
449.9545593261719 412.305908203125 -2.515059471130371
446.7318115234375 409.9794616699219 -2.517587184906006
443.5032043457031 407.66119384765625 -2.5201148986816406
440.26873779296875 405.35107421875 -2.5226426124572754
437.0284423828125 403.04913330078125 -2.52517032623291
433.7823486328125 400.7554016113281 -2.527698040008545
430.53045654296875 398.4698791503906 -2.5302257537841797
427.2727966308594 396.1925964355469 -2.5327534675598145
424.0093994140625 393.9235534667969 -2.535281181335449
420.7402648925781 391.6627502441406 -2.537808895111084
417.4654235839844 389.41021728515625 -2.5403366088867188
414.1849060058594 387.1659851074219 -2.5428643226623535
410.8987121582031 384.9300537109375 -2.5453920364379883
407.6069030761719 382.7024230957031 -2.547919750213623
404.3094482421875 380.4831237792969 -2.550447463989258
401.00640869140625 378.27215576171875 -2.5529751777648926
397.6977844238281 376.0695495605469 -2.5555028915405273
394.38360595703125 373.87530517578125 -2.558030605316162
391.06390380859375 371.689453125 -2.560558319091797
387.7386779785156 369.5119934082031 -2.5630860328674316
384.407958984375 367.34295654296875 -2.5656137466430664
381.07177734375 365.1823425292969 -2.568141460418701
377.7301330566406 363.0301818847656 -2.570669174194336
374.383056640625 360.886474609375 -2.5731968879699707
371.03057861328125 358.751220703125 -2.5757246017456055
367.6726989746094 356.62445068359375 -2.5782523155212402
364.3094787597656 354.50616455078125 -2.580780029296875
360.94091796875 352.3963928222656 -2.5833077430725098
357.5670166015625 350.2951354980469 -2.5858354568481445
354.18780517578125 348.2024230957031 -2.5883631706237793
350.8033142089844 346.1182556152344 -2.590890884399414
347.41357421875 344.04266357421875 -2.593418598175049
344.01861572265625 341.97564697265625 -2.5959463119506836
340.6184387207031 339.9172058105469 -2.5984740257263184
337.21307373046875 337.86737060546875 -2.601001739501953
333.8025207519531 335.8261413574219 -2.603529453277588
330.3868103027344 333.7935485839844 -2.6060571670532227
326.9659729003906 331.76959228515625 -2.6085848808288574
323.5400390625 329.7543029785156 -2.611112594604492
320.1090393066406 327.7476806640625 -2.613640308380127
316.6729736328125 325.7497253417969 -2.6161680221557617
313.23187255859375 323.7604675292969 -2.6186957359313965
309.7857360839844 321.7799072265625 -2.6212234497070312
306.3346252441406 319.8080749511719 -2.623751163482666
302.8785400390625 317.844970703125 -2.626278877258301
299.4175109863281 315.890625 -2.6288089752197266
295.9515380859375 313.94500732421875 -2.6313366889953613
294.645751953125 313.4222717285156 -2.8902878761291504
290.79461669921875 312.43878173828125 -2.892815589904785
286.9410095214844 311.46502685546875 -2.89534330368042
283.0849609375 310.50103759765625 -2.8978710174560547
282.6918640136719 310.3450012207031 -2.629528522491455
279.2244873046875 308.4018859863281 -2.63205623626709
275.752197265625 306.4675598144531 -2.6345839500427246
272.2750244140625 304.5419921875 -2.6371116638183594
268.7929992675781 302.625244140625 -2.639639377593994
265.30615234375 300.71728515625 -2.642167091369629
264.9653015136719 300.4668884277344 -2.3738245964050293
267.8372802734375 303.2366943359375 -2.374824285507202
269.4101867675781 304.4752502441406 -2.5742905139923096
266.05535888671875 302.3436584472656 -2.5768182277679443
262.6951599121094 300.2205505371094 -2.579345941543579
262.3706970214844 299.9492492675781 -2.3110034465789795
262.370849609375 299.9493713378906 -2.710984468460083
262.0135803222656 299.7229919433594 -2.4426419734954834
262.25799560546875 299.86199951171875 -2.806401252746582
261.88079833984375 299.6706848144531 -2.5380587577819824
261.56781005859375 299.3861999511719 -2.269716262817383
261.5679626464844 299.3863220214844 -2.6696953773498535
261.2203369140625 299.1453857421875 -2.401352882385254
264.1689147949219 301.8369140625 -2.4021224975585938
265.7113952636719 302.9790344238281 -2.6063382625579834
265.3797302246094 302.7165832519531 -2.337995767593384
265.3798828125 302.7166748046875 -2.7379770278930664
265.0166320800781 302.5000305175781 -2.469634532928467
261.9028625488281 300.0296630859375 -2.4721622467041016
258.83917236328125 297.6325378417969 -2.483157157897949
258.5422668457031 297.3313293457031 -2.2148146629333496
260.7181701660156 300.08648681640625 -2.263702392578125
263.2700500488281 303.157958984375 -2.264376640319824
265.6838073730469 305.9776306152344 -2.2931928634643555
265.6838684082031 305.9776916503906 -2.6931846141815186
265.3306884765625 305.7449951171875 -2.424842119216919
262.3306579589844 303.1376647949219 -2.4273698329925537
259.32403564453125 300.5379333496094 -2.4298975467681885
259.0435791015625 300.2213439941406 -2.161555051803589
261.2689514160156 303.5370178222656 -2.162229299545288
261.2689514160156 303.5370178222656 -2.5622293949127197
260.9491882324219 303.26019287109375 -2.29388689994812
261.14715576171875 303.4139404296875 -2.668673038482666
260.7997741699219 303.17266845703125 -2.4003305435180664
257.8645324707031 300.4925842285156 -2.402858257293701
257.5927429199219 300.16851806640625 -2.1345157623291016
259.7276611328125 303.54315185546875 -2.135190010070801
259.7276611328125 303.54315185546875 -2.5351901054382324
259.4154968261719 303.2577819824219 -2.266847610473633
256.8630676269531 300.2109069824219 -2.269376754760742
254.55474853515625 297.6022644042969 -2.321009635925293
254.31036376953125 297.257080078125 -2.0526671409606934
256.1622314453125 300.79498291015625 -2.0533413887023926
258.0164794921875 304.3316345214844 -2.054015636444092
258.4862365722656 304.9574279785156 -2.3754286766052246
255.61863708496094 302.2051086425781 -2.3779563903808594
255.35501098632812 301.8743896484375 -2.1096138954162598
256.2110900878906 302.9606018066406 -2.3669137954711914
255.9511260986328 302.6269836425781 -2.098571300506592
255.7057342529297 302.3407897949219 -2.4606659412384033
255.41567993164062 302.032958984375 -2.1923234462738037
253.09718322753906 298.80450439453125 -2.1948511600494385
254.3705596923828 300.2381896972656 -2.399240255355835
254.09994506835938 299.91314697265625 -2.1308977603912354
251.98403930664062 296.5484924316406 -2.1334314346313477
253.16799926757812 298.0591735839844 -2.337639570236206
252.91790771484375 297.71807861328125 -2.0692970752716064
254.0026092529297 299.3015441894531 -2.2735066413879395
255.3543243408203 300.5956115722656 -2.4824557304382324
255.05763244628906 300.294189453125 -2.214113235473633
252.6714630126953 297.12139892578125 -2.217118740081787
253.97756958007812 298.52783203125 -2.4213268756866455
253.69984436035156 298.2088317871094 -2.152984380722046
254.91297912597656 299.69586181640625 -2.3572182655334473
254.65626525878906 299.3597412109375 -2.0888757705688477
256.63470458984375 302.8274230957031 -2.0896384716033936
256.63470458984375 302.8274230957031 -2.489638328552246
256.3358459472656 302.52813720703125 -2.2212958335876465
253.92478942871094 299.3681945800781 -2.2238235473632812
255.19174194335938 300.7038879394531 -2.4357621669769287
254.90943908691406 300.3889465332031 -2.167419672012329
252.6727752685547 297.10546875 -2.1701295375823975
253.911376953125 298.5716857910156 -2.374337673187256
253.64894104003906 298.2400207519531 -2.1059951782226562
254.667236328125 299.5827331542969 -2.333296298980713
254.4186248779297 299.2405700683594 -2.0649538040161133
256.3138427734375 302.75543212890625 -2.0656282901763916
256.3138427734375 302.75543212890625 -2.4656283855438232
256.02227783203125 302.4490661621094 -2.1972858905792236
253.6877899169922 299.2321472167969 -2.1998136043548584
253.9167938232422 299.4504699707031 -2.5603272914886475
253.59754943847656 299.17303466796875 -2.291984796524048
254.9864501953125 300.4569091796875 -2.4989511966705322
254.68482971191406 300.1604309082031 -2.2306087017059326
253.11289978027344 298.451171875 -2.3981175422668457
252.8426513671875 298.1258239746094 -2.129775047302246
254.02061462402344 299.6401062011719 -2.334069013595581
253.77174377441406 299.2981262207031 -2.0657265186309814
255.66798400878906 302.8061218261719 -2.0669572353363037
253.930908203125 299.7857971191406 -2.118496894836426
251.85694885253906 296.39520263671875 -2.121037721633911
253.0220947265625 297.9204406738281 -2.3252458572387695
252.7762451171875 297.5762939453125 -2.05690336227417
253.84124755859375 299.1730651855469 -2.2611119747161865
255.19549560546875 300.5058898925781 -2.467219352722168
254.90342712402344 300.1999816894531 -2.1988768577575684
252.5675811767578 296.9948425292969 -2.2022769451141357
253.8526611328125 298.4205017089844 -2.406485080718994
253.57969665527344 298.0974426269531 -2.1381425857543945
254.77069091796875 299.6024169921875 -2.3423635959625244
254.5189971923828 299.26251220703125 -2.074021100997925
256.44598388671875 302.7600402832031 -2.074695348739624
255.7460479736328 301.83074951171875 -2.3579654693603516
255.48907470703125 301.49481201171875 -2.089622974395752
256.7672424316406 303.33856201171875 -2.2643237113952637
254.22250366210938 300.2852478027344 -2.2668514251708984
251.70480346679688 297.3012390136719 -2.2764244079589844
251.47604370117188 296.94549560546875 -2.0080819129943848
252.4619903564453 298.5926513671875 -2.2122628688812256
253.76075744628906 300.0047607421875 -2.4165501594543457
253.48455810546875 299.6844482421875 -2.148207664489746
251.3517303466797 296.457275390625 -2.161377191543579
252.57745361328125 297.9342956542969 -2.3655853271484375
252.31793212890625 297.600341796875 -2.097242832183838
253.4464569091797 299.1528625488281 -2.3014538288116455
253.20887756347656 298.8029479980469 -2.033111333847046
254.99119567871094 302.3763427734375 -2.0337882041931152
254.99119567871094 302.3763427734375 -2.433788299560547
254.7095184326172 302.06085205078125 -2.1654458045959473
252.47862243652344 298.771240234375 -2.167973518371582
253.7122344970703 300.23748779296875 -2.3724963665008545
253.45040893554688 299.90533447265625 -2.104153871536255
251.42849731445312 296.4944763183594 -2.1076443195343018
252.5731201171875 298.0351867675781 -2.31185245513916
252.3319091796875 297.6877746582031 -2.0435099601745605
253.32945251464844 299.21148681640625 -2.2574000358581543
250.805908203125 296.140625 -2.259927749633789
250.5830535888672 295.7811584472656 -1.9915852546691895
251.54156494140625 297.4440612792969 -2.195793628692627
252.8173828125 298.8780212402344 -2.4000017642974854
252.54652404785156 298.5531921386719 -2.1316592693328857
253.6912841796875 300.0092468261719 -2.342494487762451
253.43954467773438 299.66937255859375 -2.0741519927978516
251.51791381835938 296.190185546875 -2.076691150665283
252.6143035888672 297.7655944824219 -2.2808992862701416
252.3839569091797 297.410888671875 -2.012556791305542
254.0924835205078 301.02020263671875 -2.013231039047241
254.09573364257812 301.0245361328125 -2.4126851558685303
253.82077026367188 300.7031555175781 -2.1443426609039307
251.65977478027344 297.3672180175781 -2.1468703746795654
252.8639373779297 298.8618469238281 -2.351078510284424
252.60928344726562 298.5241394042969 -2.082736015319824
253.69680786132812 300.0609130859375 -2.2905662059783936
251.45364379882812 297.6831970214844 -2.363610029220581
251.1947784423828 297.3487243652344 -2.0952675342559814
252.32020568847656 298.9034423828125 -2.2994821071624756
252.08331298828125 298.5530700683594 -2.031139612197876
253.10682678222656 300.1767578125 -2.2353477478027344
250.651611328125 297.0509948730469 -2.237875461578369
250.43673706054688 296.68670654296875 -1.9695329666137695
251.3553924560547 298.3634948730469 -2.1744728088378906
252.5999298095703 299.82373046875 -2.378751754760742
252.33602905273438 299.49322509765625 -2.1104092597961426
250.3013153076172 296.11865234375 -2.116356134414673
251.45932006835938 297.6493225097656 -2.3205642700195312
251.215087890625 297.30401611328125 -2.0522217750549316
252.2725830078125 298.9057312011719 -2.2564332485198975
252.0509796142578 298.54547119140625 -1.9880907535552979
253.00604248046875 300.21673583984375 -2.1918344497680664
250.6985626220703 297.00775146484375 -2.196587085723877
251.9755096435547 298.4407043457031 -2.4007952213287354
251.7043914794922 298.1160888671875 -2.1324527263641357
252.88685607910156 299.6278991699219 -2.3366644382476807
252.63710021972656 299.28656005859375 -2.068321943283081
250.73580932617188 295.79638671875 -2.0708773136138916
251.82302856445312 297.3781433105469 -2.27508544921875
251.59475708007812 297.0220947265625 -2.0067429542541504
253.2814483642578 300.6387023925781 -2.007685422897339
254.97149658203125 304.2532043457031 -2.0086753368377686
253.28346252441406 300.6630859375 -2.0119576454162598
254.98904418945312 304.2701110839844 -2.0129647254943848
253.28602600097656 300.6889343261719 -2.01641583442688
255.007568359375 304.2881774902344 -2.0174400806427
253.2891387939453 300.71685791015625 -2.02111554145813
255.0274658203125 304.30780029296875 -2.022157669067383
253.28916931152344 300.73333740234375 -2.0246853828430176
255.04017639160156 304.3179016113281 -2.0257487297058105
253.2890625 300.74969482421875 -2.0282764434814453
254.30526733398438 302.3710021972656 -2.233081102371216
251.85714721679688 299.23968505859375 -2.2356088161468506
249.40110778808594 296.11456298828125 -2.2381365299224854
249.18614196777344 295.7503356933594 -1.9697940349578857
250.1079864501953 297.4332580566406 -2.1740520000457764
247.84886169433594 294.1629638671875 -2.176579713821411
247.65670776367188 293.78619384765625 -1.9082372188568115
248.47344970703125 295.5231018066406 -2.11244535446167
249.62545776367188 297.05828857421875 -2.3166534900665283
249.38258361816406 296.7120361328125 -2.0483109951019287
250.43382263183594 298.3179016113281 -2.252519130706787
250.21363830566406 297.956787109375 -1.9841766357421875
248.6156005859375 294.3334655761719 -1.9881688356399536
249.56842041015625 295.9996337890625 -2.1923768520355225
247.24974060058594 292.77130126953125 -2.1949045658111572
247.05072021484375 292.3981018066406 -1.9265620708465576
247.8992156982422 294.11993408203125 -2.130753993988037
245.78375244140625 290.75494384765625 -2.133281946182251
245.60809326171875 290.3702087402344 -1.8649394512176514
246.35733032226562 292.1668395996094 -2.066849946975708
244.46107482910156 288.6736145019531 -2.0693776607513428
244.31033325195312 288.2784423828125 -1.8010351657867432
245.22300720214844 292.166015625 -1.801709532737732
246.13819885253906 296.052734375 -1.8024077415466309
247.05616760253906 299.9389343261719 -1.8030917644500732
246.13621520996094 296.0721435546875 -1.8056201934814453
247.06666564941406 299.95538330078125 -1.8063045740127563
246.13429260253906 296.091552734375 -1.8088324069976807
247.07720947265625 299.9717712402344 -1.8095171451568604
246.13243103027344 296.1109619140625 -1.8120449781417847
247.08779907226562 299.9881286621094 -1.8127299547195435
246.130615234375 296.13037109375 -1.8152577877044678
246.78257751464844 297.9356689453125 -2.019460678100586
247.46144104003906 298.96124267578125 -2.2915737628936768
247.22732543945312 298.6090087890625 -2.023231267929077
245.61862182617188 295.498779296875 -2.073031425476074
243.7008056640625 292.017333984375 -2.075559139251709
243.54762268066406 291.62310791015625 -1.8072166442871094
244.18502807617188 293.43353271484375 -2.0114247798919678
242.48519897460938 289.84063720703125 -2.0139524936676025
242.35658264160156 289.4377136230469 -1.745609998703003
243.05242919921875 293.3688049316406 -1.7463891506195068
243.1473388671875 293.6225280761719 -2.1110894680023193
242.98025512695312 293.2339782714844 -1.8427469730377197
243.68157958984375 295.0206298828125 -2.0469553470611572
243.53973388671875 294.6221618652344 -1.7786128520965576
244.12437438964844 296.4467468261719 -1.983156681060791
245.05555725097656 298.08807373046875 -2.1905486583709717
244.858154296875 297.7140197753906 -1.922206163406372
243.48521423339844 293.98394775390625 -1.9247345924377441
244.33050537109375 295.7071533203125 -2.1289427280426025
244.15650939941406 295.3216552734375 -1.860600233078003
244.85977172851562 296.9998474121094 -2.0746500492095947
242.9363250732422 293.5215148925781 -2.0771777629852295
242.7825164794922 293.1275329589844 -1.8088352680206299
243.4228515625 294.9369201660156 -2.0130436420440674
241.7172088623047 291.3467712402344 -2.015571355819702
241.5879364013672 290.9440612792969 -1.7472288608551025
242.11566162109375 292.7894592285156 -1.951436996459961
242.85655212402344 294.1412658691406 -2.1928932666778564
242.6582794189453 293.7676696777344 -1.9245507717132568
243.5032501220703 295.49102783203125 -2.1287589073181152
243.32933044433594 295.1054992675781 -1.8604164123535156
243.8132781982422 296.1636962890625 -2.1390414237976074
243.63540649414062 295.77996826171875 -1.8706989288330078
242.82057189941406 293.817138671875 -2.057865619659424
242.6743927001953 293.4202575683594 -1.7895231246948242
243.2796630859375 295.2416687011719 -1.9937338829040527
241.64366149902344 291.6192626953125 -1.996261715888977
241.52220153808594 291.2141418457031 -1.727919101715088
242.14845275878906 295.1579895019531 -1.7285934686660767
241.51885986328125 291.23345947265625 -1.731121301651001
242.0167999267578 293.08709716796875 -1.9353294372558594
241.97854614257812 293.02587890625 -2.3230535984039307
241.73345947265625 292.6811828613281 -2.054711103439331
241.58853149414062 292.2838439941406 -1.7863686084747314
242.1880645751953 294.107177734375 -1.9905768632888794
240.56350708007812 290.4796142578125 -1.9931046962738037
240.4433135986328 290.0740966796875 -1.724762201309204
240.929443359375 291.9308776855469 -1.9289703369140625
239.53131103515625 288.2101745605469 -1.9314981698989868
239.4363250732422 287.79803466796875 -1.6631555557250977
239.80601501464844 291.7741394042969 -1.6638299226760864
239.4313201904297 287.8210754394531 -1.6667522192001343
239.8153076171875 291.79583740234375 -1.667426586151123
239.4264678955078 287.84381103515625 -1.6703150272369385
239.82461547851562 291.8171691894531 -1.6709893941879272
240.21080017089844 293.7017822265625 -1.8748297691345215
239.0160675048828 289.910888671875 -1.8773585557937622
237.81173706054688 286.1230163574219 -1.8798863887786865
237.73812866210938 285.7065124511719 -1.611543893814087
237.90220642089844 289.6963806152344 -1.6122186183929443
238.0689697265625 293.6861267089844 -1.6128945350646973
237.89663696289062 289.71514892578125 -1.6154223680496216
238.07618713378906 293.704345703125 -1.6160982847213745
237.89112854003906 289.73394775390625 -1.6186261177062988
238.08346557617188 293.7225646972656 -1.6193020343780518
237.8856964111328 289.7527770996094 -1.621829867362976
238.09080505371094 293.7407531738281 -1.6225059032440186
237.88031005859375 289.7716064453125 -1.6250337362289429
238.17916870117188 291.66754150390625 -1.829242467880249
237.15841674804688 287.82611083984375 -1.8317703008651733
236.12796020507812 283.9872741699219 -1.8342981338500977
236.0734100341797 283.56787109375 -1.565955638885498
236.0734405517578 283.56805419921875 -1.9659367799758911
235.9643096923828 283.159423828125 -1.697594165802002
236.23976135253906 284.1428527832031 -1.9901752471923828
236.12075805664062 283.73699951171875 -1.7218327522277832
235.58514404296875 281.516357421875 -1.8931212425231934
235.5060272216797 281.1008605957031 -1.6247787475585938
235.8043975830078 282.99688720703125 -1.8289867639541626
235.7520751953125 282.5771789550781 -1.5606441497802734
235.7521209716797 282.5774230957031 -1.9606201648712158
235.64517211914062 282.168212890625 -1.6922776699066162
236.0697021484375 284.03173828125 -1.897284746170044
235.98886108398438 283.6165771484375 -1.6289422512054443
236.29515075683594 285.5116882324219 -1.8331212997436523
236.24110412597656 285.09222412109375 -1.5647788047790527
236.2411346435547 285.0924072265625 -1.9647600650787354
236.1324920654297 284.68365478515625 -1.6964175701141357
236.56581115722656 286.553466796875 -1.9006267786026
236.48358154296875 286.1385803222656 -1.632284164428711
236.73094177246094 290.1194152832031 -1.6334326267242432
237.0385284423828 291.9172668457031 -1.8470500707626343
235.9495391845703 288.0946350097656 -1.8495779037475586
235.8885955810547 287.6761169433594 -1.581235408782959
236.02371215820312 291.09075927734375 -1.6394542455673218
235.74571228027344 287.12811279296875 -1.6422141790390015
236.0771026611328 289.0186462402344 -1.8464223146438599
236.01747131347656 288.59991455078125 -1.5780797004699707
236.04827880859375 292.5915832519531 -1.578900694847107
236.0110321044922 288.61712646484375 -1.5814377069473267
236.05523681640625 292.6086120605469 -1.5822646617889404
236.00462341308594 288.6343078613281 -1.5848031044006348
236.06224060058594 292.62554931640625 -1.5856362581253052
235.99822998046875 288.6514587402344 -1.5881763696670532
236.06930541992188 292.6424255371094 -1.589016079902649
235.9918670654297 288.6686096191406 -1.5915580987930298
236.076416015625 292.65924072265625 -1.5924043655395508
235.9854736328125 288.685546875 -1.594932198524475
236.08348083496094 292.6758117675781 -1.5957856178283691
235.97911071777344 288.70245361328125 -1.5983134508132935
236.2271728515625 290.60467529296875 -1.802625060081482
235.30902099609375 286.7374572753906 -1.8051528930664062
235.2667236328125 286.3166198730469 -1.5368103981018066
235.26675415039062 286.3168029785156 -1.9367916584014893
235.16958618164062 285.9051818847656 -1.6684491634368896
235.10391235351562 285.6816711425781 -2.044658899307251
234.96298217773438 285.28289794921875 -1.7763164043426514
234.93283081054688 284.86102294921875 -1.5079739093780518
234.932861328125 284.8612060546875 -1.9079551696777344
234.84759521484375 284.4469299316406 -1.6396126747131348
235.17384338378906 286.3355712890625 -1.8440922498703003
235.1151885986328 285.9167175292969 -1.5757496356964111
235.13638305664062 289.909912109375 -1.5764260292053223
235.08714294433594 286.05303955078125 -1.590704321861267
235.3207550048828 287.9581298828125 -1.794912338256836
235.2827606201172 287.5368957519531 -1.5265698432922363
235.1076202392578 291.52630615234375 -1.527244210243225
235.1076202392578 291.52630615234375 -1.9272441864013672
235.01438903808594 291.11376953125 -1.6589016914367676
235.3633270263672 292.8630065917969 -1.8764899969100952
235.2911376953125 292.4462585449219 -1.608147382736206
235.1376495361328 288.4744873046875 -1.6106752157211304
235.4092559814453 290.3745422363281 -1.8148833513259888
234.4437713623047 286.51885986328125 -1.817411184310913
234.3963165283203 286.09857177734375 -1.5490686893463135
234.31097412109375 290.0909118652344 -1.5497430562973022
234.3896026611328 286.1170349121094 -1.5522772073745728
234.3170623779297 290.109619140625 -1.5529515743255615
234.3829345703125 286.135498046875 -1.5554852485656738
234.32321166992188 290.1282958984375 -1.5561596155166626
234.3763427734375 286.15399169921875 -1.5586929321289062
234.47341918945312 289.2906494140625 -1.6447770595550537
234.17449951171875 285.3282165527344 -1.6474084854125977
233.7945098876953 282.42584228515625 -1.7545543909072876
233.77354431152344 282.00341796875 -1.4862117767333984
233.4388427734375 285.97784423828125 -1.4873621463775635
233.10745239257812 289.957275390625 -1.4880400896072388
233.10745239257812 289.957275390625 -1.8880400657653809
233.03045654296875 289.5413818359375 -1.6196975708007812
233.28799438476562 291.032470703125 -1.8639451265335083
233.22103881835938 290.6148681640625 -1.5956025123596191
233.1173858642578 286.6415100097656 -1.5981303453445435
233.34088134765625 288.1139831542969 -1.8447256088256836
233.28196716308594 287.6951599121094 -1.576383113861084
233.48826599121094 289.6033935546875 -1.7805912494659424
232.65554809570312 285.7168884277344 -1.7831190824508667
232.62252807617188 285.29522705078125 -1.5147764682769775
232.40036010742188 289.28228759765625 -1.5154508352279663
232.46856689453125 291.57720947265625 -1.6855651140213013
232.00836181640625 287.62921142578125 -1.6880929470062256
231.53817749023438 283.6824035644531 -1.69062077999115
231.54425048828125 283.2594909667969 -1.4222781658172607
231.5442657470703 283.2596740722656 -1.8222594261169434
231.49476623535156 282.8396301269531 -1.5539169311523438
231.55679321289062 278.8653869628906 -1.556444764137268
231.60877990722656 274.8910217285156 -1.5589725971221924
231.67030334472656 274.4725646972656 -1.2906301021575928
231.6702880859375 274.4727478027344 -1.6906113624572754
231.67636108398438 274.0498352050781 -1.4222688674926758
231.67637634277344 274.0500183105469 -1.8222501277923584
231.62689208984375 273.6299743652344 -1.5539076328277588
231.69053649902344 273.21185302734375 -1.2855651378631592
231.69052124023438 273.2120361328125 -1.6855463981628418
231.69873046875 272.7891845703125 -1.4172039031982422
231.69874572753906 272.78936767578125 -1.8171851634979248
231.65138244628906 272.36907958984375 -1.5488426685333252
231.71714782714844 271.9512634277344 -1.2805001735687256
231.71713256835938 271.9514465332031 -1.6804814338684082
231.7274932861328 271.52862548828125 -1.4121389389038086
231.7274932861328 271.52880859375 -1.8121201992034912
231.68226623535156 271.1082763671875 -1.5437777042388916
231.75015258789062 270.6908264160156 -1.275435209274292
231.75013732910156 270.6910095214844 -1.6754164695739746
231.76263427734375 270.26824951171875 -1.407073974609375
232.4145965576172 266.3217468261719 -1.407073736190796
233.06655883789062 262.375244140625 -1.4070748090744019
233.71852111816406 258.4287414550781 -1.4070745706558228
234.3704833984375 254.48223876953125 -1.4070743322372437
235.02244567871094 250.53573608398438 -1.4070740938186646
235.67440795898438 246.5892333984375 -1.4070738554000854
236.3263702392578 242.64273071289062 -1.4070736169815063
236.97833251953125 238.69622802734375 -1.4070733785629272
237.6302947998047 234.74972534179688 -1.4070731401443481
238.2822723388672 230.80322265625 -1.407072901725769
238.9342498779297 226.85671997070312 -1.40707266330719
239.5862274169922 222.91021728515625 -1.4070724248886108
240.2382049560547 218.96371459960938 -1.4070721864700317
240.8901824951172 215.0172119140625 -1.4070719480514526
240.8901824951172 215.0172119140625 -1.0070724487304688
242.98475646972656 211.6813201904297 -1.0131756067276
243.2545623779297 211.35560607910156 -0.7448330521583557
246.17335510253906 208.65762329101562 -0.7473608255386353
249.08432006835938 205.952880859375 -0.7500033378601074
249.4295654296875 205.7085723876953 -0.4816608428955078
252.97447204589844 203.85556030273438 -0.4816606044769287
256.4952697753906 202.00961303710938 -0.4841238558292389
260.0108642578125 200.15516662597656 -0.4866516590118408
263.5217590332031 198.29183959960938 -0.48917946219444275
267.0279235839844 196.41964721679688 -0.4917072653770447
270.52935791015625 194.53858947753906 -0.4942350685596466
274.0260314941406 192.64869689941406 -0.49676287174224854
277.5179138183594 190.74996948242188 -0.49929067492485046
281.0048828125 188.84249877929688 -0.5018312931060791
284.4870910644531 186.9261016845703 -0.5043590664863586
287.1280517578125 185.52154541015625 -0.4732179641723633
287.65203857421875 185.33319091796875 -0.21696221828460693
291.5582580566406 184.47213745117188 -0.21696197986602783
295.4644775390625 183.611083984375 -0.21696174144744873
299.3706970214844 182.75003051757812 -0.21696150302886963
303.27691650390625 181.88897705078125 -0.21696126461029053
307.1831359863281 181.02792358398438 -0.21696102619171143
311.08935546875 180.1668701171875 -0.21696078777313232
314.9955749511719 179.30581665039062 -0.21696054935455322
318.90179443359375 178.44476318359375 -0.21696031093597412
322.8080139160156 177.58370971679688 -0.21696007251739502
326.7142333984375 176.72265625 -0.21695983409881592
330.6204528808594 175.86160278320312 -0.21695959568023682
334.52667236328125 175.0005645751953 -0.21695935726165771
338.4328918457031 174.1395263671875 -0.2169591188430786
342.339111328125 173.2784881591797 -0.2169588804244995
346.2453308105469 172.41744995117188 -0.2169586420059204
350.15155029296875 171.55641174316406 -0.2169584035873413
354.0577697753906 170.69537353515625 -0.2169581651687622
357.9639892578125 169.83433532714844 -0.2169579267501831
361.8702087402344 168.97329711914062 -0.216957688331604
365.77642822265625 168.1122589111328 -0.2169574499130249
369.6826477050781 167.251220703125 -0.2169572114944458
373.5888671875 166.3901824951172 -0.2169569730758667
377.4950866699219 165.52914428710938 -0.2169567346572876
381.40130615234375 164.66810607910156 -0.2169564962387085
385.3075256347656 163.80706787109375 -0.2169562578201294
389.2137451171875 162.94602966308594 -0.2169560194015503
393.1199645996094 162.08499145507812 -0.2169557809829712
397.02618408203125 161.2239532470703 -0.2169555425643921
400.9324035644531 160.36293029785156 -0.216955304145813
404.838623046875 159.5019073486328 -0.2169550657272339
408.7448425292969 158.64088439941406 -0.21695482730865479
412.65106201171875 157.7798614501953 -0.21695458889007568
416.5572814941406 156.91883850097656 -0.21695435047149658
420.4635009765625 156.0578155517578 -0.21695411205291748
424.3697204589844 155.19679260253906 -0.21695387363433838
428.27593994140625 154.3357696533203 -0.21695363521575928
432.1821594238281 153.47474670410156 -0.21695339679718018
436.08837890625 152.6137237548828 -0.21695315837860107
439.9945983886719 151.75270080566406 -0.21695291996002197
443.90081787109375 150.8916778564453 -0.21695268154144287
447.8070373535156 150.03065490722656 -0.21695244312286377
451.7132568359375 149.1696319580078 -0.21695220470428467
455.6194763183594 148.30860900878906 -0.21695196628570557
459.52569580078125 147.4475860595703 -0.21695172786712646
463.4319152832031 146.58657836914062 -0.21695148944854736
467.338134765625 145.72557067871094 -0.21695125102996826
471.2443542480469 144.86456298828125 -0.21695101261138916
475.15057373046875 144.00355529785156 -0.21695077419281006
479.0567932128906 143.14254760742188 -0.21695053577423096
482.9630126953125 142.2815399169922 -0.21695029735565186
486.8692321777344 141.4205322265625 -0.21695005893707275
490.77545166015625 140.5595245361328 -0.21694982051849365
494.6816711425781 139.69851684570312 -0.21694958209991455
498.587890625 138.83750915527344 -0.21694934368133545
502.4941101074219 137.97650146484375 -0.21694910526275635
506.40032958984375 137.11549377441406 -0.21694886684417725
510.3065490722656 136.25448608398438 -0.21694862842559814
514.2127685546875 135.3934783935547 -0.21694839000701904
518.1190185546875 134.532470703125 -0.21694815158843994
518.1174926757812 134.5331268310547 -0.6167832612991333
518.1163940429688 134.53431701660156 -1.0166183710098267
520.2037353515625 131.15182495117188 -1.019146203994751
522.2825317382812 127.7640609741211 -1.0216740369796753
524.3527221679688 124.37115478515625 -1.0242125988006592
524.3527221679688 124.37115478515625 -1.4242125749588013
524.9282836914062 120.43832397460938 -1.4267404079437256
525.493896484375 116.5040512084961 -1.42926824092865
526.049560546875 112.568359375 -1.4317960739135742
526.5952758789062 108.63127899169922 -1.4343239068984985
527.1310424804688 104.69282531738281 -1.4368517398834229
527.6567993164062 100.75303649902344 -1.4393795728683472
528.172607421875 96.81192779541016 -1.4419071674346924
528.686767578125 92.84510803222656 -1.4419069290161133
528.6868896484375 92.84674072265625 -1.8417420387268066
527.6163330078125 88.99266815185547 -1.8417418003082275
526.5457763671875 85.13859558105469 -1.8417415618896484
525.4752197265625 81.2845230102539 -1.8417413234710693
525.4759521484375 81.28596496582031 -2.2415783405303955
523.0012817382812 78.17557525634766 -2.2441060543060303
523.0012817382812 78.17557525634766 -2.644106149673462
519.5059204101562 76.28321838378906 -2.6466338634490967
516.0057983398438 74.39969635009766 -2.6491615772247314
512.5009155273438 72.52503204345703 -2.651689291000366
512.4859008789062 72.52053833007812 -3.050112247467041
508.52734375 72.1624755859375 -3.052639961242676
504.5679016113281 71.81442260742188 -3.0551676750183105
500.6075744628906 71.47637939453125 -3.0576953887939453
496.64642333984375 71.14834594726562 -3.06022310256958
492.6844482421875 70.83032989501953 -3.062750816345215
488.7216796875 70.52232360839844 -3.0652785301208496
484.7581481933594 70.22433471679688 -3.0678062438964844
480.79388427734375 69.93637084960938 -3.070333957672119
476.8288879394531 69.6584243774414 -3.072861671447754
472.86322021484375 69.3905029296875 -3.0753893852233887
468.8968811035156 69.13260650634766 -3.0779170989990234
464.9299011230469 68.88473510742188 -3.080444812774658
460.9623107910156 68.64689636230469 -3.082972526550293
456.9941101074219 68.41908264160156 -3.0855002403259277
453.0253601074219 68.20130157470703 -3.0880279541015625
449.0560607910156 67.9935531616211 -3.0905556678771973
445.0862731933594 67.79583740234375 -3.093083381652832
441.1159973144531 67.608154296875 -3.095611095428467
437.1452331542969 67.43051147460938 -3.0981388092041016
433.1740417480469 67.26290893554688 -3.1006665229797363
429.20245361328125 67.10533905029297 -3.103194236755371
425.23046875 66.95780944824219 -3.105721950531006
421.25811767578125 66.82032012939453 -3.1082496643066406
420.8410949707031 66.74980163574219 -2.839907169342041
420.45770263671875 66.57123565673828 -2.5715646743774414
417.10870361328125 64.4305191040039 -2.574092388153076
417.10870361328125 64.4305191040039 -2.974092483520508
416.7048645019531 64.30485534667969 -2.705749988555908
413.0995788574219 62.63142013549805 -2.708277702331543
409.4900817871094 60.96710205078125 -2.7108054161071777
405.87640380859375 59.311912536621094 -2.7133331298828125
405.87640380859375 59.311912536621094 -3.113333225250244
405.4590148925781 59.24351501464844 -2.8449907302856445
401.6563720703125 58.08665466308594 -2.8475184440612793
397.850830078125 56.93941116333008 -2.850046157836914
394.0423889160156 55.80179214477539 -2.852573871612549
390.2310791015625 54.67380142211914 -2.8551015853881836
386.41693115234375 53.555450439453125 -2.8576292991638184
382.5999755859375 52.44674301147461 -2.860157012939453
382.5999755859375 52.44674301147461 3.0230281352996826
382.1770935058594 52.44014358520508 -2.991814613342285
378.2461242675781 51.852046966552734 -2.99434232711792
374.3136901855469 51.273887634277344 -2.9968700408935547
370.3797912597656 50.70566940307617 -2.9993977546691895
366.4444580078125 50.14739990234375 -3.001925468444824
362.50775146484375 49.59907913208008 -3.004453182220459
358.5696716308594 49.06071090698242 -3.0069808959960938
354.6302185058594 48.53229904174805 -3.0095086097717285
354.6302185058594 48.53229904174805 2.8736765384674072
354.2110595703125 48.58869552612305 -3.1411662101745605
350.236328125 48.592063903808594 3.139491319656372
346.2616271972656 48.60547637939453 3.1369636058807373
342.2869873046875 48.628936767578125 3.1344358921051025
338.3124084472656 48.662445068359375 3.1319081783294678
334.3379211425781 48.705997467041016 3.129380464553833
330.3635559082031 48.75959777832031 3.1268527507781982
326.38934326171875 48.8232421875 3.1243250370025635
322.4153137207031 48.896934509277344 3.1217973232269287
318.44146728515625 48.98067092895508 3.119269609451294
314.4678649902344 49.0744514465332 3.116741895675659
310.4945068359375 49.17827606201172 3.1142141819000244
306.52142333984375 49.292144775390625 3.1116864681243896
302.54864501953125 49.416053771972656 3.109158754348755
298.576171875 49.55000686645508 3.10663104057312
294.60406494140625 49.694000244140625 3.1041033267974854
290.63232421875 49.8480339050293 3.1015756130218506
290.63232421875 49.8480339050293 2.701575517654419
290.22900390625 49.97538375854492 2.9699180126190186
286.3135681152344 50.65938186645508 2.967390298843384
282.3998718261719 51.353275299072266 2.964862585067749
278.4879455566406 52.05706024169922 2.9623348712921143
274.57781982421875 52.770729064941406 2.9598071575164795
270.6695251464844 53.49428176879883 2.9572794437408447
266.7630615234375 54.22771072387695 2.95475172996521
262.85845947265625 54.971012115478516 2.952224016189575
258.95574951171875 55.724178314208984 2.9496963024139404
255.05496215820312 56.48720932006836 2.9471685886383057
251.15611267089844 57.26009750366211 2.944640874862671
247.2592315673828 58.04283905029297 2.942113161087036
243.3643341064453 58.835426330566406 2.9395854473114014
239.47145080566406 59.637855529785156 2.9370577335357666
235.5806121826172 60.45012283325195 2.934530019760132
231.69183349609375 61.27222442626953 2.932002305984497
227.780029296875 62.10432052612305 2.9319350719451904
223.89340209960938 62.93650817871094 2.9294073581695557
220.00889587402344 63.77851867675781 2.926879644393921
216.1007537841797 64.63078308105469 2.9268798828125
212.2183837890625 65.48260498046875 2.9243521690368652
208.3381805419922 66.34423828125 2.9218244552612305
204.4601593017578 67.21568298339844 2.9192967414855957
200.58436584472656 68.096923828125 2.916769027709961
196.71080017089844 68.98796081542969 2.914241313934326
192.83950805664062 69.88878631591797 2.9117136001586914
190.01373291015625 70.49021911621094 2.952056407928467
189.59140014648438 70.51362609863281 -3.062788963317871
185.6286163330078 70.20577239990234 -3.065316677093506
181.66506958007812 69.9079360961914 -3.0678443908691406
177.70077514648438 69.62012481689453 -3.0703721046447754
173.73577880859375 69.34233093261719 -3.07289981842041
169.77008056640625 69.0745620727539 -3.075427532196045
165.80372619628906 68.81681823730469 -3.0779552459716797
161.83673095703125 68.56909942626953 -3.0804829597473145
157.86912536621094 68.33140563964844 -3.083010673522949
153.9009246826172 68.10374450683594 -3.085538387298584
149.93215942382812 67.88611602783203 -3.0880661010742188
145.96286010742188 67.67852020263672 -3.0905938148498535
141.99305725097656 67.48095703125 -3.0931215286254883
138.02276611328125 67.29342651367188 -3.095649242401123
134.05201721191406 67.11593627929688 -3.098176956176758
130.08082580566406 66.94847869873047 -3.1007046699523926
126.10922241210938 66.79106140136719 -3.1032323837280273
122.13723754882812 66.64368438720703 -3.105760097503662
118.16488647460938 66.50634765625 -3.108287811279297
114.19220733642578 66.3790512084961 -3.1108155250549316
110.2192153930664 66.26180267333984 -3.1133432388305664
106.24594116210938 66.15459442138672 -3.115870952606201
102.27240753173828 66.05742645263672 -3.118398666381836
98.29864501953125 65.97030639648438 -3.1209263801574707
94.32466888427734 65.89322662353516 -3.1234540939331055
90.32533264160156 65.8206787109375 -3.1234538555145264
86.32599639892578 65.74813079833984 -3.1234536170959473
82.32666015625 65.67558288574219 -3.123453378677368
78.32732391357422 65.60302734375 -3.123453140258789
74.32798767089844 65.53047180175781 -3.12345290184021
70.32865142822266 65.45791625976562 -3.123452663421631
66.32931518554688 65.38536071777344 -3.1234524250030518
62.32997512817383 65.31280517578125 -3.1234521865844727
62.329978942871094 65.31280517578125 -2.723452568054199
58.674598693847656 63.688560485839844 -2.72345232963562
55.01921844482422 62.06431579589844 -2.723452091217041
55.019222259521484 62.0643196105957 -2.3234524726867676
