61.81667709350586 451.5450439453125 0.6241406202316284
63.85785675048828 452.7783508300781 0.4628830552101135
66.07057189941406 453.6679382324219 0.30162549018859863
68.39740753173828 454.1907043457031 0.14036792516708374
70.77799224853516 454.3330993652344 -0.020889639854431152
73.15055084228516 454.0914001464844 -0.18214720487594604
75.45352172851562 453.471923828125 -0.34340476989746094
77.62715148925781 452.4906921386719 -0.5046623349189758
79.61503601074219 451.1732177734375 -0.6659198999404907
81.36559295654297 449.55364990234375 -0.8271774649620056
84.07341766357422 446.60955810546875 -0.8271774649620056
86.78124237060547 443.66546630859375 -0.8271774649620056
89.48906707763672 440.72137451171875 -0.8271774649620056
92.19689178466797 437.77728271484375 -0.8271774649620056
94.90471649169922 434.83319091796875 -0.8271774649620056
97.61254119873047 431.88909912109375 -0.8271774649620056
100.32036590576172 428.94500732421875 -0.8271774649620056
103.02819061279297 426.00091552734375 -0.8271774649620056
105.73601531982422 423.05682373046875 -0.8271774649620056
108.44384002685547 420.11273193359375 -0.8271774649620056
111.15166473388672 417.16864013671875 -0.8271774649620056
113.85948944091797 414.22454833984375 -0.8271774649620056
115.32730102539062 412.34490966796875 -0.9884350299835205
117.52729034423828 409.0042419433594 -0.9884350299835205
119.72727966308594 405.66357421875 -0.9884350299835205
121.9272689819336 402.3229064941406 -0.9884350299835205
124.12725830078125 398.98223876953125 -0.9884350299835205
126.3272476196289 395.6415710449219 -0.9884350299835205
128.52723693847656 392.3009033203125 -0.9884350299835205
130.7071990966797 388.9805603027344 -0.9912325739860535
132.8778533935547 385.65411376953125 -0.9940308928489685
135.03919982910156 382.3216247558594 -0.9968292117118835
137.1912078857422 378.98309326171875 -0.9996275305747986
139.3338623046875 375.6385498046875 -1.0024259090423584
141.46714782714844 372.28802490234375 -1.0052242279052734
143.59104919433594 368.9315490722656 -1.0080225467681885
145.70555114746094 365.56915283203125 -1.0108208656311035
145.70556640625 365.5691223144531 -1.4108185768127441
146.34275817871094 361.6202087402344 -1.4108185768127441
146.97994995117188 357.6713562011719 -1.4108115434646606
147.61717224121094 353.7225036621094 -1.4108049869537354
148.25440979003906 349.7736511230469 -1.4107979536056519
148.8916778564453 345.8247985839844 -1.4107909202575684
149.5289764404297 341.8759765625 -1.4107838869094849
150.1663055419922 337.9271545410156 -1.4107768535614014
150.8036651611328 333.97833251953125 -1.4107698202133179
151.4410400390625 330.0295104980469 -1.4107627868652344
152.0784454345703 326.0806884765625 -1.4107557535171509
152.71588134765625 322.1318664550781 -1.4107483625411987
153.3533477783203 318.18304443359375 -1.4107413291931152
153.99090576171875 314.23577880859375 -1.4105819463729858
154.6290283203125 310.2870178222656 -1.4105819463729858
155.26715087890625 306.3382568359375 -1.4105819463729858
155.9052734375 302.3894958496094 -1.4105819463729858
155.90196228027344 302.2951354980469 -1.8010797500610352
154.98898315429688 298.4007873535156 -1.8010727167129517
154.07601928710938 294.5064392089844 -1.8010656833648682
153.16305541992188 290.6120300292969 -1.8010656833648682
152.25009155273438 286.7176208496094 -1.8010656833648682
151.33712768554688 282.8232116699219 -1.8010656833648682
150.42416381835938 278.9288024902344 -1.8010656833648682
149.51119995117188 275.0343933105469 -1.8010656833648682
148.59823608398438 271.1399841308594 -1.8010656833648682
147.68527221679688 267.2455749511719 -1.8010656833648682
146.77230834960938 263.3511657714844 -1.8010656833648682
145.85934448242188 259.4567565917969 -1.8010656833648682
144.94638061523438 255.5623321533203 -1.8010656833648682
144.03341674804688 251.66790771484375 -1.8010656833648682
143.12045288085938 247.7734832763672 -1.8010656833648682
142.20748901367188 243.87905883789062 -1.8010656833648682
141.29452514648438 239.98463439941406 -1.8010656833648682
140.38156127929688 236.0902099609375 -1.8010656833648682
139.46859741210938 232.19578552246094 -1.8010656833648682
138.55563354492188 228.30136108398438 -1.8010656833648682
137.64266967773438 224.4069366455078 -1.8010656833648682
136.91311645507812 222.1364288330078 -1.9623231887817383
135.82847595214844 220.01251220703125 -2.1235806941986084
134.41688537597656 218.09030151367188 -2.2848381996154785
131.7973175048828 215.06741333007812 -2.2848381996154785
129.17774963378906 212.04452514648438 -2.2848381996154785
126.55817413330078 209.02163696289062 -2.2848381996154785
124.85570526123047 207.3502960205078 -2.4460055828094482
121.78499603271484 204.78695678710938 -2.4460055828094482
118.71428680419922 202.22361755371094 -2.4460055828094482
115.6435775756836 199.6602783203125 -2.4460055828094482
112.57286834716797 197.09693908691406 -2.4460055828094482
109.50215911865234 194.53359985351562 -2.4460055828094482
106.43144989013672 191.9702606201172 -2.4460055828094482
103.3607406616211 189.40692138671875 -2.4460055828094482
100.30793762207031 186.86575317382812 -2.4488015174865723
97.24806213378906 184.33316040039062 -2.4515998363494873
94.18110656738281 181.80914306640625 -2.4543981552124023
91.10710144042969 179.29371643066406 -2.4571964740753174
88.02606964111328 176.78689575195312 -2.4599947929382324
84.93803405761719 174.28871154785156 -2.4627931118011475
81.843017578125 171.79917907714844 -2.4655914306640625
78.74105072021484 169.3183135986328 -2.4683897495269775
75.63215637207031 166.84613037109375 -2.4711880683898926
72.51634979248047 164.38265991210938 -2.4739863872528076
69.39366149902344 161.92791748046875 -2.4767847061157227
66.26412200927734 159.48193359375 -2.4795830249786377
63.12774658203125 157.04470825195312 -2.4823813438415527
63.12772750854492 157.04469299316406 -2.8823790550231934
59.26143264770508 156.0194091796875 -2.8823719024658203
55.39507293701172 154.9940948486328 -2.8823719024658203
55.39507293701172 154.9940948486328 -2.8823719024658203
55.39507293701172 154.9940948486328 -2.8823719024658203
55.39507293701172 154.9940948486328 -2.8823719024658203
55.39507293701172 154.9940948486328 -2.8823719024658203
55.39507293701172 154.9940948486328 -2.8823719024658203
55.39507293701172 154.9940948486328 -2.8823719024658203
55.39507293701172 154.9940948486328 -2.8823719024658203
55.39507293701172 154.9940948486328 -2.8823719024658203
55.39507293701172 154.9940948486328 -2.8823719024658203
55.39507293701172 154.9940948486328 -2.8823719024658203
