-392.8384897919982
-395.69711065883644
-398.57539943142405
-401.4729329321268
-404.3893275558028
-407.3241483169389
-410.2770301188505
-413.2475553740581
-416.2353464930305
-419.24006411002176
-422.2613173239608
-425.2987535844036
-428.35205822967504
-431.4208649547463
-434.50484514824984
-437.60370742600355
-440.71710865309484
-443.8447427285649
-446.986340118695
-450.1415794391888
-453.31017468658325
-456.49184849957965
-459.686359382352
-462.8934408637162
-466.11277457490655
-466.16224665811103
-468.25007158105007
-470.36263882437896
-472.4996785557756
-472.5262423565666
-473.2381132534132
-473.9827299935308
-474.7599385013772
-475.5695789867247
-476.4114861003114
-477.285489093051
-478.19141197846903
-479.12907369802815
-479.13232462407274
-478.5440831280718
-477.9886565814384
-477.46615562889497
-477.4429419180481
-475.4704698401263
-473.52364035051266
-471.602770742992
-469.70814559799027
-467.8400883083995
-465.9989186624158
-464.1849811130914
-462.39857154714514
-460.64001051622034
-458.9096421132925
-457.2077624069144
-455.5347195801687
-453.89079827525546
-452.27632160270537
-450.6916346118734
-449.13701831171403
-447.61279192805097
-446.11929528602394
-444.6568098007115
-443.22563648571867
-441.8261137253463
-440.45851531274235
-439.1231332077271
-437.82029631658725
-436.55026845656573
-435.31333012170535
-434.10979119414657
-432.9581753413838
-431.8544511640819
-430.798984808013
-429.79215557019717
-429.7934014939988
-430.398751031102
-431.05465236521184
-431.76084429007904
-432.51707515834204
-433.32309309776974
-432.5019916658002
-433.32268879643124
-432.48681593667794
-433.3222987825784
-432.471681231917
-433.3222582939615
-432.45622208669766
-433.32326425877767
-432.440910513725
-433.3308734677219
-432.42645173551466
-433.350902535677
-432.41022639078165
-433.34916960304514
-432.39387416879384
-433.3473301626631
-432.377404956466
-433.3453163102652
-432.36076682980917
-433.34315385900175
-432.34398573075356
-433.34083327161807
-432.32707768997625
-433.33838035725336
-432.310068649668
-433.3357788419694
-434.4098110435595
-433.3181634445826
-434.4065744206036
-433.3004312768459
-434.4031890770213
-433.2825727714033
-434.3996623164492
-433.2645879091177
-434.39598682922815
-433.2464604108307
-434.3921534217008
-433.22820652166666
-434.3881877690294
-433.20980996664395
-434.3840733867881
-433.19131281576176
-434.36946335479405
-433.1299930647165
-434.36442944620234
-433.10979155596954
-434.35950013146436
-433.0902339272684
-434.35441227747265
-433.0707580603505
-434.34925605795905
-433.0512693565262
-434.34397480184435
-433.03171240927196
-434.33850063093155
-433.0120192750973
-434.3328777077068
-435.7000279294143
-434.3126416747419
-435.69379909959287
-434.29227967402704
-435.6874380697736
-434.2717916870712
-435.68091927315146
-434.25116124632734
-435.6742260343591
-434.2304047864029
-435.6674172470698
-434.2095387341434
-435.6604506708542
-434.1885301788787
-435.65335186608394
-434.16739554949527
-435.6460952586733
-434.1461512671729
-435.6386974960908
-434.12478087048754
-435.6311508293457
-434.1032679057773
-435.6234629893025
-434.08164522799865
-435.6156428879279
-434.059938529549
-435.6077071681577
-434.03807992581454
-435.5996302405062
-435.5996302405062
-435.5996302405062
-439.34598106684
-443.0967975853101
-446.85196765402065
-446.91452265798296
-446.91452265798296
-446.97735246005345
-446.97735246005345
-447.0404484152156
-447.0404484152156
-447.1038189356451
-447.1038189356451
-447.16746390366177
-447.16746390366177
-447.23138320314627
-447.23138320314627
-447.29557671953944
-447.29557671953944
-447.36001893032534
-447.36001893032534
-447.42471823218136
-447.42471823218136
-447.4896660083776
-447.4896660083776
-447.55487065229033
-447.55487065229033
-447.6203235567463
-447.6203235567463
-447.68600770877066
-447.68600770877066
-447.75194840493526
-447.75194840493526
-447.8181201369983
-447.8181201369983
-447.8845228027826
-447.8845228027826
-447.9511393831863
-447.9511393831863
-448.0179866944078
-448.0179866944078
-448.0850477172974
-448.0850477172974
-448.15233927482564
-448.15233927482564
-448.21981895376166
-448.21981895376166
-448.2875120532714
-448.2875120532714
-448.35541847799647
-451.7024295055803
-451.7024295055803
-451.77068610261966
-451.77068610261966
-451.83912802096967
-451.83912802096967
-451.90778048229845
-451.90778048229845
-451.97660103747296
-451.97660103747296
-452.0456066582306
-455.48892841681726
-455.48892841681726
-455.558233618182
-455.558233618182
-455.6277214729332
-455.6277214729332
-455.6973747307056
-455.6973747307056
-455.7671933141265
-455.7671933141265
-455.83715192346295
-455.83715192346295
-455.9072757107146
-455.9072757107146
-455.9775646038779
-455.9775646038779
-456.04797613008117
-456.04797613008117
-456.1185526229241
-456.1185526229241
-456.18925161249837
-456.18925161249837
-456.2601154367529
-456.2601154367529
-456.3311016287755
-456.3311016287755
-456.4022101265289
-456.4022101265289
-456.4734580566554
-456.4734580566554
-456.54482817580237
-456.54482817580237
-456.61630323881576
-456.61630323881576
-456.6879003779
-456.6879003779
-456.7596195402853
-456.7596195402853
-456.83143546014935
-456.83143546014935
-456.90335611257274
-456.9646016538058
-456.9646016538058
-457.02613372057664
-457.02613372057664
-457.0879521939989
-457.0879521939989
-457.15005695657584
-457.15005695657584
-457.21247309922074
-457.21247309922074
-457.2751752973519
-457.2751752973519
-457.3381462309746
-457.3381462309746
-457.40140299085715
-457.40140299085715
-457.46492825582493
-457.46492825582493
-457.5286967108202
-457.5286967108202
-457.5927334451752
-457.5927334451752
-457.65703834695825
-457.65703834695825
-457.7216113057826
-457.7216113057826
-457.78642701793746
-457.78642701793746
-457.85151057351266
-457.85151057351266
-457.9168194503003
-457.9168194503003
-457.9823959592992
-457.9823959592992
-458.04819758028947
-458.04819758028947
-458.11424939921784
-458.11424939921784
-458.18052612378995
-458.18052612378995
-458.24702765444533
-458.24702765444533
-458.3137538932159
-458.3137538932159
-458.38070474372523
-458.38070474372523
-458.44788011118766
-458.44788011118766
-458.51526266325374
-458.51526266325374
-458.58285230369
-458.58285230369
-458.650666180227
-458.650666180227
-458.71866178199264
-458.71866178199264
-458.7868641988407
-458.7868641988407
-458.85527334141244
-458.85527334141244
-458.9238639461286
-458.9238639461286
-458.99266110498894
-458.99266110498894
-459.06162230901816
-459.06162230901816
-459.13076472658014
-459.13076472658014
-459.20007102637936
-459.20007102637936
-459.2695583828479
-459.2695583828479
-459.3392094655458
-459.3392094655458
-459.40902419785255
-459.40902419785255
-459.4790025049468
-459.4790025049468
-459.54914431380536
-459.54914431380536
-459.619449553202
-459.619449553202
-459.68989298701786
-459.68989298701786
-459.7604824531717
-459.7604824531717
-459.8312099810343
-459.8312099810343
-459.90208340859334
-459.90208340859334
-459.97309477233256
-459.97309477233256
-460.04422674724555
-460.04422674724555
-460.11547927378734
-460.11547927378734
-460.1868522942555
-460.1868522942555
-460.2583457527887
-460.2583457527887
-460.3299595953655
-460.3299595953655
-460.4016937698031
-460.4016937698031
-460.47350579438165
-464.1757491557761
-464.1757491557761
-464.24772538611995
-464.24772538611995
-464.3198027063542
-464.3198027063542
-464.39197332511947
-464.39197332511947
-464.464219845361
-464.464219845361
-464.536542226505
-468.2964828111264
-472.060374719616
-475.8281489514995
-479.5996893659214
-483.37493247777536
-487.1537498768369
-490.9361008423612
-494.72187986919545
-498.51103334655454
-502.30348515633466
-506.0991368235789
-509.897941247014
-513.6998042412608
-517.5046826688075
-521.3124863455813
-525.1231758251513
-528.9366462137058
-532.7528798401378
-536.5718179782269
-540.3933793318192
-544.2175326278734
-548.0441997268799
-551.8733522486154
-555.7049150087953
-559.5388623298657
-563.3751217963537
-567.213651301173
-571.0543998875211
-574.8973467706851
-578.7424483750866
-582.5896622513358
-586.4388995729929
-590.2901676470997
-594.1434271934185
-594.208859284499
-597.3658170752055
-600.532866928112
-603.7098307247531
-606.8965721065956
-610.0929381246177
-613.298758724242
-616.5139060270691
-619.7382151233774
-622.9715635468227
-626.2137913511284
-629.4647812929283
-629.5152917522239
-631.6432024637643
-633.7892576324716
-635.9532733773816
-638.1350667848963
-640.3344768145923
-642.5513019495166
-644.7853623757733
-647.0365005888607
-649.3045393299462
-651.5892810498424
-653.890550476751
-656.2081735398368
-658.5419773917034
-658.7199392636227
-658.725159929468
-658.7020437155852
-658.6541188260559
-655.5005167718421
-652.3562384517562
-649.2214191841233
-646.096196501994
-642.9806892241774
-639.8750605513882
-636.7794548667279
-633.6940189035117
-630.6188811733116
-627.5542140029542
-624.5001713855835
-624.4361940524443
-620.6300697980494
-616.826422317235
-613.0252976294406
-609.2267428716747
-605.4308063316148
-605.358190807834
-601.3684564939471
-597.3873827323063
-593.4061841973302
-589.4248585690401
-585.4434237704169
-581.461880090259
-577.4802226269511
-573.4984516295738
-569.5165622387095
-565.5345749603586
-561.5524874825193
-557.5702974938455
-553.5880026836647
-549.6055804017969
-545.6145262703594
-541.6236041848605
-537.6413369115621
-533.6504209314927
-529.6596421411929
-525.6690058280975
-521.6785127628802
-517.6881457054475
-513.6979283542646
-509.7078436461248
-505.7179155126617
-501.72814970636665
-497.73854776282104
-497.66798383186267
-494.10206251588914
-490.54111823134195
-486.98523712729536
-483.4345102568589
-479.8890733805582
-476.349067076369
-472.81459090809625
-469.2857922840588
-465.7628000548183
-462.2457468641146
-458.7347692775343
-455.2300294436225
-455.2300294436225
-451.2590179306566
-447.2880003340423
-443.3169767263514
-439.3459688744927
-435.3749770505865
-431.3955509177084
-427.4165058960406
-423.4378309232507
-419.45955866864614
-415.48170027799773
-411.5042678498647
-407.52725195862075
-403.5506871641372
-403.48085965390266
-399.9841833170442
-396.4951447550114
-393.01394694934146
-389.5407566279048
-386.07583396416896
-382.6193809870177
-379.17165208085464
-375.73288744160817
-372.3033559366849
-368.88329417743216
-365.4729654546788
-362.07264773465823
-358.68264609987887
-355.3032555203044
-355.3032555203044
-351.36566318767893
-347.42870271656875
-343.4923961110432
-339.5567899814387
-335.6219046959797
-331.687769856522
-327.7461741649626
-323.8060028556637
-319.86728476734237
-315.9300986118531
-311.9945309799341
-308.06058044215234
-308.06058044215234
-307.98740410972897
-304.0498407833162
-304.0498407833162
-303.9766652396249
-303.9766652396249
-303.9035176462792
-303.9035176462792
-303.83038367915526
-303.83038367915526
-303.7572776908871
-299.80194424948496
-299.80194424948496
-299.72884406412004
-299.72884406412004
-299.6557803544313
-299.6557803544313
-299.58275314435735
-299.58275314435735
-299.5097624607411
-299.5097624607411
-299.4368083333332
-299.4368083333332
-299.363900289915
-299.363900289915
-299.2910527602496
-299.2910527602496
-299.2182513888963
-299.2182513888963
-299.145520105945
-299.145520105945
-299.0728589551451
-299.0728589551451
-299.0002440965153
-295.0100389037881
-295.0100389037881
-294.9374946047348
-294.9374946047348
-294.8650200935592
-294.8650200935592
-294.7926249128377
-294.7926249128377
-294.72032353690827
-294.72032353690827
-294.64810161202604
-294.64810161202604
-294.57595920413115
-290.62299286992896
-290.62299286992896
-290.551020029914
-290.551020029914
-290.4791506171279
-290.4791506171279
-290.4073608032034
-290.4073608032034
-290.33568405810576
-290.33568405810576
-290.26413487848555
-290.26413487848555
-290.1926989328455
-290.1926989328455
-290.1213763098373
-290.1213763098373
-290.050190999272
-290.050190999272
-289.97911919546027
-289.97911919546027
-289.90818489186097
-289.90818489186097
-289.8373881855343
-289.8373881855343
-289.76673866889735
-289.76673866889735
-289.69622695379365
-289.69622695379365
-289.62586264003403
-289.62586264003403
-289.55564583867914
-289.55564583867914
-289.48559105585787
-289.48559105585787
-289.4156840118679
-289.4156840118679
-289.3459487116418
-289.3459487116418
-289.2763852735325
-289.2763852735325
-289.20699381867837
-289.20699381867837
-289.1377839715865
-289.1377839715865
-289.0687463604003
-289.0687463604003
-288.99989061730463
-288.99989061730463
-288.9312073741539
-288.9312073741539
-288.86273014481264
-288.86273014481264
-288.7944495595645
-288.7944495595645
-288.72635139042364
-288.72635139042364
-288.65845965288696
-288.65845965288696
-288.59077449127517
-288.59077449127517
-288.52329605264174
-288.52329605264174
-288.45604834976086
-288.45604834976086
-288.38900766829346
-284.48609657317564
-284.48609657317564
-284.4193633401354
-284.4193633401354
-284.3528628437223
-284.3528628437223
-284.28660479416425
-284.28660479416425
-284.22057980158286
-284.22057980158286
-284.15478802875407
-284.15478802875407
-284.0892391977203
-284.0892391977203
-284.0239334805652
-284.0239334805652
-283.95888527889224
-283.95888527889224
-283.8940805359408
-283.8940805359408
-283.82953365107227
-283.82953365107227
-283.7652543593697
-279.9591503832531
-279.9591503832531
-279.8953146794529
-279.8953146794529
-279.83173947284166
-279.83173947284166
-279.76843456467856
-279.7684108743661
-279.7054001444846
-279.7053764567346
-279.64263640431676
-279.64261271916325
-279.58016722129344
-279.58016722129344
-279.51801646442004
-279.51801646442004
-279.4561369627545
-279.4561369627545
-279.3945525926408
-279.3945525926408
-279.33327318058065
-279.33327318058065
-279.2723129670463
-275.5771803700233
-275.5771803700233
-275.5167429698515
-275.5167429698515
-275.45662773149184
-275.45662773149184
-275.39681130190064
-271.7465295526265
-271.7465295526265
-269.04605775600794
-266.3783352367219
-263.74432180498013
-261.1450480335852
-258.58157304814716
-256.05496068231776
-253.5663134391341
-251.11675969235037
-248.7074655494139
-246.33960145124334
-244.0143841947441
-241.73302253008947
-239.49679154149314
-237.30695686555245
-235.16482470367004
-235.16482470367004
-234.56879210236107
-234.0396656326185
-233.57789981859926
-233.1848819628771
-233.1848819628771
-234.4367873538602
-235.74996688513966
-237.12340241026047
-238.55605305164678
-240.04679033848538
-240.04679033848538
-242.90362091939596
-245.7923697598498
-248.71194327823446
-251.66124996115653
-254.63928299128676
-257.6450128400319
-260.67751505530435
-263.73583939927295
-266.8191182647717
-269.92647611373565
-273.05711804464534
-276.21022509217835
-279.38502995230914
-282.58083488621213
-285.79690784850203
-289.0325942569218
-292.28722071106876
-295.56018941039264
-298.85086437999263
-302.15870060329894
-305.48311247989636
-308.82355908446954
-312.17955908430633
-315.55058787758946
-318.9361973640743
-322.3358949444059
-325.74927281246585
-329.17587677645594
-332.61532237791664
-336.0671910337399
-339.5311326586841
-343.00674850535154
-346.4936909397122
-349.9916503932677
-353.5002708207935
-357.019263164357
-360.54829849328564
-364.08711392317804
-367.6353942753546
-371.19290097533076
-374.7593420211022
-378.3344906921471
-381.9180765352508
-385.50986380977764
-389.10965164986163
-392.7171938272702
-396.3323080659331
-399.95475955548255
-403.58437735375554
-407.22094324447755
-410.86430231782555
-414.51424313794774
-418.1706257594376
-421.83325303261677
-425.50196074385445
-429.1766252563836
-432.85706515556285
-436.54316411102326
-440.2347478954973
-443.93171183776747
-447.63389173666394
-451.3411901945288
-455.053451225448
-458.77058426296526
-462.4924430429555
-466.2189130233416
-469.9498851537306
-473.68531230441835
-473.7473188598875
-473.7897053175824
-473.80604287271734
-473.9393345831973
-474.1063966204988
-474.3071933449254
-474.5416819775627
-474.8098126457456
-474.8006913601007
-473.5531950901893
-472.3363367016913
-471.1503535921133
-469.9954798764748
-468.8719449366926
-467.7799745940875
-466.71979040962134
-465.6916094832568
-465.6596567886896
-465.6049146871992
-465.5357363583934
-461.5738821777546
-457.6126885209317
-453.6522340617025
-449.69244530703713
-445.73340216873976
-441.7750935138145
-441.7020027492242
-437.8253523773977
-433.9509375456191
-430.07878783758105
-426.2089959811968
-422.3415957650024
-418.476684614439
-414.61430107115325
-410.7544565013182
-406.8974085380642
-403.0431117971841
-403.04408658050426
-399.0772691398913
-395.11111622644904
-391.14567860129836
-387.18094731566646
-383.21694436088666
-379.2537235812203
-375.29127838011453
-371.32963406868436
-367.368847192602
-363.41775439744725
-359.46806737794776
-355.51983264928646
-351.5730990105953
-347.62788680712123
-343.68428005327615
-339.7423651803658
-335.8021703553882
-331.86375715169436
-327.92719014407015
-323.9925676445144
-320.0599608851207
-316.1294141863606
-312.2010367288676
-308.26602800970136
-304.332741277217
-300.4012128500383
-296.4715130786194
-292.54374657266095
-292.47054704901007
-292.47054704901007
-292.3973572297693
-292.3973572297693
-292.3241771847671
-288.40277818952427
-284.4985841176159
-284.4985841176159
-284.4253809918611
-284.4253809918611
-284.3522153240936
-284.35194073795924
-284.27878202269034
-284.2637420500108
-284.19058892461055
-282.90803299646666
-278.9331414529616
-274.9589746990053
-270.9855648203887
-267.01294585831863
-266.9399442725865
-266.9399442725865
-266.86692273514427
-266.86692273514427
-266.7938507026629
-266.7938507026629
-266.7207281468543
-266.7207281468543
-266.6476160663882
-266.6476160663882
-266.57448400142573
-266.57448400142573
-266.5013318595439
-266.5013318595439
-266.42815962545495
-266.42815962545495
-266.35496728711905
-266.35496728711905
-266.2817853476306
-266.2817853476306
-266.20858336327086
-262.29892972706307
-258.39102033448034
-254.48496722549325
-250.58085722374818
-250.58085722374818
-250.50767110179896
-246.5995004154344
-246.5995004154344
-246.52631837259258
-242.61414034747625
-242.61414034747625
-242.540928721421
-238.6166898478693
-238.6166898478693
-238.54350673646118
-234.62420932924437
-230.69855745479842
-230.69855745479842
-230.6253666301583
-230.6253666301583
-230.55217069994268
-226.61792829735018
-222.6971826882929
-218.76681076184508
-214.83900274267464
-210.91390142495592
-206.99166003637376
-203.07241344392995
-199.1563699299888
-195.24370667528203
-191.33463107598385
-187.42938315193794
-183.52819176842718
-179.63133639318514
-175.73909004562242
-171.85176577142389
-167.96972144910885
-164.09331531468135
-160.22295763590566
-156.3591124890926
-152.50225968314348
-148.65294312730427
-144.81178024290958
-140.97942064444328
-137.15660370345373
-133.34416471364037
-129.54300507235806
-125.75416200556387
-121.97876850836109
-118.21811237346097
-114.47366301096802
-110.7470468422135
-107.1905612376145
-103.47671597899337
-103.47574105039531
-99.47620440153118
-95.47669488192182
-91.4772178583244
-87.4777757928821
-83.478375511905
-79.47902307712431
-75.47972408116662
-71.48048928273205
-67.48132237770035
-63.48224298812285
-59.483270536217375
-55.484426084551885
-51.485741212567305
-47.48725414344527
-43.48902116830908
-39.49111897080356
-39.34488044940111
-35.61843061250743
-35.61842323137407
-31.618722263531993
-27.619065056213508
-23.619476349579532
-19.61999755256593
-15.620711555683037
-11.62181761307972
-7.623932996500572
-3.630398169487819
-0.4825662455290055
